EESchema Schematic File Version 4
LIBS:HFM-I-cache
EELAYER 29 0
EELAYER END
$Descr A4 11693 8268
encoding utf-8
Sheet 1 1
Title ""
Date ""
Rev ""
Comp ""
Comment1 ""
Comment2 ""
Comment3 ""
Comment4 ""
$EndDescr
$Comp
L Device:R R1
U 1 1 5B84D4D9
P 900 4725
F 0 "R1" H 970 4771 50  0000 L CNN
F 1 "150K" H 970 4680 50  0000 L CNN
F 2 "Resistors_ThroughHole:R_Axial_DIN0207_L6.3mm_D2.5mm_P10.16mm_Horizontal" V 830 4725 50  0001 C CNN
F 3 "~" H 900 4725 50  0001 C CNN
	1    900  4725
	1    0    0    -1  
$EndComp
$Comp
L Device:R R2
U 1 1 5B84D5C3
P 1400 4725
F 0 "R2" H 1470 4771 50  0000 L CNN
F 1 "110K" H 1470 4680 50  0000 L CNN
F 2 "Resistors_ThroughHole:R_Axial_DIN0207_L6.3mm_D2.5mm_P10.16mm_Horizontal" V 1330 4725 50  0001 C CNN
F 3 "~" H 1400 4725 50  0001 C CNN
	1    1400 4725
	1    0    0    -1  
$EndComp
$Comp
L Device:R R3
U 1 1 5B84D66B
P 1800 4225
F 0 "R3" H 1870 4271 50  0000 L CNN
F 1 "220K" H 1870 4180 50  0000 L CNN
F 2 "Resistors_ThroughHole:R_Axial_DIN0207_L6.3mm_D2.5mm_P10.16mm_Horizontal" V 1730 4225 50  0001 C CNN
F 3 "~" H 1800 4225 50  0001 C CNN
	1    1800 4225
	1    0    0    -1  
$EndComp
$Comp
L Device:C C1
U 1 1 5B84D71F
P 1150 4475
F 0 "C1" V 895 4475 50  0000 C CNN
F 1 "10uF" V 986 4475 50  0000 C CNN
F 2 "Capacitors_ThroughHole:C_Rect_L26.5mm_W8.5mm_P22.50mm_MKS4" H 1188 4325 50  0001 C CNN
F 3 "~" H 1150 4475 50  0001 C CNN
	1    1150 4475
	0    1    1    0   
$EndComp
$Comp
L Device:C C3
U 1 1 5B84D7FD
P 1800 4725
F 0 "C3" H 1915 4771 50  0000 L CNN
F 1 "33pF" H 1915 4680 50  0000 L CNN
F 2 "Capacitors_ThroughHole:C_Rect_L7.2mm_W4.5mm_P5.00mm_FKS2_FKP2_MKS2_MKP2" H 1838 4575 50  0001 C CNN
F 3 "~" H 1800 4725 50  0001 C CNN
	1    1800 4725
	1    0    0    -1  
$EndComp
$Comp
L Device:Q_PNP_CBE Q1
U 1 1 5B84D903
P 2100 4475
F 0 "Q1" H 2291 4521 50  0000 L CNN
F 1 "BC560C" H 2291 4430 50  0000 L CNN
F 2 "TO_SOT_Packages_THT:TO-92_Molded_Wide" H 2300 4575 50  0001 C CNN
F 3 "~" H 2100 4475 50  0001 C CNN
	1    2100 4475
	1    0    0    1   
$EndComp
$Comp
L Device:Q_PNP_CBE Q2
U 1 1 5B84D983
P 2300 3175
F 0 "Q2" H 2491 3129 50  0000 L CNN
F 1 "BC560C" H 2491 3220 50  0000 L CNN
F 2 "TO_SOT_Packages_THT:TO-92_Molded_Wide" H 2500 3275 50  0001 C CNN
F 3 "~" H 2300 3175 50  0001 C CNN
	1    2300 3175
	-1   0    0    1   
$EndComp
$Comp
L Device:R R5
U 1 1 5B84DA4E
P 2200 2725
F 0 "R5" H 2270 2771 50  0000 L CNN
F 1 "15K" H 2270 2680 50  0000 L CNN
F 2 "Resistors_ThroughHole:R_Axial_DIN0207_L6.3mm_D2.5mm_P10.16mm_Horizontal" V 2130 2725 50  0001 C CNN
F 3 "~" H 2200 2725 50  0001 C CNN
	1    2200 2725
	1    0    0    -1  
$EndComp
$Comp
L Device:CP C4
U 1 1 5B84DB30
P 2200 2225
F 0 "C4" H 1975 2325 50  0000 L CNN
F 1 "100uF" H 1925 2100 50  0000 L CNN
F 2 "Capacitors_ThroughHole:CP_Radial_D6.3mm_P2.50mm" H 2238 2075 50  0001 C CNN
F 3 "~" H 2200 2225 50  0001 C CNN
	1    2200 2225
	1    0    0    -1  
$EndComp
$Comp
L Device:R R4
U 1 1 5B84DBE3
P 2200 1725
F 0 "R4" H 2270 1771 50  0000 L CNN
F 1 "390K" H 2270 1680 50  0000 L CNN
F 2 "Resistors_ThroughHole:R_Axial_DIN0207_L6.3mm_D2.5mm_P10.16mm_Horizontal" V 2130 1725 50  0001 C CNN
F 3 "~" H 2200 1725 50  0001 C CNN
	1    2200 1725
	1    0    0    -1  
$EndComp
$Comp
L Device:R R6
U 1 1 5B84DC81
P 2600 1725
F 0 "R6" H 2670 1771 50  0000 L CNN
F 1 "33K" H 2670 1680 50  0000 L CNN
F 2 "Resistors_ThroughHole:R_Axial_DIN0207_L6.3mm_D2.5mm_P10.16mm_Horizontal" V 2530 1725 50  0001 C CNN
F 3 "~" H 2600 1725 50  0001 C CNN
	1    2600 1725
	1    0    0    -1  
$EndComp
$Comp
L Device:C C5
U 1 1 5B84DD2C
P 2600 1325
F 0 "C5" H 2715 1371 50  0000 L CNN
F 1 "10nF" H 2650 1225 50  0000 L CNN
F 2 "suf_capacitor:C_EXFS_HR_7.5x7.5" H 2638 1175 50  0001 C CNN
F 3 "~" H 2600 1325 50  0001 C CNN
	1    2600 1325
	1    0    0    -1  
$EndComp
$Comp
L Device:C C6
U 1 1 5B84DDA6
P 3000 1325
F 0 "C6" H 3115 1371 50  0000 L CNN
F 1 "3,3nF" H 3050 1225 50  0000 L CNN
F 2 "suf_capacitor:C_EXFS_HR_7.5x7.5" H 3038 1175 50  0001 C CNN
F 3 "~" H 3000 1325 50  0001 C CNN
	1    3000 1325
	1    0    0    -1  
$EndComp
$Comp
L Device:Q_NPN_CBE Q3
U 1 1 5B84DEBF
P 3300 1675
F 0 "Q3" H 3491 1721 50  0000 L CNN
F 1 "BC550C" H 3491 1630 50  0000 L CNN
F 2 "TO_SOT_Packages_THT:TO-92_Molded_Wide" H 3500 1775 50  0001 C CNN
F 3 "~" H 3300 1675 50  0001 C CNN
	1    3300 1675
	1    0    0    -1  
$EndComp
$Comp
L Device:R R10
U 1 1 5B84E004
P 3400 2725
F 0 "R10" H 3470 2771 50  0000 L CNN
F 1 "470" H 3470 2680 50  0000 L CNN
F 2 "Resistors_ThroughHole:R_Axial_DIN0207_L6.3mm_D2.5mm_P10.16mm_Horizontal" V 3330 2725 50  0001 C CNN
F 3 "~" H 3400 2725 50  0001 C CNN
	1    3400 2725
	1    0    0    -1  
$EndComp
$Comp
L Device:R R9
U 1 1 5B84E0D2
P 3400 2225
F 0 "R9" H 3470 2271 50  0000 L CNN
F 1 "470" H 3470 2180 50  0000 L CNN
F 2 "Resistors_ThroughHole:R_Axial_DIN0207_L6.3mm_D2.5mm_P10.16mm_Horizontal" V 3330 2225 50  0001 C CNN
F 3 "~" H 3400 2225 50  0001 C CNN
	1    3400 2225
	1    0    0    -1  
$EndComp
$Comp
L Device:R R7
U 1 1 5B84E14E
P 2600 2225
F 0 "R7" H 2670 2271 50  0000 L CNN
F 1 "51K" H 2670 2180 50  0000 L CNN
F 2 "Resistors_ThroughHole:R_Axial_DIN0207_L6.3mm_D2.5mm_P10.16mm_Horizontal" V 2530 2225 50  0001 C CNN
F 3 "~" H 2600 2225 50  0001 C CNN
	1    2600 2225
	1    0    0    -1  
$EndComp
$Comp
L Device:Q_NPN_CBE Q5
U 1 1 5B84E225
P 3300 4175
F 0 "Q5" H 3491 4221 50  0000 L CNN
F 1 "BC550C" H 3491 4130 50  0000 L CNN
F 2 "TO_SOT_Packages_THT:TO-92_Molded_Wide" H 3500 4275 50  0001 C CNN
F 3 "~" H 3300 4175 50  0001 C CNN
	1    3300 4175
	1    0    0    -1  
$EndComp
$Comp
L Device:Q_NPN_CBE Q6
U 1 1 5B84E2BF
P 3500 3675
F 0 "Q6" H 3690 3721 50  0000 L CNN
F 1 "BC550C" H 3690 3630 50  0000 L CNN
F 2 "TO_SOT_Packages_THT:TO-92_Molded_Wide" H 3700 3775 50  0001 C CNN
F 3 "~" H 3500 3675 50  0001 C CNN
	1    3500 3675
	-1   0    0    -1  
$EndComp
$Comp
L Device:Q_PNP_CBE Q4
U 1 1 5B84E3C3
P 3300 3175
F 0 "Q4" H 3491 3129 50  0000 L CNN
F 1 "BC560C" H 3491 3220 50  0000 L CNN
F 2 "TO_SOT_Packages_THT:TO-92_Molded_Wide" H 3500 3275 50  0001 C CNN
F 3 "~" H 3300 3175 50  0001 C CNN
	1    3300 3175
	1    0    0    1   
$EndComp
$Comp
L Device:R R12
U 1 1 5B84E4AF
P 3600 1975
F 0 "R12" V 3500 1975 50  0000 C CNN
F 1 "2,2K" V 3700 1975 50  0000 C CNN
F 2 "Resistors_ThroughHole:R_Axial_DIN0207_L6.3mm_D2.5mm_P10.16mm_Horizontal" V 3530 1975 50  0001 C CNN
F 3 "~" H 3600 1975 50  0001 C CNN
	1    3600 1975
	0    1    1    0   
$EndComp
$Comp
L Device:R R14
U 1 1 5B84E5DD
P 3800 4725
F 0 "R14" H 3870 4771 50  0000 L CNN
F 1 "10K" H 3870 4680 50  0000 L CNN
F 2 "Resistors_ThroughHole:R_Axial_DIN0207_L6.3mm_D2.5mm_P10.16mm_Horizontal" V 3730 4725 50  0001 C CNN
F 3 "~" H 3800 4725 50  0001 C CNN
	1    3800 4725
	1    0    0    -1  
$EndComp
$Comp
L Device:R R11
U 1 1 5B84E707
P 3400 4725
F 0 "R11" H 3470 4771 50  0000 L CNN
F 1 "330" H 3470 4680 50  0000 L CNN
F 2 "Resistors_ThroughHole:R_Axial_DIN0207_L6.3mm_D2.5mm_P10.16mm_Horizontal" V 3330 4725 50  0001 C CNN
F 3 "~" H 3400 4725 50  0001 C CNN
	1    3400 4725
	1    0    0    -1  
$EndComp
$Comp
L Device:CP C7
U 1 1 5B84E7BA
P 4200 4725
F 0 "C7" H 4318 4771 50  0000 L CNN
F 1 "22uF" H 4318 4680 50  0000 L CNN
F 2 "Capacitors_ThroughHole:CP_Radial_D8.0mm_P3.50mm" H 4238 4575 50  0001 C CNN
F 3 "~" H 4200 4725 50  0001 C CNN
	1    4200 4725
	1    0    0    -1  
$EndComp
$Comp
L Device:CP C9
U 1 1 5B84E9B4
P 5000 4725
F 0 "C9" H 5118 4771 50  0000 L CNN
F 1 "22uF" H 5118 4680 50  0000 L CNN
F 2 "Capacitors_ThroughHole:CP_Radial_D8.0mm_P3.50mm" H 5038 4575 50  0001 C CNN
F 3 "~" H 5000 4725 50  0001 C CNN
	1    5000 4725
	1    0    0    -1  
$EndComp
$Comp
L Device:R R15
U 1 1 5B84EA79
P 4050 1075
F 0 "R15" V 3843 1075 50  0000 C CNN
F 1 "4,7K" V 3934 1075 50  0000 C CNN
F 2 "Resistors_ThroughHole:R_Axial_DIN0207_L6.3mm_D2.5mm_P10.16mm_Horizontal" V 3980 1075 50  0001 C CNN
F 3 "~" H 4050 1075 50  0001 C CNN
	1    4050 1075
	0    1    1    0   
$EndComp
$Comp
L Device:R R8
U 1 1 5B84EB5D
P 3350 1075
F 0 "R8" V 3143 1075 50  0000 C CNN
F 1 "22K" V 3234 1075 50  0000 C CNN
F 2 "Resistors_ThroughHole:R_Axial_DIN0207_L6.3mm_D2.5mm_P10.16mm_Horizontal" V 3280 1075 50  0001 C CNN
F 3 "~" H 3350 1075 50  0001 C CNN
	1    3350 1075
	0    1    1    0   
$EndComp
$Comp
L Device:C C8
U 1 1 5B84EC6D
P 4450 2200
F 0 "C8" V 4525 2075 50  0000 C CNN
F 1 "10uF" V 4275 2150 50  0000 C CNN
F 2 "Capacitors_ThroughHole:C_Rect_L26.5mm_W8.5mm_P22.50mm_MKS4" H 4488 2050 50  0001 C CNN
F 3 "~" H 4450 2200 50  0001 C CNN
	1    4450 2200
	0    -1   -1   0   
$EndComp
$Comp
L Device:R R17
U 1 1 5B84ED6A
P 4700 2450
F 0 "R17" H 4770 2496 50  0000 L CNN
F 1 "100K" H 4770 2405 50  0000 L CNN
F 2 "Resistors_ThroughHole:R_Axial_DIN0207_L6.3mm_D2.5mm_P10.16mm_Horizontal" V 4630 2450 50  0001 C CNN
F 3 "~" H 4700 2450 50  0001 C CNN
	1    4700 2450
	1    0    0    -1  
$EndComp
$Comp
L Device:CP C2
U 1 1 5B84EE49
P 1800 1325
F 0 "C2" H 1850 1425 50  0000 L CNN
F 1 "10uF/50V" H 1825 1200 50  0000 L CNN
F 2 "Capacitors_ThroughHole:CP_Radial_D8.0mm_P3.50mm" H 1838 1175 50  0001 C CNN
F 3 "~" H 1800 1325 50  0001 C CNN
	1    1800 1325
	1    0    0    -1  
$EndComp
$Comp
L Device:R R13
U 1 1 5B852785
P 3800 3425
F 0 "R13" H 3870 3471 50  0000 L CNN
F 1 "120K" H 3870 3380 50  0000 L CNN
F 2 "Resistors_ThroughHole:R_Axial_DIN0207_L6.3mm_D2.5mm_P10.16mm_Horizontal" V 3730 3425 50  0001 C CNN
F 3 "~" H 3800 3425 50  0001 C CNN
	1    3800 3425
	1    0    0    -1  
$EndComp
$Comp
L power:GNDA #PWR01
U 1 1 5B852F44
P 900 4975
F 0 "#PWR01" H 900 4725 50  0001 C CNN
F 1 "GNDA" H 905 4802 50  0000 C CNN
F 2 "" H 900 4975 50  0001 C CNN
F 3 "" H 900 4975 50  0001 C CNN
	1    900  4975
	1    0    0    -1  
$EndComp
$Comp
L power:GNDA #PWR02
U 1 1 5B852FA8
P 1400 4975
F 0 "#PWR02" H 1400 4725 50  0001 C CNN
F 1 "GNDA" H 1405 4802 50  0000 C CNN
F 2 "" H 1400 4975 50  0001 C CNN
F 3 "" H 1400 4975 50  0001 C CNN
	1    1400 4975
	1    0    0    -1  
$EndComp
$Comp
L power:GNDA #PWR05
U 1 1 5B85300C
P 1800 4975
F 0 "#PWR05" H 1800 4725 50  0001 C CNN
F 1 "GNDA" H 1805 4802 50  0000 C CNN
F 2 "" H 1800 4975 50  0001 C CNN
F 3 "" H 1800 4975 50  0001 C CNN
	1    1800 4975
	1    0    0    -1  
$EndComp
$Comp
L power:GNDA #PWR08
U 1 1 5B853070
P 3400 4975
F 0 "#PWR08" H 3400 4725 50  0001 C CNN
F 1 "GNDA" H 3405 4802 50  0000 C CNN
F 2 "" H 3400 4975 50  0001 C CNN
F 3 "" H 3400 4975 50  0001 C CNN
	1    3400 4975
	1    0    0    -1  
$EndComp
$Comp
L power:GNDA #PWR010
U 1 1 5B8530D4
P 3800 4975
F 0 "#PWR010" H 3800 4725 50  0001 C CNN
F 1 "GNDA" H 3805 4802 50  0000 C CNN
F 2 "" H 3800 4975 50  0001 C CNN
F 3 "" H 3800 4975 50  0001 C CNN
	1    3800 4975
	1    0    0    -1  
$EndComp
$Comp
L power:GNDA #PWR012
U 1 1 5B853138
P 4200 4975
F 0 "#PWR012" H 4200 4725 50  0001 C CNN
F 1 "GNDA" H 4205 4802 50  0000 C CNN
F 2 "" H 4200 4975 50  0001 C CNN
F 3 "" H 4200 4975 50  0001 C CNN
	1    4200 4975
	1    0    0    -1  
$EndComp
$Comp
L power:GNDA #PWR014
U 1 1 5B853200
P 5000 4975
F 0 "#PWR014" H 5000 4725 50  0001 C CNN
F 1 "GNDA" H 5005 4802 50  0000 C CNN
F 2 "" H 5000 4975 50  0001 C CNN
F 3 "" H 5000 4975 50  0001 C CNN
	1    5000 4975
	1    0    0    -1  
$EndComp
$Comp
L power:GNDA #PWR04
U 1 1 5B8532C8
P 1800 1575
F 0 "#PWR04" H 1800 1325 50  0001 C CNN
F 1 "GNDA" H 1805 1402 50  0000 C CNN
F 2 "" H 1800 1575 50  0001 C CNN
F 3 "" H 1800 1575 50  0001 C CNN
	1    1800 1575
	1    0    0    -1  
$EndComp
$Comp
L power:GNDA #PWR013
U 1 1 5B85332C
P 4700 2700
F 0 "#PWR013" H 4700 2450 50  0001 C CNN
F 1 "GNDA" H 4705 2527 50  0000 C CNN
F 2 "" H 4700 2700 50  0001 C CNN
F 3 "" H 4700 2700 50  0001 C CNN
	1    4700 2700
	1    0    0    -1  
$EndComp
Wire Wire Line
	900  4875 900  4975
Wire Wire Line
	1000 4475 900  4475
Wire Wire Line
	900  4475 900  4575
Wire Wire Line
	1300 4475 1400 4475
Wire Wire Line
	1800 4375 1800 4475
Connection ~ 1800 4475
Wire Wire Line
	1800 4475 1900 4475
Wire Wire Line
	1800 4475 1800 4575
Wire Wire Line
	1800 4875 1800 4975
Wire Wire Line
	1400 4875 1400 4975
Wire Wire Line
	1400 4475 1400 4575
Connection ~ 1400 4475
Wire Wire Line
	1400 4475 1800 4475
$Comp
L power:GNDA #PWR06
U 1 1 5B85359C
P 2200 4975
F 0 "#PWR06" H 2200 4725 50  0001 C CNN
F 1 "GNDA" H 2205 4802 50  0000 C CNN
F 2 "" H 2200 4975 50  0001 C CNN
F 3 "" H 2200 4975 50  0001 C CNN
	1    2200 4975
	1    0    0    -1  
$EndComp
Wire Wire Line
	2200 4675 2200 4975
Wire Wire Line
	2200 3375 2200 4175
Wire Wire Line
	2200 4175 3100 4175
Connection ~ 2200 4175
Wire Wire Line
	2200 4175 2200 4275
Wire Wire Line
	3400 4375 3400 4575
Wire Wire Line
	3400 4875 3400 4975
Wire Wire Line
	3400 3875 3400 3975
Wire Wire Line
	3400 3375 3400 3425
Wire Wire Line
	3800 3575 3800 3675
Wire Wire Line
	3800 4875 3800 4975
Wire Wire Line
	3700 3675 3800 3675
Connection ~ 3800 3675
Wire Wire Line
	3800 3675 3800 3925
Wire Wire Line
	1800 4075 1800 3925
Wire Wire Line
	1800 3925 3800 3925
Connection ~ 3800 3925
Wire Wire Line
	3800 3925 3800 4575
Wire Wire Line
	3800 3925 4200 3925
Wire Wire Line
	4200 4875 4200 4975
Wire Wire Line
	4200 4575 4200 3925
Wire Wire Line
	1800 1475 1800 1575
Wire Wire Line
	2200 2875 2200 2975
Wire Wire Line
	2200 2375 2200 2475
Wire Wire Line
	2200 1875 2200 1975
Wire Wire Line
	2600 1475 2600 1575
Wire Wire Line
	2600 1875 2600 1975
Wire Wire Line
	3200 1075 3000 1075
Wire Wire Line
	1800 1175 1800 1075
Wire Wire Line
	2200 1575 2200 1075
Connection ~ 2200 1075
Wire Wire Line
	2200 1075 1800 1075
Wire Wire Line
	2200 1975 2600 1975
Connection ~ 2200 1975
Wire Wire Line
	2200 1975 2200 2075
Connection ~ 2600 1975
Wire Wire Line
	2600 1975 2600 2075
Wire Wire Line
	2600 1975 3000 1975
Wire Wire Line
	3000 1975 3000 1675
Wire Wire Line
	3100 1675 3000 1675
Connection ~ 3000 1675
Wire Wire Line
	3000 1675 3000 1475
Wire Wire Line
	2600 1175 2600 1075
Connection ~ 2600 1075
Wire Wire Line
	2600 1075 2200 1075
Wire Wire Line
	3000 1175 3000 1075
Connection ~ 3000 1075
Wire Wire Line
	3000 1075 2600 1075
Wire Wire Line
	3500 1075 3800 1075
Wire Wire Line
	3800 3275 3800 3175
Connection ~ 3800 1075
Wire Wire Line
	3800 1075 3900 1075
Wire Wire Line
	3400 1875 3400 1975
Wire Wire Line
	3400 2375 3400 2475
Wire Wire Line
	2500 3175 3000 3175
Wire Wire Line
	3000 3175 3000 3425
Wire Wire Line
	3000 3425 3400 3425
Connection ~ 3000 3175
Wire Wire Line
	3000 3175 3100 3175
Connection ~ 3400 3425
Wire Wire Line
	3400 3425 3400 3475
Wire Wire Line
	3400 2875 3400 2975
Wire Wire Line
	3400 1475 3400 1375
Wire Wire Line
	3400 1375 4150 1375
Wire Wire Line
	4300 1375 4300 1075
Wire Wire Line
	4300 1075 4200 1075
Connection ~ 4300 1075
Wire Wire Line
	3400 1975 3450 1975
Connection ~ 3400 1975
Wire Wire Line
	3400 1975 3400 2075
Wire Wire Line
	4600 2200 4700 2200
Wire Wire Line
	4700 2200 4700 2300
Wire Wire Line
	4700 2600 4700 2700
Wire Wire Line
	2200 2475 2600 2475
Connection ~ 2200 2475
Wire Wire Line
	2200 2475 2200 2575
Connection ~ 3400 2475
Wire Wire Line
	3400 2475 3400 2575
Wire Wire Line
	2600 2375 2600 2475
Connection ~ 2600 2475
Wire Wire Line
	2600 2475 3400 2475
Wire Wire Line
	5000 4975 5000 4875
Wire Wire Line
	5000 4575 5000 3175
Wire Wire Line
	5000 3175 3800 3175
Connection ~ 3800 3175
Wire Wire Line
	3800 3175 3800 1075
$Comp
L Connector_Generic:Conn_01x04 J1
U 1 1 5B8745C4
P 975 6975
F 0 "J1" H 895 7292 50  0000 C CNN
F 1 "IN" H 895 7201 50  0000 C CNN
F 2 "Connectors_JST:JST_EH_B04B-EH-A_04x2.50mm_Straight" H 975 6975 50  0001 C CNN
F 3 "~" H 975 6975 50  0001 C CNN
	1    975  6975
	-1   0    0    -1  
$EndComp
$Comp
L Connector_Generic:Conn_01x04 J2
U 1 1 5B87471F
P 2925 7000
F 0 "J2" H 3005 7042 50  0000 L CNN
F 1 "OUT" H 3005 6951 50  0000 L CNN
F 2 "Connectors_JST:JST_EH_B04B-EH-A_04x2.50mm_Straight" H 2925 7000 50  0001 C CNN
F 3 "~" H 2925 7000 50  0001 C CNN
	1    2925 7000
	1    0    0    -1  
$EndComp
Text GLabel 800  4475 0    50   Input ~ 0
INL
Text GLabel 4900 2200 2    50   Input ~ 0
OUTL
Text GLabel 1275 6875 2    50   Input ~ 0
INL
Text GLabel 2625 6900 0    50   Input ~ 0
OUTL
Text GLabel 1275 7175 2    50   Input ~ 0
INR
Text GLabel 2625 7200 0    50   Input ~ 0
OUTR
$Comp
L power:GNDA #PWR07
U 1 1 5B874BB7
P 2225 7200
F 0 "#PWR07" H 2225 6950 50  0001 C CNN
F 1 "GNDA" H 2230 7027 50  0000 C CNN
F 2 "" H 2225 7200 50  0001 C CNN
F 3 "" H 2225 7200 50  0001 C CNN
	1    2225 7200
	1    0    0    -1  
$EndComp
$Comp
L power:GNDA #PWR03
U 1 1 5B874C1F
P 1575 7175
F 0 "#PWR03" H 1575 6925 50  0001 C CNN
F 1 "GNDA" H 1580 7002 50  0000 C CNN
F 2 "" H 1575 7175 50  0001 C CNN
F 3 "" H 1575 7175 50  0001 C CNN
	1    1575 7175
	1    0    0    -1  
$EndComp
Wire Wire Line
	2725 7000 2225 7000
Wire Wire Line
	2225 7000 2225 7100
Wire Wire Line
	2625 6900 2725 6900
Wire Wire Line
	2625 7200 2725 7200
Wire Wire Line
	1175 6875 1275 6875
Wire Wire Line
	1175 6975 1575 6975
Wire Wire Line
	1575 6975 1575 7075
Wire Wire Line
	1175 7175 1275 7175
Wire Wire Line
	800  4475 900  4475
Connection ~ 900  4475
Wire Wire Line
	4700 2200 4900 2200
Connection ~ 4700 2200
$Comp
L Device:R R18
U 1 1 5B892AB5
P 6600 4725
F 0 "R18" H 6670 4771 50  0000 L CNN
F 1 "150K" H 6670 4680 50  0000 L CNN
F 2 "Resistors_ThroughHole:R_Axial_DIN0207_L6.3mm_D2.5mm_P10.16mm_Horizontal" V 6530 4725 50  0001 C CNN
F 3 "~" H 6600 4725 50  0001 C CNN
	1    6600 4725
	1    0    0    -1  
$EndComp
$Comp
L Device:R R19
U 1 1 5B892ABB
P 7100 4725
F 0 "R19" H 7170 4771 50  0000 L CNN
F 1 "110K" H 7170 4680 50  0000 L CNN
F 2 "Resistors_ThroughHole:R_Axial_DIN0207_L6.3mm_D2.5mm_P10.16mm_Horizontal" V 7030 4725 50  0001 C CNN
F 3 "~" H 7100 4725 50  0001 C CNN
	1    7100 4725
	1    0    0    -1  
$EndComp
$Comp
L Device:R R20
U 1 1 5B892AC1
P 7500 4225
F 0 "R20" H 7570 4271 50  0000 L CNN
F 1 "220K" H 7570 4180 50  0000 L CNN
F 2 "Resistors_ThroughHole:R_Axial_DIN0207_L6.3mm_D2.5mm_P10.16mm_Horizontal" V 7430 4225 50  0001 C CNN
F 3 "~" H 7500 4225 50  0001 C CNN
	1    7500 4225
	1    0    0    -1  
$EndComp
$Comp
L Device:C C10
U 1 1 5B892AC7
P 6850 4475
F 0 "C10" V 6595 4475 50  0000 C CNN
F 1 "10uF" V 6686 4475 50  0000 C CNN
F 2 "Capacitors_ThroughHole:C_Rect_L26.5mm_W8.5mm_P22.50mm_MKS4" H 6888 4325 50  0001 C CNN
F 3 "~" H 6850 4475 50  0001 C CNN
	1    6850 4475
	0    1    1    0   
$EndComp
$Comp
L Device:C C12
U 1 1 5B892ACD
P 7500 4725
F 0 "C12" H 7615 4771 50  0000 L CNN
F 1 "33pF" H 7615 4680 50  0000 L CNN
F 2 "Capacitors_ThroughHole:C_Rect_L7.2mm_W4.5mm_P5.00mm_FKS2_FKP2_MKS2_MKP2" H 7538 4575 50  0001 C CNN
F 3 "~" H 7500 4725 50  0001 C CNN
	1    7500 4725
	1    0    0    -1  
$EndComp
$Comp
L Device:Q_PNP_CBE Q8
U 1 1 5B892AD3
P 7800 4475
F 0 "Q8" H 7991 4521 50  0000 L CNN
F 1 "BC560C" H 7991 4430 50  0000 L CNN
F 2 "TO_SOT_Packages_THT:TO-92_Molded_Wide" H 8000 4575 50  0001 C CNN
F 3 "~" H 7800 4475 50  0001 C CNN
	1    7800 4475
	1    0    0    1   
$EndComp
$Comp
L Device:Q_PNP_CBE Q9
U 1 1 5B892AD9
P 8000 3175
F 0 "Q9" H 8191 3129 50  0000 L CNN
F 1 "BC560C" H 8191 3220 50  0000 L CNN
F 2 "TO_SOT_Packages_THT:TO-92_Molded_Wide" H 8200 3275 50  0001 C CNN
F 3 "~" H 8000 3175 50  0001 C CNN
	1    8000 3175
	-1   0    0    1   
$EndComp
$Comp
L Device:R R22
U 1 1 5B892ADF
P 7900 2725
F 0 "R22" H 7970 2771 50  0000 L CNN
F 1 "15K" H 7970 2680 50  0000 L CNN
F 2 "Resistors_ThroughHole:R_Axial_DIN0207_L6.3mm_D2.5mm_P10.16mm_Horizontal" V 7830 2725 50  0001 C CNN
F 3 "~" H 7900 2725 50  0001 C CNN
	1    7900 2725
	1    0    0    -1  
$EndComp
$Comp
L Device:CP C13
U 1 1 5B892AE5
P 7900 2225
F 0 "C13" H 7675 2325 50  0000 L CNN
F 1 "100uF" H 7625 2100 50  0000 L CNN
F 2 "Capacitors_ThroughHole:CP_Radial_D6.3mm_P2.50mm" H 7938 2075 50  0001 C CNN
F 3 "~" H 7900 2225 50  0001 C CNN
	1    7900 2225
	1    0    0    -1  
$EndComp
$Comp
L Device:R R21
U 1 1 5B892AEB
P 7900 1725
F 0 "R21" H 7970 1771 50  0000 L CNN
F 1 "390K" H 7970 1680 50  0000 L CNN
F 2 "Resistors_ThroughHole:R_Axial_DIN0207_L6.3mm_D2.5mm_P10.16mm_Horizontal" V 7830 1725 50  0001 C CNN
F 3 "~" H 7900 1725 50  0001 C CNN
	1    7900 1725
	1    0    0    -1  
$EndComp
$Comp
L Device:R R23
U 1 1 5B892AF1
P 8300 1725
F 0 "R23" H 8370 1771 50  0000 L CNN
F 1 "33K" H 8370 1680 50  0000 L CNN
F 2 "Resistors_ThroughHole:R_Axial_DIN0207_L6.3mm_D2.5mm_P10.16mm_Horizontal" V 8230 1725 50  0001 C CNN
F 3 "~" H 8300 1725 50  0001 C CNN
	1    8300 1725
	1    0    0    -1  
$EndComp
$Comp
L Device:C C14
U 1 1 5B892AF7
P 8300 1325
F 0 "C14" H 8415 1371 50  0000 L CNN
F 1 "10nF" H 8350 1225 50  0000 L CNN
F 2 "suf_capacitor:C_EXFS_HR_7.5x7.5" H 8338 1175 50  0001 C CNN
F 3 "~" H 8300 1325 50  0001 C CNN
	1    8300 1325
	1    0    0    -1  
$EndComp
$Comp
L Device:C C15
U 1 1 5B892AFD
P 8700 1325
F 0 "C15" H 8815 1371 50  0000 L CNN
F 1 "3,3nF" H 8750 1225 50  0000 L CNN
F 2 "suf_capacitor:C_EXFS_HR_7.5x7.5" H 8738 1175 50  0001 C CNN
F 3 "~" H 8700 1325 50  0001 C CNN
	1    8700 1325
	1    0    0    -1  
$EndComp
$Comp
L Device:Q_NPN_CBE Q10
U 1 1 5B892B03
P 9000 1675
F 0 "Q10" H 9191 1721 50  0000 L CNN
F 1 "BC550C" H 9191 1630 50  0000 L CNN
F 2 "TO_SOT_Packages_THT:TO-92_Molded_Wide" H 9200 1775 50  0001 C CNN
F 3 "~" H 9000 1675 50  0001 C CNN
	1    9000 1675
	1    0    0    -1  
$EndComp
$Comp
L Device:R R27
U 1 1 5B892B09
P 9100 2725
F 0 "R27" H 9170 2771 50  0000 L CNN
F 1 "470" H 9170 2680 50  0000 L CNN
F 2 "Resistors_ThroughHole:R_Axial_DIN0207_L6.3mm_D2.5mm_P10.16mm_Horizontal" V 9030 2725 50  0001 C CNN
F 3 "~" H 9100 2725 50  0001 C CNN
	1    9100 2725
	1    0    0    -1  
$EndComp
$Comp
L Device:R R26
U 1 1 5B892B0F
P 9100 2225
F 0 "R26" H 9170 2271 50  0000 L CNN
F 1 "470" H 9170 2180 50  0000 L CNN
F 2 "Resistors_ThroughHole:R_Axial_DIN0207_L6.3mm_D2.5mm_P10.16mm_Horizontal" V 9030 2225 50  0001 C CNN
F 3 "~" H 9100 2225 50  0001 C CNN
	1    9100 2225
	1    0    0    -1  
$EndComp
$Comp
L Device:R R24
U 1 1 5B892B15
P 8300 2225
F 0 "R24" H 8370 2271 50  0000 L CNN
F 1 "51K" H 8370 2180 50  0000 L CNN
F 2 "Resistors_ThroughHole:R_Axial_DIN0207_L6.3mm_D2.5mm_P10.16mm_Horizontal" V 8230 2225 50  0001 C CNN
F 3 "~" H 8300 2225 50  0001 C CNN
	1    8300 2225
	1    0    0    -1  
$EndComp
$Comp
L Device:Q_NPN_CBE Q12
U 1 1 5B892B1B
P 9000 4175
F 0 "Q12" H 9191 4221 50  0000 L CNN
F 1 "BC550C" H 9191 4130 50  0000 L CNN
F 2 "TO_SOT_Packages_THT:TO-92_Molded_Wide" H 9200 4275 50  0001 C CNN
F 3 "~" H 9000 4175 50  0001 C CNN
	1    9000 4175
	1    0    0    -1  
$EndComp
$Comp
L Device:Q_NPN_CBE Q13
U 1 1 5B892B21
P 9200 3675
F 0 "Q13" H 9390 3721 50  0000 L CNN
F 1 "BC550C" H 9390 3630 50  0000 L CNN
F 2 "TO_SOT_Packages_THT:TO-92_Molded_Wide" H 9400 3775 50  0001 C CNN
F 3 "~" H 9200 3675 50  0001 C CNN
	1    9200 3675
	-1   0    0    -1  
$EndComp
$Comp
L Device:Q_PNP_CBE Q11
U 1 1 5B892B27
P 9000 3175
F 0 "Q11" H 9191 3129 50  0000 L CNN
F 1 "BC560C" H 9191 3220 50  0000 L CNN
F 2 "TO_SOT_Packages_THT:TO-92_Molded_Wide" H 9200 3275 50  0001 C CNN
F 3 "~" H 9000 3175 50  0001 C CNN
	1    9000 3175
	1    0    0    1   
$EndComp
$Comp
L Device:R R29
U 1 1 5B892B2D
P 9300 1975
F 0 "R29" V 9200 1975 50  0000 C CNN
F 1 "2,2K" V 9400 1975 50  0000 C CNN
F 2 "Resistors_ThroughHole:R_Axial_DIN0207_L6.3mm_D2.5mm_P10.16mm_Horizontal" V 9230 1975 50  0001 C CNN
F 3 "~" H 9300 1975 50  0001 C CNN
	1    9300 1975
	0    1    1    0   
$EndComp
$Comp
L Device:R R31
U 1 1 5B892B33
P 9500 4725
F 0 "R31" H 9570 4771 50  0000 L CNN
F 1 "10K" H 9570 4680 50  0000 L CNN
F 2 "Resistors_ThroughHole:R_Axial_DIN0207_L6.3mm_D2.5mm_P10.16mm_Horizontal" V 9430 4725 50  0001 C CNN
F 3 "~" H 9500 4725 50  0001 C CNN
	1    9500 4725
	1    0    0    -1  
$EndComp
$Comp
L Device:R R28
U 1 1 5B892B39
P 9100 4725
F 0 "R28" H 9170 4771 50  0000 L CNN
F 1 "330" H 9170 4680 50  0000 L CNN
F 2 "Resistors_ThroughHole:R_Axial_DIN0207_L6.3mm_D2.5mm_P10.16mm_Horizontal" V 9030 4725 50  0001 C CNN
F 3 "~" H 9100 4725 50  0001 C CNN
	1    9100 4725
	1    0    0    -1  
$EndComp
$Comp
L Device:CP C16
U 1 1 5B892B3F
P 9900 4725
F 0 "C16" H 10018 4771 50  0000 L CNN
F 1 "22uF" H 10018 4680 50  0000 L CNN
F 2 "Capacitors_ThroughHole:CP_Radial_D8.0mm_P3.50mm" H 9938 4575 50  0001 C CNN
F 3 "~" H 9900 4725 50  0001 C CNN
	1    9900 4725
	1    0    0    -1  
$EndComp
$Comp
L Device:CP C18
U 1 1 5B892B4B
P 10725 4725
F 0 "C18" H 10843 4771 50  0000 L CNN
F 1 "22uF" H 10843 4680 50  0000 L CNN
F 2 "Capacitors_ThroughHole:CP_Radial_D8.0mm_P3.50mm" H 10763 4575 50  0001 C CNN
F 3 "~" H 10725 4725 50  0001 C CNN
	1    10725 4725
	1    0    0    -1  
$EndComp
$Comp
L Device:R R32
U 1 1 5B892B51
P 9750 1075
F 0 "R32" V 9543 1075 50  0000 C CNN
F 1 "4,7K" V 9634 1075 50  0000 C CNN
F 2 "Resistors_ThroughHole:R_Axial_DIN0207_L6.3mm_D2.5mm_P10.16mm_Horizontal" V 9680 1075 50  0001 C CNN
F 3 "~" H 9750 1075 50  0001 C CNN
	1    9750 1075
	0    1    1    0   
$EndComp
$Comp
L Device:R R25
U 1 1 5B892B57
P 9050 1075
F 0 "R25" V 8843 1075 50  0000 C CNN
F 1 "22K" V 8934 1075 50  0000 C CNN
F 2 "Resistors_ThroughHole:R_Axial_DIN0207_L6.3mm_D2.5mm_P10.16mm_Horizontal" V 8980 1075 50  0001 C CNN
F 3 "~" H 9050 1075 50  0001 C CNN
	1    9050 1075
	0    1    1    0   
$EndComp
$Comp
L Device:C C17
U 1 1 5B892B5D
P 10100 2225
F 0 "C17" V 10175 2075 50  0000 C CNN
F 1 "10uF" V 9950 2150 50  0000 C CNN
F 2 "Capacitors_ThroughHole:C_Rect_L26.5mm_W8.5mm_P22.50mm_MKS4" H 10138 2075 50  0001 C CNN
F 3 "~" H 10100 2225 50  0001 C CNN
	1    10100 2225
	0    -1   -1   0   
$EndComp
$Comp
L Device:R R34
U 1 1 5B892B63
P 10350 2475
F 0 "R34" H 10420 2521 50  0000 L CNN
F 1 "100K" H 10420 2430 50  0000 L CNN
F 2 "Resistors_ThroughHole:R_Axial_DIN0207_L6.3mm_D2.5mm_P10.16mm_Horizontal" V 10280 2475 50  0001 C CNN
F 3 "~" H 10350 2475 50  0001 C CNN
	1    10350 2475
	1    0    0    -1  
$EndComp
$Comp
L Device:CP C11
U 1 1 5B892B69
P 7500 1325
F 0 "C11" H 7550 1425 50  0000 L CNN
F 1 "10uF/50V" H 7525 1200 50  0000 L CNN
F 2 "Capacitors_ThroughHole:CP_Radial_D8.0mm_P3.50mm" H 7538 1175 50  0001 C CNN
F 3 "~" H 7500 1325 50  0001 C CNN
	1    7500 1325
	1    0    0    -1  
$EndComp
$Comp
L Device:R R30
U 1 1 5B892B75
P 9500 3425
F 0 "R30" H 9570 3471 50  0000 L CNN
F 1 "120K" H 9570 3380 50  0000 L CNN
F 2 "Resistors_ThroughHole:R_Axial_DIN0207_L6.3mm_D2.5mm_P10.16mm_Horizontal" V 9430 3425 50  0001 C CNN
F 3 "~" H 9500 3425 50  0001 C CNN
	1    9500 3425
	1    0    0    -1  
$EndComp
$Comp
L power:GNDA #PWR015
U 1 1 5B892B81
P 6600 4975
F 0 "#PWR015" H 6600 4725 50  0001 C CNN
F 1 "GNDA" H 6605 4802 50  0000 C CNN
F 2 "" H 6600 4975 50  0001 C CNN
F 3 "" H 6600 4975 50  0001 C CNN
	1    6600 4975
	1    0    0    -1  
$EndComp
$Comp
L power:GNDA #PWR016
U 1 1 5B892B87
P 7100 4975
F 0 "#PWR016" H 7100 4725 50  0001 C CNN
F 1 "GNDA" H 7105 4802 50  0000 C CNN
F 2 "" H 7100 4975 50  0001 C CNN
F 3 "" H 7100 4975 50  0001 C CNN
	1    7100 4975
	1    0    0    -1  
$EndComp
$Comp
L power:GNDA #PWR018
U 1 1 5B892B8D
P 7500 4975
F 0 "#PWR018" H 7500 4725 50  0001 C CNN
F 1 "GNDA" H 7505 4802 50  0000 C CNN
F 2 "" H 7500 4975 50  0001 C CNN
F 3 "" H 7500 4975 50  0001 C CNN
	1    7500 4975
	1    0    0    -1  
$EndComp
$Comp
L power:GNDA #PWR020
U 1 1 5B892B93
P 9100 4975
F 0 "#PWR020" H 9100 4725 50  0001 C CNN
F 1 "GNDA" H 9105 4802 50  0000 C CNN
F 2 "" H 9100 4975 50  0001 C CNN
F 3 "" H 9100 4975 50  0001 C CNN
	1    9100 4975
	1    0    0    -1  
$EndComp
$Comp
L power:GNDA #PWR021
U 1 1 5B892B99
P 9500 4975
F 0 "#PWR021" H 9500 4725 50  0001 C CNN
F 1 "GNDA" H 9505 4802 50  0000 C CNN
F 2 "" H 9500 4975 50  0001 C CNN
F 3 "" H 9500 4975 50  0001 C CNN
	1    9500 4975
	1    0    0    -1  
$EndComp
$Comp
L power:GNDA #PWR023
U 1 1 5B892B9F
P 9900 4975
F 0 "#PWR023" H 9900 4725 50  0001 C CNN
F 1 "GNDA" H 9905 4802 50  0000 C CNN
F 2 "" H 9900 4975 50  0001 C CNN
F 3 "" H 9900 4975 50  0001 C CNN
	1    9900 4975
	1    0    0    -1  
$EndComp
$Comp
L power:GNDA #PWR025
U 1 1 5B892BAB
P 10725 4975
F 0 "#PWR025" H 10725 4725 50  0001 C CNN
F 1 "GNDA" H 10730 4802 50  0000 C CNN
F 2 "" H 10725 4975 50  0001 C CNN
F 3 "" H 10725 4975 50  0001 C CNN
	1    10725 4975
	1    0    0    -1  
$EndComp
$Comp
L power:GNDA #PWR017
U 1 1 5B892BB7
P 7500 1575
F 0 "#PWR017" H 7500 1325 50  0001 C CNN
F 1 "GNDA" H 7505 1402 50  0000 C CNN
F 2 "" H 7500 1575 50  0001 C CNN
F 3 "" H 7500 1575 50  0001 C CNN
	1    7500 1575
	1    0    0    -1  
$EndComp
$Comp
L power:GNDA #PWR024
U 1 1 5B892BBD
P 10350 2725
F 0 "#PWR024" H 10350 2475 50  0001 C CNN
F 1 "GNDA" H 10355 2552 50  0000 C CNN
F 2 "" H 10350 2725 50  0001 C CNN
F 3 "" H 10350 2725 50  0001 C CNN
	1    10350 2725
	1    0    0    -1  
$EndComp
Wire Wire Line
	6600 4875 6600 4975
Wire Wire Line
	6700 4475 6600 4475
Wire Wire Line
	6600 4475 6600 4575
Wire Wire Line
	7000 4475 7100 4475
Wire Wire Line
	7500 4375 7500 4475
Connection ~ 7500 4475
Wire Wire Line
	7500 4475 7600 4475
Wire Wire Line
	7500 4475 7500 4575
Wire Wire Line
	7500 4875 7500 4975
Wire Wire Line
	7100 4875 7100 4975
Wire Wire Line
	7100 4475 7100 4575
Connection ~ 7100 4475
Wire Wire Line
	7100 4475 7500 4475
$Comp
L power:GNDA #PWR019
U 1 1 5B892BD0
P 7900 4975
F 0 "#PWR019" H 7900 4725 50  0001 C CNN
F 1 "GNDA" H 7905 4802 50  0000 C CNN
F 2 "" H 7900 4975 50  0001 C CNN
F 3 "" H 7900 4975 50  0001 C CNN
	1    7900 4975
	1    0    0    -1  
$EndComp
Wire Wire Line
	7900 4675 7900 4975
Wire Wire Line
	7900 3375 7900 4175
Wire Wire Line
	7900 4175 8800 4175
Connection ~ 7900 4175
Wire Wire Line
	7900 4175 7900 4275
Wire Wire Line
	9100 4375 9100 4575
Wire Wire Line
	9100 4875 9100 4975
Wire Wire Line
	9100 3875 9100 3975
Wire Wire Line
	9100 3375 9100 3425
Wire Wire Line
	9500 3575 9500 3675
Wire Wire Line
	9500 4875 9500 4975
Wire Wire Line
	9400 3675 9500 3675
Connection ~ 9500 3675
Wire Wire Line
	9500 3675 9500 3925
Wire Wire Line
	7500 4075 7500 3925
Wire Wire Line
	7500 3925 9500 3925
Connection ~ 9500 3925
Wire Wire Line
	9500 3925 9500 4575
Wire Wire Line
	9500 3925 9900 3925
Wire Wire Line
	9900 4875 9900 4975
Wire Wire Line
	9900 4575 9900 3925
Wire Wire Line
	7500 1475 7500 1575
Wire Wire Line
	7900 2875 7900 2975
Wire Wire Line
	7900 2375 7900 2475
Wire Wire Line
	7900 1875 7900 1975
Wire Wire Line
	8300 1475 8300 1575
Wire Wire Line
	8300 1875 8300 1975
Wire Wire Line
	8900 1075 8700 1075
Wire Wire Line
	7500 1175 7500 1075
Wire Wire Line
	7900 1575 7900 1075
Connection ~ 7900 1075
Wire Wire Line
	7900 1075 7500 1075
Wire Wire Line
	7900 1975 8300 1975
Connection ~ 7900 1975
Wire Wire Line
	7900 1975 7900 2075
Connection ~ 8300 1975
Wire Wire Line
	8300 1975 8300 2075
Wire Wire Line
	8300 1975 8700 1975
Wire Wire Line
	8700 1975 8700 1675
Wire Wire Line
	8800 1675 8700 1675
Connection ~ 8700 1675
Wire Wire Line
	8700 1675 8700 1475
Wire Wire Line
	8300 1175 8300 1075
Connection ~ 8300 1075
Wire Wire Line
	8300 1075 7900 1075
Wire Wire Line
	8700 1175 8700 1075
Connection ~ 8700 1075
Wire Wire Line
	8700 1075 8300 1075
Wire Wire Line
	9200 1075 9500 1075
Wire Wire Line
	9500 3275 9500 3175
Connection ~ 9500 1075
Wire Wire Line
	9500 1075 9600 1075
Wire Wire Line
	9100 1875 9100 1975
Wire Wire Line
	9100 2375 9100 2475
Wire Wire Line
	8200 3175 8700 3175
Wire Wire Line
	8700 3175 8700 3425
Wire Wire Line
	8700 3425 9100 3425
Connection ~ 8700 3175
Wire Wire Line
	8700 3175 8800 3175
Connection ~ 9100 3425
Wire Wire Line
	9100 3425 9100 3475
Wire Wire Line
	9100 2875 9100 2975
Wire Wire Line
	9100 1475 9100 1375
Wire Wire Line
	9100 1375 9850 1375
Wire Wire Line
	10000 1375 10000 1075
Wire Wire Line
	10000 1075 9900 1075
Connection ~ 10000 1075
Wire Wire Line
	9100 1975 9150 1975
Connection ~ 9100 1975
Wire Wire Line
	9100 1975 9100 2075
Wire Wire Line
	9850 2225 9950 2225
Wire Wire Line
	10250 2225 10350 2225
Wire Wire Line
	10350 2225 10350 2325
Wire Wire Line
	10350 2625 10350 2725
Wire Wire Line
	7900 2475 8300 2475
Connection ~ 7900 2475
Wire Wire Line
	7900 2475 7900 2575
Connection ~ 9100 2475
Wire Wire Line
	9100 2475 9100 2575
Wire Wire Line
	8300 2375 8300 2475
Connection ~ 8300 2475
Wire Wire Line
	8300 2475 9100 2475
Wire Wire Line
	10725 4975 10725 4875
Wire Wire Line
	10725 4575 10725 3175
Wire Wire Line
	10725 3175 9500 3175
Connection ~ 9500 3175
Wire Wire Line
	9500 3175 9500 1075
Text GLabel 6500 4475 0    50   Input ~ 0
INR
Text GLabel 10550 2225 2    50   Input ~ 0
OUTR
Wire Wire Line
	6500 4475 6600 4475
Connection ~ 6600 4475
Wire Wire Line
	10350 2225 10550 2225
Connection ~ 10350 2225
$Comp
L Device:Q_NPN_CBE Q7
U 1 1 5C133D8D
P 4050 1975
F 0 "Q7" H 4241 2021 50  0000 L CNN
F 1 "BC550C" H 4241 1930 50  0000 L CNN
F 2 "TO_SOT_Packages_THT:TO-92_Molded_Wide" H 4250 2075 50  0001 C CNN
F 3 "~" H 4050 1975 50  0001 C CNN
	1    4050 1975
	1    0    0    -1  
$EndComp
$Comp
L Device:Q_NPN_CBE Q14
U 1 1 5C143A76
P 9750 1975
F 0 "Q14" H 9941 2021 50  0000 L CNN
F 1 "BC550C" H 9941 1930 50  0000 L CNN
F 2 "TO_SOT_Packages_THT:TO-92_Molded_Wide" H 9950 2075 50  0001 C CNN
F 3 "~" H 9750 1975 50  0001 C CNN
	1    9750 1975
	1    0    0    -1  
$EndComp
Wire Wire Line
	9850 1775 9850 1375
Connection ~ 9850 1375
Wire Wire Line
	9850 1375 10000 1375
Wire Wire Line
	9550 1975 9450 1975
Wire Wire Line
	3750 1975 3850 1975
Wire Wire Line
	4150 1775 4150 1375
Connection ~ 4150 1375
Wire Wire Line
	4150 1375 4300 1375
$Comp
L Device:R R16
U 1 1 5C163C12
P 4150 2400
F 0 "R16" H 3950 2450 50  0000 L CNN
F 1 "4,3K" H 3900 2350 50  0000 L CNN
F 2 "Resistors_ThroughHole:R_Axial_DIN0207_L6.3mm_D2.5mm_P10.16mm_Horizontal" V 4080 2400 50  0001 C CNN
F 3 "~" H 4150 2400 50  0001 C CNN
	1    4150 2400
	1    0    0    -1  
$EndComp
$Comp
L power:GNDA #PWR011
U 1 1 5C163C18
P 4150 2650
F 0 "#PWR011" H 4150 2400 50  0001 C CNN
F 1 "GNDA" H 4155 2477 50  0000 C CNN
F 2 "" H 4150 2650 50  0001 C CNN
F 3 "" H 4150 2650 50  0001 C CNN
	1    4150 2650
	1    0    0    -1  
$EndComp
Wire Wire Line
	4150 2550 4150 2650
Wire Wire Line
	4150 2175 4150 2200
Wire Wire Line
	4150 2200 4300 2200
Connection ~ 4150 2200
Wire Wire Line
	4150 2200 4150 2250
$Comp
L Device:R R33
U 1 1 5C1873BA
P 9850 2425
F 0 "R33" H 9625 2475 50  0000 L CNN
F 1 "4,3K" H 9600 2375 50  0000 L CNN
F 2 "Resistors_ThroughHole:R_Axial_DIN0207_L6.3mm_D2.5mm_P10.16mm_Horizontal" V 9780 2425 50  0001 C CNN
F 3 "~" H 9850 2425 50  0001 C CNN
	1    9850 2425
	1    0    0    -1  
$EndComp
$Comp
L power:GNDA #PWR022
U 1 1 5C1873C0
P 9850 2675
F 0 "#PWR022" H 9850 2425 50  0001 C CNN
F 1 "GNDA" H 9855 2502 50  0000 C CNN
F 2 "" H 9850 2675 50  0001 C CNN
F 3 "" H 9850 2675 50  0001 C CNN
	1    9850 2675
	1    0    0    -1  
$EndComp
Wire Wire Line
	9850 2575 9850 2675
Wire Wire Line
	9850 2225 9850 2275
Wire Wire Line
	9850 2175 9850 2225
Connection ~ 9850 2225
Wire Wire Line
	2725 7100 2225 7100
Connection ~ 2225 7100
Wire Wire Line
	2225 7100 2225 7200
Wire Wire Line
	1175 7075 1575 7075
Connection ~ 1575 7075
Wire Wire Line
	1575 7075 1575 7175
$Comp
L conn:Conn_01x02 J3
U 1 1 5C5EE39E
P 4400 6950
F 0 "J3" H 4480 6992 50  0000 L CNN
F 1 "PWR" H 4480 6901 50  0000 L CNN
F 2 "Connectors_JST:JST_EH_B02B-EH-A_02x2.50mm_Straight" H 4400 6950 50  0001 C CNN
F 3 "~" H 4400 6950 50  0001 C CNN
	1    4400 6950
	1    0    0    -1  
$EndComp
Wire Wire Line
	10100 1075 10000 1075
Wire Wire Line
	4400 1075 4300 1075
$Comp
L power:GNDA #PWR09
U 1 1 5C642697
P 3700 7125
F 0 "#PWR09" H 3700 6875 50  0001 C CNN
F 1 "GNDA" H 3705 6952 50  0000 C CNN
F 2 "" H 3700 7125 50  0001 C CNN
F 3 "" H 3700 7125 50  0001 C CNN
	1    3700 7125
	1    0    0    -1  
$EndComp
Wire Wire Line
	4200 7050 3700 7050
Wire Wire Line
	3700 7050 3700 7125
$Comp
L Device:Q_NPN_BCEC Q15
U 1 1 5C7D686F
P 4600 1175
F 0 "Q15" V 4575 950 50  0000 C CNN
F 1 "2STN1360" V 4475 950 50  0000 C CNN
F 2 "TO_SOT_Packages_SMD:SOT-223" H 4800 1275 50  0001 C CNN
F 3 "~" H 4600 1175 50  0001 C CNN
	1    4600 1175
	0    1    -1   0   
$EndComp
$Comp
L Device:CP C19
U 1 1 5C7D6E4B
P 4600 1625
F 0 "C19" H 4375 1725 50  0000 L CNN
F 1 "1000uF/50V" H 4325 1500 50  0000 L CNN
F 2 "Capacitors_ThroughHole:CP_Radial_D18.0mm_P7.50mm" H 4638 1475 50  0001 C CNN
F 3 "~" H 4600 1625 50  0001 C CNN
	1    4600 1625
	1    0    0    -1  
$EndComp
$Comp
L power:GNDA #PWR027
U 1 1 5C7D7073
P 4600 1850
F 0 "#PWR027" H 4600 1600 50  0001 C CNN
F 1 "GNDA" H 4605 1677 50  0000 C CNN
F 2 "" H 4600 1850 50  0001 C CNN
F 3 "" H 4600 1850 50  0001 C CNN
	1    4600 1850
	1    0    0    -1  
$EndComp
$Comp
L Device:R R35
U 1 1 5C7D7276
P 4875 1275
F 0 "R35" H 4945 1321 50  0000 L CNN
F 1 "47" H 4945 1230 50  0000 L CNN
F 2 "Resistors_SMD:R_1206_HandSoldering" V 4805 1275 50  0001 C CNN
F 3 "~" H 4875 1275 50  0001 C CNN
	1    4875 1275
	1    0    0    -1  
$EndComp
$Comp
L power:VCC #PWR026
U 1 1 5C7FCEB3
P 3950 6825
F 0 "#PWR026" H 3950 6675 50  0001 C CNN
F 1 "VCC" H 3967 6998 50  0000 C CNN
F 2 "" H 3950 6825 50  0001 C CNN
F 3 "" H 3950 6825 50  0001 C CNN
	1    3950 6825
	1    0    0    -1  
$EndComp
Wire Wire Line
	4200 6950 3950 6950
Wire Wire Line
	3950 6950 3950 6825
Wire Wire Line
	4600 1375 4600 1425
Wire Wire Line
	4600 1775 4600 1850
Wire Wire Line
	4875 1425 4600 1425
Connection ~ 4600 1425
Wire Wire Line
	4600 1425 4600 1475
$Comp
L power:VCC #PWR028
U 1 1 5C8212BA
P 4875 800
F 0 "#PWR028" H 4875 650 50  0001 C CNN
F 1 "VCC" H 4892 973 50  0000 C CNN
F 2 "" H 4875 800 50  0001 C CNN
F 3 "" H 4875 800 50  0001 C CNN
	1    4875 800 
	1    0    0    -1  
$EndComp
$Comp
L Device:D_Schottky D1
U 1 1 5C821840
P 4600 850
F 0 "D1" H 4600 634 50  0000 C CNN
F 1 "SS26" H 4600 725 50  0000 C CNN
F 2 "Diodes_SMD:D_SMB_Handsoldering" H 4600 850 50  0001 C CNN
F 3 "~" H 4600 850 50  0001 C CNN
	1    4600 850 
	-1   0    0    1   
$EndComp
Wire Wire Line
	4875 800  4875 850 
Wire Wire Line
	4800 1075 4875 1075
Connection ~ 4875 1075
Wire Wire Line
	4875 1075 4875 1125
Wire Wire Line
	4800 975  4875 975 
Connection ~ 4875 975 
Wire Wire Line
	4875 975  4875 1075
Wire Wire Line
	4750 850  4875 850 
Connection ~ 4875 850 
Wire Wire Line
	4875 850  4875 975 
Wire Wire Line
	4400 1075 4400 850 
Wire Wire Line
	4400 850  4450 850 
$Comp
L Device:Q_NPN_BCEC Q16
U 1 1 5C85272E
P 10300 1175
F 0 "Q16" V 10275 950 50  0000 C CNN
F 1 "2STN1360" V 10175 950 50  0000 C CNN
F 2 "TO_SOT_Packages_SMD:SOT-223" H 10500 1275 50  0001 C CNN
F 3 "~" H 10300 1175 50  0001 C CNN
	1    10300 1175
	0    1    -1   0   
$EndComp
$Comp
L Device:CP C20
U 1 1 5C852734
P 10300 1625
F 0 "C20" H 10075 1725 50  0000 L CNN
F 1 "1000uF/50V" H 10025 1500 50  0000 L CNN
F 2 "Capacitors_ThroughHole:CP_Radial_D18.0mm_P7.50mm" H 10338 1475 50  0001 C CNN
F 3 "~" H 10300 1625 50  0001 C CNN
	1    10300 1625
	1    0    0    -1  
$EndComp
$Comp
L power:GNDA #PWR029
U 1 1 5C85273A
P 10300 1850
F 0 "#PWR029" H 10300 1600 50  0001 C CNN
F 1 "GNDA" H 10305 1677 50  0000 C CNN
F 2 "" H 10300 1850 50  0001 C CNN
F 3 "" H 10300 1850 50  0001 C CNN
	1    10300 1850
	1    0    0    -1  
$EndComp
$Comp
L Device:R R36
U 1 1 5C852740
P 10575 1275
F 0 "R36" H 10645 1321 50  0000 L CNN
F 1 "47" H 10645 1230 50  0000 L CNN
F 2 "Resistors_SMD:R_1206_HandSoldering" V 10505 1275 50  0001 C CNN
F 3 "~" H 10575 1275 50  0001 C CNN
	1    10575 1275
	1    0    0    -1  
$EndComp
Wire Wire Line
	10300 1375 10300 1425
Wire Wire Line
	10300 1775 10300 1850
Wire Wire Line
	10575 1425 10300 1425
Connection ~ 10300 1425
Wire Wire Line
	10300 1425 10300 1475
$Comp
L power:VCC #PWR030
U 1 1 5C85274B
P 10575 800
F 0 "#PWR030" H 10575 650 50  0001 C CNN
F 1 "VCC" H 10592 973 50  0000 C CNN
F 2 "" H 10575 800 50  0001 C CNN
F 3 "" H 10575 800 50  0001 C CNN
	1    10575 800 
	1    0    0    -1  
$EndComp
$Comp
L Device:D_Schottky D2
U 1 1 5C852751
P 10300 850
F 0 "D2" H 10300 634 50  0000 C CNN
F 1 "SS26" H 10300 725 50  0000 C CNN
F 2 "Diodes_SMD:D_SMB_Handsoldering" H 10300 850 50  0001 C CNN
F 3 "~" H 10300 850 50  0001 C CNN
	1    10300 850 
	-1   0    0    1   
$EndComp
Wire Wire Line
	10575 800  10575 850 
Wire Wire Line
	10500 1075 10575 1075
Connection ~ 10575 1075
Wire Wire Line
	10575 1075 10575 1125
Wire Wire Line
	10500 975  10575 975 
Connection ~ 10575 975 
Wire Wire Line
	10575 975  10575 1075
Wire Wire Line
	10450 850  10575 850 
Connection ~ 10575 850 
Wire Wire Line
	10575 850  10575 975 
Wire Wire Line
	10100 1075 10100 850 
Wire Wire Line
	10100 850  10150 850 
Connection ~ 10100 1075
Connection ~ 4400 1075
$Comp
L Device:C C21
U 1 1 5D7C53DF
P 1350 1325
F 0 "C21" H 1465 1371 50  0000 L CNN
F 1 "68nF" H 1465 1280 50  0000 L CNN
F 2 "Capacitors_ThroughHole:C_Rect_L7.2mm_W4.5mm_P5.00mm_FKS2_FKP2_MKS2_MKP2" H 1388 1175 50  0001 C CNN
F 3 "~" H 1350 1325 50  0001 C CNN
	1    1350 1325
	1    0    0    -1  
$EndComp
$Comp
L Device:C C23
U 1 1 5D7C6345
P 7100 1325
F 0 "C23" H 7215 1371 50  0000 L CNN
F 1 "68nF" H 7215 1280 50  0000 L CNN
F 2 "Capacitors_ThroughHole:C_Rect_L7.2mm_W4.5mm_P5.00mm_FKS2_FKP2_MKS2_MKP2" H 7138 1175 50  0001 C CNN
F 3 "~" H 7100 1325 50  0001 C CNN
	1    7100 1325
	1    0    0    -1  
$EndComp
$Comp
L power:GNDA #PWR033
U 1 1 5D7E19EC
P 7100 1575
F 0 "#PWR033" H 7100 1325 50  0001 C CNN
F 1 "GNDA" H 7105 1402 50  0000 C CNN
F 2 "" H 7100 1575 50  0001 C CNN
F 3 "" H 7100 1575 50  0001 C CNN
	1    7100 1575
	1    0    0    -1  
$EndComp
$Comp
L power:GNDA #PWR031
U 1 1 5D7E2D34
P 1350 1575
F 0 "#PWR031" H 1350 1325 50  0001 C CNN
F 1 "GNDA" H 1355 1402 50  0000 C CNN
F 2 "" H 1350 1575 50  0001 C CNN
F 3 "" H 1350 1575 50  0001 C CNN
	1    1350 1575
	1    0    0    -1  
$EndComp
Wire Wire Line
	7100 1475 7100 1575
Wire Wire Line
	7100 1175 7100 1075
Wire Wire Line
	7100 1075 7500 1075
Connection ~ 7500 1075
Wire Wire Line
	1800 1075 1350 1075
Wire Wire Line
	1350 1075 1350 1175
Connection ~ 1800 1075
Wire Wire Line
	1350 1475 1350 1575
$Comp
L Device:C C22
U 1 1 5D815765
P 4625 4725
F 0 "C22" H 4740 4771 50  0000 L CNN
F 1 "68nF" H 4740 4680 50  0000 L CNN
F 2 "Capacitors_ThroughHole:C_Rect_L7.2mm_W4.5mm_P5.00mm_FKS2_FKP2_MKS2_MKP2" H 4663 4575 50  0001 C CNN
F 3 "~" H 4625 4725 50  0001 C CNN
	1    4625 4725
	1    0    0    -1  
$EndComp
$Comp
L power:GNDA #PWR032
U 1 1 5D81576F
P 4625 4975
F 0 "#PWR032" H 4625 4725 50  0001 C CNN
F 1 "GNDA" H 4630 4802 50  0000 C CNN
F 2 "" H 4625 4975 50  0001 C CNN
F 3 "" H 4625 4975 50  0001 C CNN
	1    4625 4975
	1    0    0    -1  
$EndComp
Wire Wire Line
	4625 4875 4625 4975
$Comp
L Device:C C24
U 1 1 5D82364F
P 10325 4725
F 0 "C24" H 10440 4771 50  0000 L CNN
F 1 "68nF" H 10440 4680 50  0000 L CNN
F 2 "Capacitors_ThroughHole:C_Rect_L7.2mm_W4.5mm_P5.00mm_FKS2_FKP2_MKS2_MKP2" H 10363 4575 50  0001 C CNN
F 3 "~" H 10325 4725 50  0001 C CNN
	1    10325 4725
	1    0    0    -1  
$EndComp
$Comp
L power:GNDA #PWR034
U 1 1 5D823659
P 10325 4975
F 0 "#PWR034" H 10325 4725 50  0001 C CNN
F 1 "GNDA" H 10330 4802 50  0000 C CNN
F 2 "" H 10325 4975 50  0001 C CNN
F 3 "" H 10325 4975 50  0001 C CNN
	1    10325 4975
	1    0    0    -1  
$EndComp
Wire Wire Line
	10325 4875 10325 4975
Wire Wire Line
	4200 3925 4625 3925
Wire Wire Line
	4625 3925 4625 4575
Connection ~ 4200 3925
Wire Wire Line
	9900 3925 10325 3925
Wire Wire Line
	10325 3925 10325 4575
Connection ~ 9900 3925
$EndSCHEMATC
