EESchema Schematic File Version 4
LIBS:HFM-I-cache
EELAYER 26 0
EELAYER END
$Descr A4 11693 8268
encoding utf-8
Sheet 1 1
Title ""
Date ""
Rev ""
Comp ""
Comment1 ""
Comment2 ""
Comment3 ""
Comment4 ""
$EndDescr
$Comp
L Device:R R1
U 1 1 5B84D4D9
P 900 4725
F 0 "R1" H 970 4771 50  0000 L CNN
F 1 "150K" H 970 4680 50  0000 L CNN
F 2 "Resistors_SMD:R_0603_HandSoldering" V 830 4725 50  0001 C CNN
F 3 "~" H 900 4725 50  0001 C CNN
	1    900  4725
	1    0    0    -1  
$EndComp
$Comp
L Device:R R2
U 1 1 5B84D5C3
P 1400 4725
F 0 "R2" H 1470 4771 50  0000 L CNN
F 1 "110K" H 1470 4680 50  0000 L CNN
F 2 "Resistors_SMD:R_0603_HandSoldering" V 1330 4725 50  0001 C CNN
F 3 "~" H 1400 4725 50  0001 C CNN
	1    1400 4725
	1    0    0    -1  
$EndComp
$Comp
L Device:R R3
U 1 1 5B84D66B
P 1800 4225
F 0 "R3" H 1870 4271 50  0000 L CNN
F 1 "220K" H 1870 4180 50  0000 L CNN
F 2 "Resistors_SMD:R_0603_HandSoldering" V 1730 4225 50  0001 C CNN
F 3 "~" H 1800 4225 50  0001 C CNN
	1    1800 4225
	1    0    0    -1  
$EndComp
$Comp
L Device:C C4
U 1 1 5B84D7FD
P 1800 4725
F 0 "C4" H 1915 4771 50  0000 L CNN
F 1 "33pF" H 1915 4680 50  0000 L CNN
F 2 "Capacitors_SMD:C_0603_HandSoldering" H 1838 4575 50  0001 C CNN
F 3 "~" H 1800 4725 50  0001 C CNN
	1    1800 4725
	1    0    0    -1  
$EndComp
$Comp
L Device:R R5
U 1 1 5B84DA4E
P 2200 2725
F 0 "R5" H 2270 2771 50  0000 L CNN
F 1 "15K" H 2270 2680 50  0000 L CNN
F 2 "Resistors_SMD:R_0603_HandSoldering" V 2130 2725 50  0001 C CNN
F 3 "~" H 2200 2725 50  0001 C CNN
	1    2200 2725
	1    0    0    -1  
$EndComp
$Comp
L Device:CP C5
U 1 1 5B84DB30
P 2200 2225
F 0 "C5" H 1975 2325 50  0000 L CNN
F 1 "100uF/6V" H 1925 2100 50  0000 L CNN
F 2 "Capacitors_Tantalum_SMD:CP_Tantalum_Case-B_EIA-3528-21_Hand" H 2238 2075 50  0001 C CNN
F 3 "" H 2200 2225 50  0001 C CNN
	1    2200 2225
	1    0    0    -1  
$EndComp
$Comp
L Device:R R4
U 1 1 5B84DBE3
P 2200 1725
F 0 "R4" H 2270 1771 50  0000 L CNN
F 1 "390K" H 2270 1680 50  0000 L CNN
F 2 "Resistors_SMD:R_0603_HandSoldering" V 2130 1725 50  0001 C CNN
F 3 "~" H 2200 1725 50  0001 C CNN
	1    2200 1725
	1    0    0    -1  
$EndComp
$Comp
L Device:R R6
U 1 1 5B84DC81
P 2600 1725
F 0 "R6" H 2670 1771 50  0000 L CNN
F 1 "33K" H 2670 1680 50  0000 L CNN
F 2 "Resistors_SMD:R_0603_HandSoldering" V 2530 1725 50  0001 C CNN
F 3 "~" H 2600 1725 50  0001 C CNN
	1    2600 1725
	1    0    0    -1  
$EndComp
$Comp
L Device:C C6
U 1 1 5B84DD2C
P 2600 1325
F 0 "C6" H 2715 1371 50  0000 L CNN
F 1 "10nF" H 2650 1225 50  0000 L CNN
F 2 "Capacitors_SMD:C_1206_HandSoldering" H 2638 1175 50  0001 C CNN
F 3 "https://hu.farnell.com/kemet/ldbca2100jc5n0/cap-0-01-f-50v-5-pps-1206/dp/2446084" H 2600 1325 50  0001 C CNN
	1    2600 1325
	1    0    0    -1  
$EndComp
$Comp
L Device:C C7
U 1 1 5B84DDA6
P 3000 1325
F 0 "C7" H 3115 1371 50  0000 L CNN
F 1 "3,3nF" H 3050 1225 50  0000 L CNN
F 2 "Capacitors_SMD:C_1206_HandSoldering" H 3038 1175 50  0001 C CNN
F 3 "https://hu.farnell.com/panasonic-electronic-components/echu1h332gx5/cap-3300pf-50v-2-pps-1206-smd/dp/9695303" H 3000 1325 50  0001 C CNN
	1    3000 1325
	1    0    0    -1  
$EndComp
$Comp
L Device:Q_NPN_BEC Q3
U 1 1 5B84DEBF
P 3300 1675
F 0 "Q3" H 3491 1721 50  0000 L CNN
F 1 "BC850C" H 3491 1630 50  0000 L CNN
F 2 "TO_SOT_Packages_SMD:SOT-23" H 3500 1775 50  0001 C CNN
F 3 "~" H 3300 1675 50  0001 C CNN
	1    3300 1675
	1    0    0    -1  
$EndComp
$Comp
L Device:R R10
U 1 1 5B84E004
P 3400 2725
F 0 "R10" H 3470 2771 50  0000 L CNN
F 1 "470" H 3470 2680 50  0000 L CNN
F 2 "Resistors_SMD:R_0603_HandSoldering" V 3330 2725 50  0001 C CNN
F 3 "~" H 3400 2725 50  0001 C CNN
	1    3400 2725
	1    0    0    -1  
$EndComp
$Comp
L Device:R R9
U 1 1 5B84E0D2
P 3400 2225
F 0 "R9" H 3470 2271 50  0000 L CNN
F 1 "470" H 3470 2180 50  0000 L CNN
F 2 "Resistors_SMD:R_0603_HandSoldering" V 3330 2225 50  0001 C CNN
F 3 "~" H 3400 2225 50  0001 C CNN
	1    3400 2225
	1    0    0    -1  
$EndComp
$Comp
L Device:R R7
U 1 1 5B84E14E
P 2600 2225
F 0 "R7" H 2670 2271 50  0000 L CNN
F 1 "51K" H 2670 2180 50  0000 L CNN
F 2 "Resistors_SMD:R_0603_HandSoldering" V 2530 2225 50  0001 C CNN
F 3 "~" H 2600 2225 50  0001 C CNN
	1    2600 2225
	1    0    0    -1  
$EndComp
$Comp
L Device:Q_PNP_BEC Q4
U 1 1 5B84E3C3
P 3300 3175
F 0 "Q4" H 3491 3129 50  0000 L CNN
F 1 "BC860C" H 3491 3220 50  0000 L CNN
F 2 "TO_SOT_Packages_SMD:SOT-23" H 3500 3275 50  0001 C CNN
F 3 "~" H 3300 3175 50  0001 C CNN
	1    3300 3175
	1    0    0    1   
$EndComp
$Comp
L Device:R R12
U 1 1 5B84E4AF
P 3600 1975
F 0 "R12" V 3500 1975 50  0000 C CNN
F 1 "2,2K" V 3700 1975 50  0000 C CNN
F 2 "Resistors_SMD:R_0603_HandSoldering" V 3530 1975 50  0001 C CNN
F 3 "~" H 3600 1975 50  0001 C CNN
	1    3600 1975
	0    1    1    0   
$EndComp
$Comp
L Device:R R14
U 1 1 5B84E5DD
P 3800 4725
F 0 "R14" H 3870 4771 50  0000 L CNN
F 1 "10K" H 3870 4680 50  0000 L CNN
F 2 "Resistors_SMD:R_0603_HandSoldering" V 3730 4725 50  0001 C CNN
F 3 "~" H 3800 4725 50  0001 C CNN
	1    3800 4725
	1    0    0    -1  
$EndComp
$Comp
L Device:R R11
U 1 1 5B84E707
P 3400 4725
F 0 "R11" H 3470 4771 50  0000 L CNN
F 1 "330" H 3470 4680 50  0000 L CNN
F 2 "Resistors_SMD:R_0603_HandSoldering" V 3330 4725 50  0001 C CNN
F 3 "~" H 3400 4725 50  0001 C CNN
	1    3400 4725
	1    0    0    -1  
$EndComp
$Comp
L Device:CP C8
U 1 1 5B84E7BA
P 4200 4725
F 0 "C8" H 4318 4771 50  0000 L CNN
F 1 "22uF/6V" H 4225 4625 50  0000 L CNN
F 2 "Capacitors_Tantalum_SMD:CP_Tantalum_Case-B_EIA-3528-21_Hand" H 4238 4575 50  0001 C CNN
F 3 "~" H 4200 4725 50  0001 C CNN
	1    4200 4725
	1    0    0    -1  
$EndComp
$Comp
L Device:CP C12
U 1 1 5B84E9B4
P 5050 4725
F 0 "C12" H 5168 4771 50  0000 L CNN
F 1 "22uF" H 5168 4680 50  0000 L CNN
F 2 "Capacitors_SMD:CP_Elec_6.3x5.3" H 5088 4575 50  0001 C CNN
F 3 "~" H 5050 4725 50  0001 C CNN
	1    5050 4725
	1    0    0    -1  
$EndComp
$Comp
L Device:R R15
U 1 1 5B84EA79
P 4050 1075
F 0 "R15" V 3843 1075 50  0000 C CNN
F 1 "4,7K" V 3934 1075 50  0000 C CNN
F 2 "Resistors_SMD:R_1206_HandSoldering" V 3980 1075 50  0001 C CNN
F 3 "~" H 4050 1075 50  0001 C CNN
	1    4050 1075
	0    1    1    0   
$EndComp
$Comp
L Device:R R8
U 1 1 5B84EB5D
P 3350 1075
F 0 "R8" V 3143 1075 50  0000 C CNN
F 1 "22K" V 3234 1075 50  0000 C CNN
F 2 "Resistors_SMD:R_1206_HandSoldering" V 3280 1075 50  0001 C CNN
F 3 "~" H 3350 1075 50  0001 C CNN
	1    3350 1075
	0    1    1    0   
$EndComp
$Comp
L Device:R R17
U 1 1 5B84ED6A
P 4700 2450
F 0 "R17" H 4770 2496 50  0000 L CNN
F 1 "100K" H 4770 2405 50  0000 L CNN
F 2 "Resistors_SMD:R_0603_HandSoldering" V 4630 2450 50  0001 C CNN
F 3 "~" H 4700 2450 50  0001 C CNN
	1    4700 2450
	1    0    0    -1  
$EndComp
$Comp
L Device:CP C3
U 1 1 5B84EE49
P 1800 1325
F 0 "C3" H 1850 1425 50  0000 L CNN
F 1 "10uF/50V" H 1825 1200 50  0000 L CNN
F 2 "Capacitors_Tantalum_SMD:CP_Tantalum_Case-V_EIA-7343-20_Hand" H 1838 1175 50  0001 C CNN
F 3 "https://hu.farnell.com/nichicon/uwx1h100mcl1gb/cap-10-f-50v-smd/dp/2841976" H 1800 1325 50  0001 C CNN
	1    1800 1325
	1    0    0    -1  
$EndComp
$Comp
L Device:R R13
U 1 1 5B852785
P 3800 3425
F 0 "R13" H 3870 3471 50  0000 L CNN
F 1 "120K" H 3870 3380 50  0000 L CNN
F 2 "Resistors_SMD:R_0603_HandSoldering" V 3730 3425 50  0001 C CNN
F 3 "~" H 3800 3425 50  0001 C CNN
	1    3800 3425
	1    0    0    -1  
$EndComp
$Comp
L power:GNDA #PWR01
U 1 1 5B852F44
P 900 4975
F 0 "#PWR01" H 900 4725 50  0001 C CNN
F 1 "GNDA" H 905 4802 50  0000 C CNN
F 2 "" H 900 4975 50  0001 C CNN
F 3 "" H 900 4975 50  0001 C CNN
	1    900  4975
	1    0    0    -1  
$EndComp
$Comp
L power:GNDA #PWR02
U 1 1 5B852FA8
P 1400 4975
F 0 "#PWR02" H 1400 4725 50  0001 C CNN
F 1 "GNDA" H 1405 4802 50  0000 C CNN
F 2 "" H 1400 4975 50  0001 C CNN
F 3 "" H 1400 4975 50  0001 C CNN
	1    1400 4975
	1    0    0    -1  
$EndComp
$Comp
L power:GNDA #PWR06
U 1 1 5B85300C
P 1800 4975
F 0 "#PWR06" H 1800 4725 50  0001 C CNN
F 1 "GNDA" H 1805 4802 50  0000 C CNN
F 2 "" H 1800 4975 50  0001 C CNN
F 3 "" H 1800 4975 50  0001 C CNN
	1    1800 4975
	1    0    0    -1  
$EndComp
$Comp
L power:GNDA #PWR09
U 1 1 5B853070
P 3400 4975
F 0 "#PWR09" H 3400 4725 50  0001 C CNN
F 1 "GNDA" H 3405 4802 50  0000 C CNN
F 2 "" H 3400 4975 50  0001 C CNN
F 3 "" H 3400 4975 50  0001 C CNN
	1    3400 4975
	1    0    0    -1  
$EndComp
$Comp
L power:GNDA #PWR011
U 1 1 5B8530D4
P 3800 4975
F 0 "#PWR011" H 3800 4725 50  0001 C CNN
F 1 "GNDA" H 3805 4802 50  0000 C CNN
F 2 "" H 3800 4975 50  0001 C CNN
F 3 "" H 3800 4975 50  0001 C CNN
	1    3800 4975
	1    0    0    -1  
$EndComp
$Comp
L power:GNDA #PWR014
U 1 1 5B853138
P 4200 4975
F 0 "#PWR014" H 4200 4725 50  0001 C CNN
F 1 "GNDA" H 4205 4802 50  0000 C CNN
F 2 "" H 4200 4975 50  0001 C CNN
F 3 "" H 4200 4975 50  0001 C CNN
	1    4200 4975
	1    0    0    -1  
$EndComp
$Comp
L power:GNDA #PWR019
U 1 1 5B853200
P 5050 4975
F 0 "#PWR019" H 5050 4725 50  0001 C CNN
F 1 "GNDA" H 5055 4802 50  0000 C CNN
F 2 "" H 5050 4975 50  0001 C CNN
F 3 "" H 5050 4975 50  0001 C CNN
	1    5050 4975
	1    0    0    -1  
$EndComp
$Comp
L power:GNDA #PWR05
U 1 1 5B8532C8
P 1800 1575
F 0 "#PWR05" H 1800 1325 50  0001 C CNN
F 1 "GNDA" H 1805 1402 50  0000 C CNN
F 2 "" H 1800 1575 50  0001 C CNN
F 3 "" H 1800 1575 50  0001 C CNN
	1    1800 1575
	1    0    0    -1  
$EndComp
$Comp
L power:GNDA #PWR017
U 1 1 5B85332C
P 4700 2700
F 0 "#PWR017" H 4700 2450 50  0001 C CNN
F 1 "GNDA" H 4705 2527 50  0000 C CNN
F 2 "" H 4700 2700 50  0001 C CNN
F 3 "" H 4700 2700 50  0001 C CNN
	1    4700 2700
	1    0    0    -1  
$EndComp
Wire Wire Line
	900  4875 900  4975
Wire Wire Line
	1000 4475 900  4475
Wire Wire Line
	900  4475 900  4575
Wire Wire Line
	1300 4475 1400 4475
Wire Wire Line
	1800 4375 1800 4475
Connection ~ 1800 4475
Wire Wire Line
	1800 4475 1900 4475
Wire Wire Line
	1800 4475 1800 4575
Wire Wire Line
	1800 4875 1800 4975
Wire Wire Line
	1400 4875 1400 4975
Wire Wire Line
	1400 4475 1400 4575
Connection ~ 1400 4475
Wire Wire Line
	1400 4475 1800 4475
$Comp
L power:GNDA #PWR07
U 1 1 5B85359C
P 2200 4975
F 0 "#PWR07" H 2200 4725 50  0001 C CNN
F 1 "GNDA" H 2205 4802 50  0000 C CNN
F 2 "" H 2200 4975 50  0001 C CNN
F 3 "" H 2200 4975 50  0001 C CNN
	1    2200 4975
	1    0    0    -1  
$EndComp
Wire Wire Line
	2200 4675 2200 4975
Wire Wire Line
	2200 3375 2200 4175
Wire Wire Line
	2200 4175 3100 4175
Connection ~ 2200 4175
Wire Wire Line
	2200 4175 2200 4275
Wire Wire Line
	3400 4375 3400 4575
Wire Wire Line
	3400 4875 3400 4975
Wire Wire Line
	3400 3875 3400 3975
Wire Wire Line
	3400 3375 3400 3425
Wire Wire Line
	3800 3575 3800 3675
Wire Wire Line
	3800 4875 3800 4975
Wire Wire Line
	3700 3675 3800 3675
Connection ~ 3800 3675
Wire Wire Line
	3800 3675 3800 3925
Wire Wire Line
	1800 4075 1800 3925
Wire Wire Line
	1800 3925 3800 3925
Connection ~ 3800 3925
Wire Wire Line
	3800 3925 3800 4575
Wire Wire Line
	3800 3925 4200 3925
Wire Wire Line
	4200 4875 4200 4975
Wire Wire Line
	4200 4575 4200 3925
Wire Wire Line
	1800 1475 1800 1575
Wire Wire Line
	2200 2875 2200 2975
Wire Wire Line
	2200 2375 2200 2475
Wire Wire Line
	2200 1875 2200 1975
Wire Wire Line
	2600 1475 2600 1575
Wire Wire Line
	2600 1875 2600 1975
Wire Wire Line
	3200 1075 3000 1075
Wire Wire Line
	1800 1175 1800 1075
Wire Wire Line
	2200 1575 2200 1075
Connection ~ 2200 1075
Wire Wire Line
	2200 1075 1800 1075
Wire Wire Line
	2200 1975 2600 1975
Connection ~ 2200 1975
Wire Wire Line
	2200 1975 2200 2075
Connection ~ 2600 1975
Wire Wire Line
	2600 1975 2600 2075
Wire Wire Line
	2600 1975 3000 1975
Wire Wire Line
	3000 1975 3000 1675
Wire Wire Line
	3100 1675 3000 1675
Connection ~ 3000 1675
Wire Wire Line
	3000 1675 3000 1475
Wire Wire Line
	2600 1175 2600 1075
Connection ~ 2600 1075
Wire Wire Line
	2600 1075 2200 1075
Wire Wire Line
	3000 1175 3000 1075
Connection ~ 3000 1075
Wire Wire Line
	3000 1075 2600 1075
Wire Wire Line
	3500 1075 3800 1075
Wire Wire Line
	3800 3275 3800 3175
Connection ~ 3800 1075
Wire Wire Line
	3800 1075 3900 1075
Wire Wire Line
	3400 1875 3400 1975
Wire Wire Line
	3400 2375 3400 2475
Wire Wire Line
	2500 3175 3000 3175
Wire Wire Line
	3000 3175 3000 3425
Wire Wire Line
	3000 3425 3400 3425
Connection ~ 3000 3175
Wire Wire Line
	3000 3175 3100 3175
Connection ~ 3400 3425
Wire Wire Line
	3400 3425 3400 3475
Wire Wire Line
	3400 2875 3400 2975
Wire Wire Line
	3400 1475 3400 1375
Wire Wire Line
	3400 1375 4150 1375
Wire Wire Line
	4300 1375 4300 1075
Wire Wire Line
	4300 1075 4200 1075
Connection ~ 4300 1075
Wire Wire Line
	3400 1975 3450 1975
Connection ~ 3400 1975
Wire Wire Line
	3400 1975 3400 2075
Wire Wire Line
	4600 2200 4700 2200
Wire Wire Line
	4700 2200 4700 2300
Wire Wire Line
	4700 2600 4700 2700
Wire Wire Line
	2200 2475 2600 2475
Connection ~ 2200 2475
Wire Wire Line
	2200 2475 2200 2575
Connection ~ 3400 2475
Wire Wire Line
	3400 2475 3400 2575
Wire Wire Line
	2600 2375 2600 2475
Connection ~ 2600 2475
Wire Wire Line
	2600 2475 3400 2475
Wire Wire Line
	5050 4975 5050 4875
Wire Wire Line
	5050 4575 5050 3175
Wire Wire Line
	5050 3175 3800 3175
Connection ~ 3800 3175
Wire Wire Line
	3800 3175 3800 1075
$Comp
L Connector_Generic:Conn_01x04 J1
U 1 1 5B8745C4
P 975 6975
F 0 "J1" H 895 7292 50  0000 C CNN
F 1 "IN" H 895 7201 50  0000 C CNN
F 2 "Connectors_JST:JST_EH_B04B-EH-A_04x2.50mm_Straight" H 975 6975 50  0001 C CNN
F 3 "~" H 975 6975 50  0001 C CNN
	1    975  6975
	-1   0    0    -1  
$EndComp
$Comp
L Connector_Generic:Conn_01x04 J2
U 1 1 5B87471F
P 2925 7000
F 0 "J2" H 3005 7042 50  0000 L CNN
F 1 "OUT" H 3005 6951 50  0000 L CNN
F 2 "Connectors_JST:JST_EH_B04B-EH-A_04x2.50mm_Straight" H 2925 7000 50  0001 C CNN
F 3 "~" H 2925 7000 50  0001 C CNN
	1    2925 7000
	1    0    0    -1  
$EndComp
Text GLabel 800  4475 0    50   Input ~ 0
INL
Text GLabel 4900 2200 2    50   Input ~ 0
OUTL
Text GLabel 1275 6875 2    50   Input ~ 0
INL
Text GLabel 2625 6900 0    50   Input ~ 0
OUTL
Text GLabel 1275 7175 2    50   Input ~ 0
INR
Text GLabel 2625 7200 0    50   Input ~ 0
OUTR
$Comp
L power:GNDA #PWR08
U 1 1 5B874BB7
P 2225 7200
F 0 "#PWR08" H 2225 6950 50  0001 C CNN
F 1 "GNDA" H 2230 7027 50  0000 C CNN
F 2 "" H 2225 7200 50  0001 C CNN
F 3 "" H 2225 7200 50  0001 C CNN
	1    2225 7200
	1    0    0    -1  
$EndComp
$Comp
L power:GNDA #PWR04
U 1 1 5B874C1F
P 1575 7175
F 0 "#PWR04" H 1575 6925 50  0001 C CNN
F 1 "GNDA" H 1580 7002 50  0000 C CNN
F 2 "" H 1575 7175 50  0001 C CNN
F 3 "" H 1575 7175 50  0001 C CNN
	1    1575 7175
	1    0    0    -1  
$EndComp
Wire Wire Line
	2725 7000 2225 7000
Wire Wire Line
	2225 7000 2225 7100
Wire Wire Line
	2625 6900 2725 6900
Wire Wire Line
	2625 7200 2725 7200
Wire Wire Line
	1175 6875 1275 6875
Wire Wire Line
	1175 6975 1575 6975
Wire Wire Line
	1575 6975 1575 7075
Wire Wire Line
	1175 7175 1275 7175
Wire Wire Line
	800  4475 900  4475
Connection ~ 900  4475
Wire Wire Line
	4700 2200 4900 2200
Connection ~ 4700 2200
Wire Wire Line
	3750 1975 3850 1975
Wire Wire Line
	4150 1775 4150 1375
Connection ~ 4150 1375
Wire Wire Line
	4150 1375 4300 1375
$Comp
L Device:R R16
U 1 1 5C163C12
P 4150 2400
F 0 "R16" H 3950 2450 50  0000 L CNN
F 1 "4,3K" H 3900 2350 50  0000 L CNN
F 2 "Resistors_SMD:R_0603_HandSoldering" V 4080 2400 50  0001 C CNN
F 3 "~" H 4150 2400 50  0001 C CNN
	1    4150 2400
	1    0    0    -1  
$EndComp
$Comp
L power:GNDA #PWR013
U 1 1 5C163C18
P 4150 2650
F 0 "#PWR013" H 4150 2400 50  0001 C CNN
F 1 "GNDA" H 4155 2477 50  0000 C CNN
F 2 "" H 4150 2650 50  0001 C CNN
F 3 "" H 4150 2650 50  0001 C CNN
	1    4150 2650
	1    0    0    -1  
$EndComp
Wire Wire Line
	4150 2550 4150 2650
Wire Wire Line
	4150 2175 4150 2200
Wire Wire Line
	4150 2200 4300 2200
Connection ~ 4150 2200
Wire Wire Line
	4150 2200 4150 2250
Wire Wire Line
	2725 7100 2225 7100
Connection ~ 2225 7100
Wire Wire Line
	2225 7100 2225 7200
Wire Wire Line
	1175 7075 1575 7075
Connection ~ 1575 7075
Wire Wire Line
	1575 7075 1575 7175
$Comp
L conn:Conn_01x02 J3
U 1 1 5C5EE39E
P 4400 6950
F 0 "J3" H 4480 6992 50  0000 L CNN
F 1 "PWR" H 4480 6901 50  0000 L CNN
F 2 "Connectors_JST:JST_EH_B02B-EH-A_02x2.50mm_Straight" H 4400 6950 50  0001 C CNN
F 3 "~" H 4400 6950 50  0001 C CNN
	1    4400 6950
	1    0    0    -1  
$EndComp
Wire Wire Line
	4400 1075 4300 1075
$Comp
L power:GNDA #PWR010
U 1 1 5C642697
P 3700 7125
F 0 "#PWR010" H 3700 6875 50  0001 C CNN
F 1 "GNDA" H 3705 6952 50  0000 C CNN
F 2 "" H 3700 7125 50  0001 C CNN
F 3 "" H 3700 7125 50  0001 C CNN
	1    3700 7125
	1    0    0    -1  
$EndComp
Wire Wire Line
	4200 7050 4175 7050
Wire Wire Line
	3700 7050 3700 7125
$Comp
L Device:Q_NPN_BCEC Q8
U 1 1 5C7D686F
P 4600 1175
F 0 "Q8" V 4575 950 50  0000 C CNN
F 1 "2STN1360" V 4475 950 50  0000 C CNN
F 2 "TO_SOT_Packages_SMD:SOT-223" H 4800 1275 50  0001 C CNN
F 3 "~" H 4600 1175 50  0001 C CNN
	1    4600 1175
	0    1    -1   0   
$EndComp
$Comp
L Device:CP C10
U 1 1 5C7D6E4B
P 4600 1625
F 0 "C10" H 4375 1725 50  0000 L CNN
F 1 "1000uF/50V" H 4325 1500 50  0000 L CNN
F 2 "suf_capacitor:CAP-SMD-SIZE-J16" H 4638 1475 50  0001 C CNN
F 3 "https://hu.farnell.com/panasonic-electronic-components/eevfk1h102m/cap-1000-f-50v-radial-smd/dp/9695982" H 4600 1625 50  0001 C CNN
	1    4600 1625
	1    0    0    -1  
$EndComp
$Comp
L power:GNDA #PWR015
U 1 1 5C7D7073
P 4600 1850
F 0 "#PWR015" H 4600 1600 50  0001 C CNN
F 1 "GNDA" H 4700 1700 50  0000 C CNN
F 2 "" H 4600 1850 50  0001 C CNN
F 3 "" H 4600 1850 50  0001 C CNN
	1    4600 1850
	1    0    0    -1  
$EndComp
$Comp
L Device:R R18
U 1 1 5C7D7276
P 4875 1275
F 0 "R18" H 4945 1321 50  0000 L CNN
F 1 "47" H 4945 1230 50  0000 L CNN
F 2 "Resistors_SMD:R_1206_HandSoldering" V 4805 1275 50  0001 C CNN
F 3 "~" H 4875 1275 50  0001 C CNN
	1    4875 1275
	1    0    0    -1  
$EndComp
$Comp
L power:VCC #PWR012
U 1 1 5C7FCEB3
P 3950 6825
F 0 "#PWR012" H 3950 6675 50  0001 C CNN
F 1 "VCC" H 3967 6998 50  0000 C CNN
F 2 "" H 3950 6825 50  0001 C CNN
F 3 "" H 3950 6825 50  0001 C CNN
	1    3950 6825
	1    0    0    -1  
$EndComp
Wire Wire Line
	4200 6950 4175 6950
Wire Wire Line
	3950 6950 3950 6825
Wire Wire Line
	4600 1375 4600 1425
Wire Wire Line
	4600 1775 4600 1850
Wire Wire Line
	4875 1425 4600 1425
Connection ~ 4600 1425
Wire Wire Line
	4600 1425 4600 1475
$Comp
L power:VCC #PWR018
U 1 1 5C8212BA
P 4875 800
F 0 "#PWR018" H 4875 650 50  0001 C CNN
F 1 "VCC" H 4892 973 50  0000 C CNN
F 2 "" H 4875 800 50  0001 C CNN
F 3 "" H 4875 800 50  0001 C CNN
	1    4875 800 
	1    0    0    -1  
$EndComp
$Comp
L Device:D_Schottky D1
U 1 1 5C821840
P 4600 850
F 0 "D1" H 4600 634 50  0000 C CNN
F 1 "SS26" H 4600 725 50  0000 C CNN
F 2 "Diodes_SMD:D_SMB_Handsoldering" H 4600 850 50  0001 C CNN
F 3 "~" H 4600 850 50  0001 C CNN
	1    4600 850 
	-1   0    0    1   
$EndComp
Wire Wire Line
	4875 800  4875 850 
Wire Wire Line
	4800 1075 4875 1075
Connection ~ 4875 1075
Wire Wire Line
	4875 1075 4875 1125
Wire Wire Line
	4800 975  4875 975 
Connection ~ 4875 975 
Wire Wire Line
	4875 975  4875 1075
Wire Wire Line
	4750 850  4875 850 
Connection ~ 4875 850 
Wire Wire Line
	4875 850  4875 975 
Wire Wire Line
	4400 1075 4400 850 
Wire Wire Line
	4400 850  4450 850 
Connection ~ 4400 1075
$Comp
L Device:C C2
U 1 1 5C712F4F
P 1475 1325
F 0 "C2" H 1525 1425 50  0000 L CNN
F 1 "68nF" H 1250 1225 50  0000 L CNN
F 2 "Capacitors_SMD:C_1812_HandSoldering" H 1513 1175 50  0001 C CNN
F 3 "https://hu.farnell.com/panasonic-electronic-components/echu1h683jx9/cap-0-068-f-50v-5-pps-1913/dp/1855057" H 1475 1325 50  0001 C CNN
	1    1475 1325
	1    0    0    -1  
$EndComp
$Comp
L power:GNDA #PWR03
U 1 1 5C712F55
P 1475 1575
F 0 "#PWR03" H 1475 1325 50  0001 C CNN
F 1 "GNDA" H 1480 1402 50  0000 C CNN
F 2 "" H 1475 1575 50  0001 C CNN
F 3 "" H 1475 1575 50  0001 C CNN
	1    1475 1575
	1    0    0    -1  
$EndComp
Wire Wire Line
	1475 1475 1475 1575
Wire Wire Line
	1475 1175 1475 1075
$Comp
L power:GNDA #PWR016
U 1 1 5C72ABD5
P 4650 4975
F 0 "#PWR016" H 4650 4725 50  0001 C CNN
F 1 "GNDA" H 4655 4802 50  0000 C CNN
F 2 "" H 4650 4975 50  0001 C CNN
F 3 "" H 4650 4975 50  0001 C CNN
	1    4650 4975
	1    0    0    -1  
$EndComp
Wire Wire Line
	4650 4875 4650 4975
Wire Wire Line
	1475 1075 1800 1075
Connection ~ 1800 1075
Wire Wire Line
	4200 3925 4650 3925
Wire Wire Line
	4650 3925 4650 4575
Connection ~ 4200 3925
$Comp
L Device:CP C1
U 1 1 5C789C6A
P 1150 4475
F 0 "C1" H 1200 4575 50  0000 L CNN
F 1 "10uF/6V" H 1175 4350 50  0000 L CNN
F 2 "Capacitors_Tantalum_SMD:CP_Tantalum_Case-B_EIA-3528-21_Hand" H 1188 4325 50  0001 C CNN
F 3 "https://hu.farnell.com/nichicon/uwx1h100mcl1gb/cap-10-f-50v-smd/dp/2841976" H 1150 4475 50  0001 C CNN
	1    1150 4475
	0    -1   -1   0   
$EndComp
$Comp
L Device:CP C9
U 1 1 5C796DF0
P 4450 2200
F 0 "C9" H 4500 2300 50  0000 L CNN
F 1 "10uF/35V" H 4475 2075 50  0000 L CNN
F 2 "Capacitors_Tantalum_SMD:CP_Tantalum_Case-D_EIA-7343-31_Hand" H 4488 2050 50  0001 C CNN
F 3 "" H 4450 2200 50  0001 C CNN
	1    4450 2200
	0    1    1    0   
$EndComp
$Comp
L Device:C C11
U 1 1 5C797535
P 4650 4725
F 0 "C11" H 4700 4825 50  0000 L CNN
F 1 "68nF" H 4725 4625 50  0000 L CNN
F 2 "Capacitors_SMD:C_1812_HandSoldering" H 4688 4575 50  0001 C CNN
F 3 "https://hu.farnell.com/panasonic-electronic-components/echu1h683jx9/cap-0-068-f-50v-5-pps-1913/dp/1855057" H 4650 4725 50  0001 C CNN
	1    4650 4725
	1    0    0    -1  
$EndComp
$Comp
L Device:Q_PNP_BEC Q2
U 1 1 5C7B1C8D
P 2300 3175
F 0 "Q2" H 2491 3129 50  0000 L CNN
F 1 "BC860C" H 2491 3220 50  0000 L CNN
F 2 "TO_SOT_Packages_SMD:SOT-23" H 2500 3275 50  0001 C CNN
F 3 "~" H 2300 3175 50  0001 C CNN
	1    2300 3175
	-1   0    0    1   
$EndComp
$Comp
L Device:Q_PNP_BEC Q1
U 1 1 5C7BF091
P 2100 4475
F 0 "Q1" H 2291 4429 50  0000 L CNN
F 1 "BC860C" H 2291 4520 50  0000 L CNN
F 2 "TO_SOT_Packages_SMD:SOT-23" H 2300 4575 50  0001 C CNN
F 3 "~" H 2100 4475 50  0001 C CNN
	1    2100 4475
	1    0    0    1   
$EndComp
$Comp
L Device:Q_NPN_BEC Q6
U 1 1 5C7CC22C
P 3500 3675
F 0 "Q6" H 3691 3721 50  0000 L CNN
F 1 "BC850C" H 3691 3630 50  0000 L CNN
F 2 "TO_SOT_Packages_SMD:SOT-23" H 3700 3775 50  0001 C CNN
F 3 "~" H 3500 3675 50  0001 C CNN
	1    3500 3675
	-1   0    0    -1  
$EndComp
$Comp
L Device:Q_NPN_BEC Q5
U 1 1 5C7E634A
P 3300 4175
F 0 "Q5" H 3491 4221 50  0000 L CNN
F 1 "BC850C" H 3491 4130 50  0000 L CNN
F 2 "TO_SOT_Packages_SMD:SOT-23" H 3500 4275 50  0001 C CNN
F 3 "~" H 3300 4175 50  0001 C CNN
	1    3300 4175
	1    0    0    -1  
$EndComp
$Comp
L Device:Q_NPN_BEC Q7
U 1 1 5C7F34F5
P 4050 1975
F 0 "Q7" H 4241 2021 50  0000 L CNN
F 1 "BC850C" H 4241 1930 50  0000 L CNN
F 2 "TO_SOT_Packages_SMD:SOT-23" H 4250 2075 50  0001 C CNN
F 3 "~" H 4050 1975 50  0001 C CNN
	1    4050 1975
	1    0    0    -1  
$EndComp
$Comp
L Device:R R19
U 1 1 5C80A42F
P 6200 4725
F 0 "R19" H 6270 4771 50  0000 L CNN
F 1 "150K" H 6270 4680 50  0000 L CNN
F 2 "Resistors_SMD:R_0603_HandSoldering" V 6130 4725 50  0001 C CNN
F 3 "~" H 6200 4725 50  0001 C CNN
	1    6200 4725
	1    0    0    -1  
$EndComp
$Comp
L Device:R R20
U 1 1 5C80A435
P 6700 4725
F 0 "R20" H 6770 4771 50  0000 L CNN
F 1 "110K" H 6770 4680 50  0000 L CNN
F 2 "Resistors_SMD:R_0603_HandSoldering" V 6630 4725 50  0001 C CNN
F 3 "~" H 6700 4725 50  0001 C CNN
	1    6700 4725
	1    0    0    -1  
$EndComp
$Comp
L Device:R R21
U 1 1 5C80A43B
P 7100 4225
F 0 "R21" H 7170 4271 50  0000 L CNN
F 1 "220K" H 7170 4180 50  0000 L CNN
F 2 "Resistors_SMD:R_0603_HandSoldering" V 7030 4225 50  0001 C CNN
F 3 "~" H 7100 4225 50  0001 C CNN
	1    7100 4225
	1    0    0    -1  
$EndComp
$Comp
L Device:C C16
U 1 1 5C80A441
P 7100 4725
F 0 "C16" H 7215 4771 50  0000 L CNN
F 1 "33pF" H 7215 4680 50  0000 L CNN
F 2 "Capacitors_SMD:C_0603_HandSoldering" H 7138 4575 50  0001 C CNN
F 3 "~" H 7100 4725 50  0001 C CNN
	1    7100 4725
	1    0    0    -1  
$EndComp
$Comp
L Device:R R23
U 1 1 5C80A447
P 7500 2725
F 0 "R23" H 7570 2771 50  0000 L CNN
F 1 "15K" H 7570 2680 50  0000 L CNN
F 2 "Resistors_SMD:R_0603_HandSoldering" V 7430 2725 50  0001 C CNN
F 3 "~" H 7500 2725 50  0001 C CNN
	1    7500 2725
	1    0    0    -1  
$EndComp
$Comp
L Device:CP C17
U 1 1 5C80A44D
P 7500 2225
F 0 "C17" H 7275 2325 50  0000 L CNN
F 1 "100uF" H 7225 2100 50  0000 L CNN
F 2 "Capacitors_Tantalum_SMD:CP_Tantalum_Case-B_EIA-3528-21_Hand" H 7538 2075 50  0001 C CNN
F 3 "" H 7500 2225 50  0001 C CNN
	1    7500 2225
	1    0    0    -1  
$EndComp
$Comp
L Device:R R22
U 1 1 5C80A453
P 7500 1725
F 0 "R22" H 7570 1771 50  0000 L CNN
F 1 "390K" H 7570 1680 50  0000 L CNN
F 2 "Resistors_SMD:R_0603_HandSoldering" V 7430 1725 50  0001 C CNN
F 3 "~" H 7500 1725 50  0001 C CNN
	1    7500 1725
	1    0    0    -1  
$EndComp
$Comp
L Device:R R24
U 1 1 5C80A459
P 7900 1725
F 0 "R24" H 7970 1771 50  0000 L CNN
F 1 "33K" H 7970 1680 50  0000 L CNN
F 2 "Resistors_SMD:R_0603_HandSoldering" V 7830 1725 50  0001 C CNN
F 3 "~" H 7900 1725 50  0001 C CNN
	1    7900 1725
	1    0    0    -1  
$EndComp
$Comp
L Device:C C18
U 1 1 5C80A45F
P 7900 1325
F 0 "C18" H 8015 1371 50  0000 L CNN
F 1 "10nF" H 7950 1225 50  0000 L CNN
F 2 "Capacitors_SMD:C_1206_HandSoldering" H 7938 1175 50  0001 C CNN
F 3 "https://hu.farnell.com/kemet/ldbca2100jc5n0/cap-0-01-f-50v-5-pps-1206/dp/2446084" H 7900 1325 50  0001 C CNN
	1    7900 1325
	1    0    0    -1  
$EndComp
$Comp
L Device:C C19
U 1 1 5C80A465
P 8300 1325
F 0 "C19" H 8415 1371 50  0000 L CNN
F 1 "3,3nF" H 8350 1225 50  0000 L CNN
F 2 "Capacitors_SMD:C_1206_HandSoldering" H 8338 1175 50  0001 C CNN
F 3 "https://hu.farnell.com/panasonic-electronic-components/echu1h332gx5/cap-3300pf-50v-2-pps-1206-smd/dp/9695303" H 8300 1325 50  0001 C CNN
	1    8300 1325
	1    0    0    -1  
$EndComp
$Comp
L Device:Q_NPN_BEC Q11
U 1 1 5C80A46B
P 8600 1675
F 0 "Q11" H 8791 1721 50  0000 L CNN
F 1 "BC850C" H 8791 1630 50  0000 L CNN
F 2 "TO_SOT_Packages_SMD:SOT-23" H 8800 1775 50  0001 C CNN
F 3 "~" H 8600 1675 50  0001 C CNN
	1    8600 1675
	1    0    0    -1  
$EndComp
$Comp
L Device:R R28
U 1 1 5C80A471
P 8700 2725
F 0 "R28" H 8770 2771 50  0000 L CNN
F 1 "470" H 8770 2680 50  0000 L CNN
F 2 "Resistors_SMD:R_0603_HandSoldering" V 8630 2725 50  0001 C CNN
F 3 "~" H 8700 2725 50  0001 C CNN
	1    8700 2725
	1    0    0    -1  
$EndComp
$Comp
L Device:R R27
U 1 1 5C80A477
P 8700 2225
F 0 "R27" H 8770 2271 50  0000 L CNN
F 1 "470" H 8770 2180 50  0000 L CNN
F 2 "Resistors_SMD:R_0603_HandSoldering" V 8630 2225 50  0001 C CNN
F 3 "~" H 8700 2225 50  0001 C CNN
	1    8700 2225
	1    0    0    -1  
$EndComp
$Comp
L Device:R R25
U 1 1 5C80A47D
P 7900 2225
F 0 "R25" H 7970 2271 50  0000 L CNN
F 1 "51K" H 7970 2180 50  0000 L CNN
F 2 "Resistors_SMD:R_0603_HandSoldering" V 7830 2225 50  0001 C CNN
F 3 "~" H 7900 2225 50  0001 C CNN
	1    7900 2225
	1    0    0    -1  
$EndComp
$Comp
L Device:Q_PNP_BEC Q12
U 1 1 5C80A483
P 8600 3175
F 0 "Q12" H 8791 3129 50  0000 L CNN
F 1 "BC860C" H 8791 3220 50  0000 L CNN
F 2 "TO_SOT_Packages_SMD:SOT-23" H 8800 3275 50  0001 C CNN
F 3 "~" H 8600 3175 50  0001 C CNN
	1    8600 3175
	1    0    0    1   
$EndComp
$Comp
L Device:R R30
U 1 1 5C80A489
P 8900 1975
F 0 "R30" V 8800 1975 50  0000 C CNN
F 1 "2,2K" V 9000 1975 50  0000 C CNN
F 2 "Resistors_SMD:R_0603_HandSoldering" V 8830 1975 50  0001 C CNN
F 3 "~" H 8900 1975 50  0001 C CNN
	1    8900 1975
	0    1    1    0   
$EndComp
$Comp
L Device:R R32
U 1 1 5C80A48F
P 9100 4725
F 0 "R32" H 9170 4771 50  0000 L CNN
F 1 "10K" H 9170 4680 50  0000 L CNN
F 2 "Resistors_SMD:R_0603_HandSoldering" V 9030 4725 50  0001 C CNN
F 3 "~" H 9100 4725 50  0001 C CNN
	1    9100 4725
	1    0    0    -1  
$EndComp
$Comp
L Device:R R29
U 1 1 5C80A495
P 8700 4725
F 0 "R29" H 8770 4771 50  0000 L CNN
F 1 "330" H 8770 4680 50  0000 L CNN
F 2 "Resistors_SMD:R_0603_HandSoldering" V 8630 4725 50  0001 C CNN
F 3 "~" H 8700 4725 50  0001 C CNN
	1    8700 4725
	1    0    0    -1  
$EndComp
$Comp
L Device:CP C20
U 1 1 5C80A49B
P 9500 4725
F 0 "C20" H 9550 4825 50  0000 L CNN
F 1 "22uF/6V" H 9550 4625 50  0000 L CNN
F 2 "Capacitors_Tantalum_SMD:CP_Tantalum_Case-B_EIA-3528-21_Hand" H 9538 4575 50  0001 C CNN
F 3 "~" H 9500 4725 50  0001 C CNN
	1    9500 4725
	1    0    0    -1  
$EndComp
$Comp
L Device:CP C24
U 1 1 5C80A4A1
P 10350 4725
F 0 "C24" H 10468 4771 50  0000 L CNN
F 1 "22uF" H 10468 4680 50  0000 L CNN
F 2 "Capacitors_SMD:CP_Elec_6.3x5.3" H 10388 4575 50  0001 C CNN
F 3 "~" H 10350 4725 50  0001 C CNN
	1    10350 4725
	1    0    0    -1  
$EndComp
$Comp
L Device:R R33
U 1 1 5C80A4A7
P 9350 1075
F 0 "R33" V 9143 1075 50  0000 C CNN
F 1 "4,7K" V 9234 1075 50  0000 C CNN
F 2 "Resistors_SMD:R_1206_HandSoldering" V 9280 1075 50  0001 C CNN
F 3 "~" H 9350 1075 50  0001 C CNN
	1    9350 1075
	0    1    1    0   
$EndComp
$Comp
L Device:R R26
U 1 1 5C80A4AD
P 8650 1075
F 0 "R26" V 8443 1075 50  0000 C CNN
F 1 "22K" V 8534 1075 50  0000 C CNN
F 2 "Resistors_SMD:R_1206_HandSoldering" V 8580 1075 50  0001 C CNN
F 3 "~" H 8650 1075 50  0001 C CNN
	1    8650 1075
	0    1    1    0   
$EndComp
$Comp
L Device:R R35
U 1 1 5C80A4B3
P 10000 2450
F 0 "R35" H 10070 2496 50  0000 L CNN
F 1 "100K" H 10070 2405 50  0000 L CNN
F 2 "Resistors_SMD:R_0603_HandSoldering" V 9930 2450 50  0001 C CNN
F 3 "~" H 10000 2450 50  0001 C CNN
	1    10000 2450
	1    0    0    -1  
$EndComp
$Comp
L Device:CP C15
U 1 1 5C80A4B9
P 7100 1325
F 0 "C15" H 7150 1425 50  0000 L CNN
F 1 "10uF/50V" H 7125 1200 50  0000 L CNN
F 2 "Capacitors_Tantalum_SMD:CP_Tantalum_Case-V_EIA-7343-20_Hand" H 7138 1175 50  0001 C CNN
F 3 "" H 7100 1325 50  0001 C CNN
	1    7100 1325
	1    0    0    -1  
$EndComp
$Comp
L Device:R R31
U 1 1 5C80A4BF
P 9100 3425
F 0 "R31" H 9170 3471 50  0000 L CNN
F 1 "120K" H 9170 3380 50  0000 L CNN
F 2 "Resistors_SMD:R_0603_HandSoldering" V 9030 3425 50  0001 C CNN
F 3 "~" H 9100 3425 50  0001 C CNN
	1    9100 3425
	1    0    0    -1  
$EndComp
$Comp
L power:GNDA #PWR020
U 1 1 5C80A4C5
P 6200 4975
F 0 "#PWR020" H 6200 4725 50  0001 C CNN
F 1 "GNDA" H 6205 4802 50  0000 C CNN
F 2 "" H 6200 4975 50  0001 C CNN
F 3 "" H 6200 4975 50  0001 C CNN
	1    6200 4975
	1    0    0    -1  
$EndComp
$Comp
L power:GNDA #PWR021
U 1 1 5C80A4CB
P 6700 4975
F 0 "#PWR021" H 6700 4725 50  0001 C CNN
F 1 "GNDA" H 6705 4802 50  0000 C CNN
F 2 "" H 6700 4975 50  0001 C CNN
F 3 "" H 6700 4975 50  0001 C CNN
	1    6700 4975
	1    0    0    -1  
$EndComp
$Comp
L power:GNDA #PWR024
U 1 1 5C80A4D1
P 7100 4975
F 0 "#PWR024" H 7100 4725 50  0001 C CNN
F 1 "GNDA" H 7105 4802 50  0000 C CNN
F 2 "" H 7100 4975 50  0001 C CNN
F 3 "" H 7100 4975 50  0001 C CNN
	1    7100 4975
	1    0    0    -1  
$EndComp
$Comp
L power:GNDA #PWR026
U 1 1 5C80A4D7
P 8700 4975
F 0 "#PWR026" H 8700 4725 50  0001 C CNN
F 1 "GNDA" H 8705 4802 50  0000 C CNN
F 2 "" H 8700 4975 50  0001 C CNN
F 3 "" H 8700 4975 50  0001 C CNN
	1    8700 4975
	1    0    0    -1  
$EndComp
$Comp
L power:GNDA #PWR027
U 1 1 5C80A4DD
P 9100 4975
F 0 "#PWR027" H 9100 4725 50  0001 C CNN
F 1 "GNDA" H 9105 4802 50  0000 C CNN
F 2 "" H 9100 4975 50  0001 C CNN
F 3 "" H 9100 4975 50  0001 C CNN
	1    9100 4975
	1    0    0    -1  
$EndComp
$Comp
L power:GNDA #PWR029
U 1 1 5C80A4E3
P 9500 4975
F 0 "#PWR029" H 9500 4725 50  0001 C CNN
F 1 "GNDA" H 9505 4802 50  0000 C CNN
F 2 "" H 9500 4975 50  0001 C CNN
F 3 "" H 9500 4975 50  0001 C CNN
	1    9500 4975
	1    0    0    -1  
$EndComp
$Comp
L power:GNDA #PWR034
U 1 1 5C80A4E9
P 10350 4975
F 0 "#PWR034" H 10350 4725 50  0001 C CNN
F 1 "GNDA" H 10355 4802 50  0000 C CNN
F 2 "" H 10350 4975 50  0001 C CNN
F 3 "" H 10350 4975 50  0001 C CNN
	1    10350 4975
	1    0    0    -1  
$EndComp
$Comp
L power:GNDA #PWR023
U 1 1 5C80A4EF
P 7100 1575
F 0 "#PWR023" H 7100 1325 50  0001 C CNN
F 1 "GNDA" H 7105 1402 50  0000 C CNN
F 2 "" H 7100 1575 50  0001 C CNN
F 3 "" H 7100 1575 50  0001 C CNN
	1    7100 1575
	1    0    0    -1  
$EndComp
$Comp
L power:GNDA #PWR032
U 1 1 5C80A4F5
P 10000 2700
F 0 "#PWR032" H 10000 2450 50  0001 C CNN
F 1 "GNDA" H 10005 2527 50  0000 C CNN
F 2 "" H 10000 2700 50  0001 C CNN
F 3 "" H 10000 2700 50  0001 C CNN
	1    10000 2700
	1    0    0    -1  
$EndComp
Wire Wire Line
	6200 4875 6200 4975
Wire Wire Line
	6300 4475 6200 4475
Wire Wire Line
	6200 4475 6200 4575
Wire Wire Line
	6600 4475 6700 4475
Wire Wire Line
	7100 4375 7100 4475
Connection ~ 7100 4475
Wire Wire Line
	7100 4475 7200 4475
Wire Wire Line
	7100 4475 7100 4575
Wire Wire Line
	7100 4875 7100 4975
Wire Wire Line
	6700 4875 6700 4975
Wire Wire Line
	6700 4475 6700 4575
Connection ~ 6700 4475
Wire Wire Line
	6700 4475 7100 4475
$Comp
L power:GNDA #PWR025
U 1 1 5C80A508
P 7500 4975
F 0 "#PWR025" H 7500 4725 50  0001 C CNN
F 1 "GNDA" H 7505 4802 50  0000 C CNN
F 2 "" H 7500 4975 50  0001 C CNN
F 3 "" H 7500 4975 50  0001 C CNN
	1    7500 4975
	1    0    0    -1  
$EndComp
Wire Wire Line
	7500 4675 7500 4975
Wire Wire Line
	7500 3375 7500 4175
Wire Wire Line
	7500 4175 8400 4175
Connection ~ 7500 4175
Wire Wire Line
	7500 4175 7500 4275
Wire Wire Line
	8700 4375 8700 4575
Wire Wire Line
	8700 4875 8700 4975
Wire Wire Line
	8700 3875 8700 3975
Wire Wire Line
	8700 3375 8700 3425
Wire Wire Line
	9100 3575 9100 3675
Wire Wire Line
	9100 4875 9100 4975
Wire Wire Line
	9000 3675 9100 3675
Connection ~ 9100 3675
Wire Wire Line
	9100 3675 9100 3925
Wire Wire Line
	7100 4075 7100 3925
Wire Wire Line
	7100 3925 9100 3925
Connection ~ 9100 3925
Wire Wire Line
	9100 3925 9100 4575
Wire Wire Line
	9100 3925 9500 3925
Wire Wire Line
	9500 4875 9500 4975
Wire Wire Line
	9500 4575 9500 3925
Wire Wire Line
	7100 1475 7100 1575
Wire Wire Line
	7500 2875 7500 2975
Wire Wire Line
	7500 2375 7500 2475
Wire Wire Line
	7500 1875 7500 1975
Wire Wire Line
	7900 1475 7900 1575
Wire Wire Line
	7900 1875 7900 1975
Wire Wire Line
	8500 1075 8300 1075
Wire Wire Line
	7100 1175 7100 1075
Wire Wire Line
	7500 1575 7500 1075
Connection ~ 7500 1075
Wire Wire Line
	7500 1075 7100 1075
Wire Wire Line
	7500 1975 7900 1975
Connection ~ 7500 1975
Wire Wire Line
	7500 1975 7500 2075
Connection ~ 7900 1975
Wire Wire Line
	7900 1975 7900 2075
Wire Wire Line
	7900 1975 8300 1975
Wire Wire Line
	8300 1975 8300 1675
Wire Wire Line
	8400 1675 8300 1675
Connection ~ 8300 1675
Wire Wire Line
	8300 1675 8300 1475
Wire Wire Line
	7900 1175 7900 1075
Connection ~ 7900 1075
Wire Wire Line
	7900 1075 7500 1075
Wire Wire Line
	8300 1175 8300 1075
Connection ~ 8300 1075
Wire Wire Line
	8300 1075 7900 1075
Wire Wire Line
	8800 1075 9100 1075
Wire Wire Line
	9100 3275 9100 3175
Connection ~ 9100 1075
Wire Wire Line
	9100 1075 9200 1075
Wire Wire Line
	8700 1875 8700 1975
Wire Wire Line
	8700 2375 8700 2475
Wire Wire Line
	7800 3175 8300 3175
Wire Wire Line
	8300 3175 8300 3425
Wire Wire Line
	8300 3425 8700 3425
Connection ~ 8300 3175
Wire Wire Line
	8300 3175 8400 3175
Connection ~ 8700 3425
Wire Wire Line
	8700 3425 8700 3475
Wire Wire Line
	8700 2875 8700 2975
Wire Wire Line
	8700 1475 8700 1375
Wire Wire Line
	8700 1375 9450 1375
Wire Wire Line
	9600 1375 9600 1075
Wire Wire Line
	9600 1075 9500 1075
Connection ~ 9600 1075
Wire Wire Line
	8700 1975 8750 1975
Connection ~ 8700 1975
Wire Wire Line
	8700 1975 8700 2075
Wire Wire Line
	9900 2200 10000 2200
Wire Wire Line
	10000 2200 10000 2300
Wire Wire Line
	10000 2600 10000 2700
Wire Wire Line
	7500 2475 7900 2475
Connection ~ 7500 2475
Wire Wire Line
	7500 2475 7500 2575
Connection ~ 8700 2475
Wire Wire Line
	8700 2475 8700 2575
Wire Wire Line
	7900 2375 7900 2475
Connection ~ 7900 2475
Wire Wire Line
	7900 2475 8700 2475
Wire Wire Line
	10350 4975 10350 4875
Wire Wire Line
	10350 4575 10350 3175
Wire Wire Line
	10350 3175 9100 3175
Connection ~ 9100 3175
Wire Wire Line
	9100 3175 9100 1075
Text GLabel 6100 4475 0    50   Input ~ 0
INR
Text GLabel 10200 2200 2    50   Input ~ 0
OUTR
Wire Wire Line
	6100 4475 6200 4475
Connection ~ 6200 4475
Wire Wire Line
	10000 2200 10200 2200
Connection ~ 10000 2200
Wire Wire Line
	9050 1975 9150 1975
Wire Wire Line
	9450 1775 9450 1375
Connection ~ 9450 1375
Wire Wire Line
	9450 1375 9600 1375
$Comp
L Device:R R34
U 1 1 5C80A56E
P 9450 2400
F 0 "R34" H 9250 2450 50  0000 L CNN
F 1 "4,3K" H 9200 2350 50  0000 L CNN
F 2 "Resistors_SMD:R_0603_HandSoldering" V 9380 2400 50  0001 C CNN
F 3 "~" H 9450 2400 50  0001 C CNN
	1    9450 2400
	1    0    0    -1  
$EndComp
$Comp
L power:GNDA #PWR028
U 1 1 5C80A574
P 9450 2650
F 0 "#PWR028" H 9450 2400 50  0001 C CNN
F 1 "GNDA" H 9455 2477 50  0000 C CNN
F 2 "" H 9450 2650 50  0001 C CNN
F 3 "" H 9450 2650 50  0001 C CNN
	1    9450 2650
	1    0    0    -1  
$EndComp
Wire Wire Line
	9450 2550 9450 2650
Wire Wire Line
	9450 2175 9450 2200
Wire Wire Line
	9450 2200 9600 2200
Connection ~ 9450 2200
Wire Wire Line
	9450 2200 9450 2250
Wire Wire Line
	9700 1075 9600 1075
$Comp
L Device:Q_NPN_BCEC Q16
U 1 1 5C80A580
P 9900 1175
F 0 "Q16" V 9875 950 50  0000 C CNN
F 1 "2STN1360" V 9775 950 50  0000 C CNN
F 2 "TO_SOT_Packages_SMD:SOT-223" H 10100 1275 50  0001 C CNN
F 3 "~" H 9900 1175 50  0001 C CNN
	1    9900 1175
	0    1    -1   0   
$EndComp
$Comp
L power:GNDA #PWR030
U 1 1 5C80A58C
P 9900 1850
F 0 "#PWR030" H 9900 1600 50  0001 C CNN
F 1 "GNDA" H 10000 1700 50  0000 C CNN
F 2 "" H 9900 1850 50  0001 C CNN
F 3 "" H 9900 1850 50  0001 C CNN
	1    9900 1850
	1    0    0    -1  
$EndComp
$Comp
L Device:R R36
U 1 1 5C80A592
P 10175 1275
F 0 "R36" H 10245 1321 50  0000 L CNN
F 1 "47" H 10245 1230 50  0000 L CNN
F 2 "Resistors_SMD:R_1206_HandSoldering" V 10105 1275 50  0001 C CNN
F 3 "~" H 10175 1275 50  0001 C CNN
	1    10175 1275
	1    0    0    -1  
$EndComp
Wire Wire Line
	9900 1375 9900 1425
Wire Wire Line
	9900 1775 9900 1850
Wire Wire Line
	10175 1425 9900 1425
Connection ~ 9900 1425
Wire Wire Line
	9900 1425 9900 1475
$Comp
L power:VCC #PWR033
U 1 1 5C80A59D
P 10175 800
F 0 "#PWR033" H 10175 650 50  0001 C CNN
F 1 "VCC" H 10192 973 50  0000 C CNN
F 2 "" H 10175 800 50  0001 C CNN
F 3 "" H 10175 800 50  0001 C CNN
	1    10175 800 
	1    0    0    -1  
$EndComp
$Comp
L Device:D_Schottky D2
U 1 1 5C80A5A3
P 9900 850
F 0 "D2" H 9900 634 50  0000 C CNN
F 1 "SS26" H 9900 725 50  0000 C CNN
F 2 "Diodes_SMD:D_SMB_Handsoldering" H 9900 850 50  0001 C CNN
F 3 "~" H 9900 850 50  0001 C CNN
	1    9900 850 
	-1   0    0    1   
$EndComp
Wire Wire Line
	10175 800  10175 850 
Wire Wire Line
	10100 1075 10175 1075
Connection ~ 10175 1075
Wire Wire Line
	10175 1075 10175 1125
Wire Wire Line
	10100 975  10175 975 
Connection ~ 10175 975 
Wire Wire Line
	10175 975  10175 1075
Wire Wire Line
	10050 850  10175 850 
Connection ~ 10175 850 
Wire Wire Line
	10175 850  10175 975 
Wire Wire Line
	9700 1075 9700 850 
Wire Wire Line
	9700 850  9750 850 
Connection ~ 9700 1075
$Comp
L Device:C C14
U 1 1 5C80A5B6
P 6775 1325
F 0 "C14" H 6825 1425 50  0000 L CNN
F 1 "68nF" H 6550 1225 50  0000 L CNN
F 2 "Capacitors_SMD:C_1812_HandSoldering" H 6813 1175 50  0001 C CNN
F 3 "https://hu.farnell.com/panasonic-electronic-components/echu1h683jx9/cap-0-068-f-50v-5-pps-1913/dp/1855057" H 6775 1325 50  0001 C CNN
	1    6775 1325
	1    0    0    -1  
$EndComp
$Comp
L power:GNDA #PWR022
U 1 1 5C80A5BC
P 6775 1575
F 0 "#PWR022" H 6775 1325 50  0001 C CNN
F 1 "GNDA" H 6780 1402 50  0000 C CNN
F 2 "" H 6775 1575 50  0001 C CNN
F 3 "" H 6775 1575 50  0001 C CNN
	1    6775 1575
	1    0    0    -1  
$EndComp
Wire Wire Line
	6775 1475 6775 1575
Wire Wire Line
	6775 1175 6775 1075
$Comp
L power:GNDA #PWR031
U 1 1 5C80A5C4
P 9950 4975
F 0 "#PWR031" H 9950 4725 50  0001 C CNN
F 1 "GNDA" H 9955 4802 50  0000 C CNN
F 2 "" H 9950 4975 50  0001 C CNN
F 3 "" H 9950 4975 50  0001 C CNN
	1    9950 4975
	1    0    0    -1  
$EndComp
Wire Wire Line
	9950 4875 9950 4975
Wire Wire Line
	6775 1075 7100 1075
Connection ~ 7100 1075
Wire Wire Line
	9500 3925 9950 3925
Wire Wire Line
	9950 3925 9950 4575
Connection ~ 9500 3925
$Comp
L Device:CP C13
U 1 1 5C80A5D0
P 6450 4475
F 0 "C13" H 6500 4575 50  0000 L CNN
F 1 "10uF/6V" H 6475 4350 50  0000 L CNN
F 2 "Capacitors_Tantalum_SMD:CP_Tantalum_Case-B_EIA-3528-21_Hand" H 6488 4325 50  0001 C CNN
F 3 "" H 6450 4475 50  0001 C CNN
	1    6450 4475
	0    -1   -1   0   
$EndComp
$Comp
L Device:CP C21
U 1 1 5C80A5D6
P 9750 2200
F 0 "C21" H 9800 2300 50  0000 L CNN
F 1 "10uF/35V" H 9775 2075 50  0000 L CNN
F 2 "Capacitors_Tantalum_SMD:CP_Tantalum_Case-D_EIA-7343-31_Hand" H 9788 2050 50  0001 C CNN
F 3 "" H 9750 2200 50  0001 C CNN
	1    9750 2200
	0    1    1    0   
$EndComp
$Comp
L Device:C C23
U 1 1 5C80A5DC
P 9950 4725
F 0 "C23" H 10000 4825 50  0000 L CNN
F 1 "68nF" H 10025 4625 50  0000 L CNN
F 2 "Capacitors_SMD:C_1812_HandSoldering" H 9988 4575 50  0001 C CNN
F 3 "https://hu.farnell.com/panasonic-electronic-components/echu1h683jx9/cap-0-068-f-50v-5-pps-1913/dp/1855057" H 9950 4725 50  0001 C CNN
	1    9950 4725
	1    0    0    -1  
$EndComp
$Comp
L Device:Q_PNP_BEC Q10
U 1 1 5C80A5E2
P 7600 3175
F 0 "Q10" H 7791 3129 50  0000 L CNN
F 1 "BC860C" H 7791 3220 50  0000 L CNN
F 2 "TO_SOT_Packages_SMD:SOT-23" H 7800 3275 50  0001 C CNN
F 3 "~" H 7600 3175 50  0001 C CNN
	1    7600 3175
	-1   0    0    1   
$EndComp
$Comp
L Device:Q_PNP_BEC Q9
U 1 1 5C80A5E8
P 7400 4475
F 0 "Q9" H 7591 4429 50  0000 L CNN
F 1 "BC860C" H 7591 4520 50  0000 L CNN
F 2 "TO_SOT_Packages_SMD:SOT-23" H 7600 4575 50  0001 C CNN
F 3 "~" H 7400 4475 50  0001 C CNN
	1    7400 4475
	1    0    0    1   
$EndComp
$Comp
L Device:Q_NPN_BEC Q14
U 1 1 5C80A5EE
P 8800 3675
F 0 "Q14" H 8991 3721 50  0000 L CNN
F 1 "BC850C" H 8991 3630 50  0000 L CNN
F 2 "TO_SOT_Packages_SMD:SOT-23" H 9000 3775 50  0001 C CNN
F 3 "~" H 8800 3675 50  0001 C CNN
	1    8800 3675
	-1   0    0    -1  
$EndComp
$Comp
L Device:Q_NPN_BEC Q13
U 1 1 5C80A5F4
P 8600 4175
F 0 "Q13" H 8791 4221 50  0000 L CNN
F 1 "BC850C" H 8791 4130 50  0000 L CNN
F 2 "TO_SOT_Packages_SMD:SOT-23" H 8800 4275 50  0001 C CNN
F 3 "~" H 8600 4175 50  0001 C CNN
	1    8600 4175
	1    0    0    -1  
$EndComp
$Comp
L Device:Q_NPN_BEC Q15
U 1 1 5C80A5FA
P 9350 1975
F 0 "Q15" H 9541 2021 50  0000 L CNN
F 1 "BC850C" H 9541 1930 50  0000 L CNN
F 2 "TO_SOT_Packages_SMD:SOT-23" H 9550 2075 50  0001 C CNN
F 3 "~" H 9350 1975 50  0001 C CNN
	1    9350 1975
	1    0    0    -1  
$EndComp
$Comp
L Device:CP C22
U 1 1 5C71A3BE
P 9900 1625
F 0 "C22" H 9675 1725 50  0000 L CNN
F 1 "1000uF/50V" H 9625 1500 50  0000 L CNN
F 2 "suf_capacitor:CAP-SMD-SIZE-J16" H 9938 1475 50  0001 C CNN
F 3 "https://hu.farnell.com/panasonic-electronic-components/eevfk1h102m/cap-1000-f-50v-radial-smd/dp/9695982" H 9900 1625 50  0001 C CNN
	1    9900 1625
	1    0    0    -1  
$EndComp
$Comp
L power:PWR_FLAG #FLG0101
U 1 1 5C72691D
P 4175 6950
F 0 "#FLG0101" H 4175 7025 50  0001 C CNN
F 1 "PWR_FLAG" H 4175 7124 50  0000 C CNN
F 2 "" H 4175 6950 50  0001 C CNN
F 3 "~" H 4175 6950 50  0001 C CNN
	1    4175 6950
	1    0    0    -1  
$EndComp
Connection ~ 4175 6950
Wire Wire Line
	4175 6950 3950 6950
$Comp
L power:PWR_FLAG #FLG0102
U 1 1 5C7269E3
P 4175 7050
F 0 "#FLG0102" H 4175 7125 50  0001 C CNN
F 1 "PWR_FLAG" H 4175 7223 50  0000 C CNN
F 2 "" H 4175 7050 50  0001 C CNN
F 3 "~" H 4175 7050 50  0001 C CNN
	1    4175 7050
	-1   0    0    1   
$EndComp
Connection ~ 4175 7050
Wire Wire Line
	4175 7050 3700 7050
$EndSCHEMATC
