EESchema Schematic File Version 4
LIBS:Regulator-cache
EELAYER 29 0
EELAYER END
$Descr A4 11693 8268
encoding utf-8
Sheet 1 1
Title ""
Date ""
Rev ""
Comp ""
Comment1 ""
Comment2 ""
Comment3 ""
Comment4 ""
$EndDescr
$Comp
L Device:CP C1
U 1 1 5C6064BF
P 3200 1100
F 0 "C1" H 3318 1146 50  0000 L CNN
F 1 "1000uF/35V" H 3318 1055 50  0000 L CNN
F 2 "suf_capacitor:CAP-SMD-SIZE-J16" H 3238 950 50  0001 C CNN
F 3 "~" H 3200 1100 50  0001 C CNN
	1    3200 1100
	1    0    0    -1  
$EndComp
$Comp
L regul:LM317_3PinPackage U2
U 1 1 5C6065FD
P 3875 800
F 0 "U2" H 3725 925 50  0000 C CNN
F 1 "LM317" H 4025 925 50  0000 C CNN
F 2 "TO_SOT_Packages_SMD:SOT-223" H 3875 1050 50  0001 C CIN
F 3 "http://www.ti.com/lit/ds/symlink/lm317.pdf" H 3875 800 50  0001 C CNN
	1    3875 800 
	1    0    0    -1  
$EndComp
$Comp
L Device:R R2
U 1 1 5C606919
P 4300 975
F 0 "R2" H 4370 1021 50  0000 L CNN
F 1 "1K" H 4370 930 50  0000 L CNN
F 2 "Resistors_SMD:R_0603_HandSoldering" V 4230 975 50  0001 C CNN
F 3 "~" H 4300 975 50  0001 C CNN
	1    4300 975 
	1    0    0    -1  
$EndComp
$Comp
L Device:R R1
U 1 1 5C606993
P 3875 1325
F 0 "R1" H 3945 1371 50  0000 L CNN
F 1 "820" H 3945 1280 50  0000 L CNN
F 2 "Resistors_SMD:R_0603_HandSoldering" V 3805 1325 50  0001 C CNN
F 3 "~" H 3875 1325 50  0001 C CNN
	1    3875 1325
	1    0    0    -1  
$EndComp
$Comp
L Device:CP C3
U 1 1 5C606A31
P 4675 1100
F 0 "C3" H 4793 1146 50  0000 L CNN
F 1 "100uF/25V" H 4700 1000 50  0000 L CNN
F 2 "Capacitors_SMD:CP_Elec_8x10.5" H 4713 950 50  0001 C CNN
F 3 "~" H 4675 1100 50  0001 C CNN
	1    4675 1100
	1    0    0    -1  
$EndComp
$Comp
L power:GND #PWR01
U 1 1 5C607114
P 3200 1350
F 0 "#PWR01" H 3200 1100 50  0001 C CNN
F 1 "GND" H 3205 1177 50  0000 C CNN
F 2 "" H 3200 1350 50  0001 C CNN
F 3 "" H 3200 1350 50  0001 C CNN
	1    3200 1350
	1    0    0    -1  
$EndComp
$Comp
L power:GND #PWR03
U 1 1 5C60714A
P 4675 1350
F 0 "#PWR03" H 4675 1100 50  0001 C CNN
F 1 "GND" H 4680 1177 50  0000 C CNN
F 2 "" H 4675 1350 50  0001 C CNN
F 3 "" H 4675 1350 50  0001 C CNN
	1    4675 1350
	1    0    0    -1  
$EndComp
$Comp
L power:VCC #PWR02
U 1 1 5C607195
P 3575 1500
F 0 "#PWR02" H 3575 1350 50  0001 C CNN
F 1 "VCC" H 3592 1673 50  0000 C CNN
F 2 "" H 3575 1500 50  0001 C CNN
F 3 "" H 3575 1500 50  0001 C CNN
	1    3575 1500
	1    0    0    -1  
$EndComp
Wire Wire Line
	3200 800  3200 950 
Wire Wire Line
	3200 800  3575 800 
Wire Wire Line
	3200 1250 3200 1350
Wire Wire Line
	3875 1100 3875 1150
Wire Wire Line
	3875 1475 3875 1575
Wire Wire Line
	3875 1575 4300 1575
Wire Wire Line
	4300 1575 4300 1500
Wire Wire Line
	4175 800  4300 800 
Wire Wire Line
	4675 800  4675 950 
Wire Wire Line
	4675 1250 4675 1350
Wire Wire Line
	3875 1150 4300 1150
Wire Wire Line
	4300 1150 4300 1125
Connection ~ 3875 1150
Wire Wire Line
	3875 1150 3875 1175
Wire Wire Line
	4300 825  4300 800 
Connection ~ 4300 800 
Wire Wire Line
	4300 800  4675 800 
$Comp
L Device:C C2
U 1 1 5C6095FA
P 4300 1350
F 0 "C2" H 4415 1396 50  0000 L CNN
F 1 "10uF/10V" H 4100 1075 50  0000 L CNN
F 2 "Capacitors_SMD:C_0603_HandSoldering" H 4338 1200 50  0001 C CNN
F 3 "~" H 4300 1350 50  0001 C CNN
	1    4300 1350
	1    0    0    -1  
$EndComp
Wire Wire Line
	3575 1500 3575 1575
Wire Wire Line
	3575 1575 3875 1575
Connection ~ 3875 1575
Wire Wire Line
	4300 1150 4300 1200
Connection ~ 4300 1150
$Comp
L Amplifier_Operational:LM741 U3
U 1 1 5C60C79C
P 6775 2000
F 0 "U3" H 6600 2275 50  0000 C CNN
F 1 "NE5534" H 6975 2150 50  0000 C CNN
F 2 "Housings_SOIC:SOIC-8_3.9x4.9mm_Pitch1.27mm" H 6825 2050 50  0001 C CNN
F 3 "http://www.ti.com/lit/ds/symlink/lm741.pdf" H 6925 2150 50  0001 C CNN
	1    6775 2000
	-1   0    0    -1  
$EndComp
$Comp
L Device:Q_NPN_BCE Q6
U 1 1 5C60C86C
P 6025 900
F 0 "Q6" V 6353 900 50  0000 C CNN
F 1 "D44H11" V 6262 900 50  0000 C CNN
F 2 "TO_SOT_Packages_THT:TO-220-3_Vertical" H 6225 1000 50  0001 C CNN
F 3 "~" H 6025 900 50  0001 C CNN
	1    6025 900 
	0    -1   -1   0   
$EndComp
$Comp
L Device:Q_PNP_EBC Q5
U 1 1 5C60D9E4
P 5475 1400
F 0 "Q5" H 5666 1354 50  0000 L CNN
F 1 "MMBT5087" H 5625 1500 50  0000 L CNN
F 2 "TO_SOT_Packages_SMD:SOT-23" H 5675 1500 50  0001 C CNN
F 3 "~" H 5475 1400 50  0001 C CNN
	1    5475 1400
	1    0    0    1   
$EndComp
$Comp
L Device:LED D1
U 1 1 5C60DA6B
P 5175 1000
F 0 "D1" V 5213 883 50  0000 R CNN
F 1 "2V GREEN" V 5450 1175 50  0000 R CNN
F 2 "LEDs:LED_0603_HandSoldering" H 5175 1000 50  0001 C CNN
F 3 "~" H 5175 1000 50  0001 C CNN
	1    5175 1000
	0    -1   -1   0   
$EndComp
$Comp
L Device:R R3
U 1 1 5C60DAC4
P 5175 1600
F 0 "R3" H 5245 1646 50  0000 L CNN
F 1 "4,7K" H 5245 1555 50  0000 L CNN
F 2 "Resistors_SMD:R_0603_HandSoldering" V 5105 1600 50  0001 C CNN
F 3 "~" H 5175 1600 50  0001 C CNN
	1    5175 1600
	1    0    0    -1  
$EndComp
$Comp
L power:GND #PWR04
U 1 1 5C60DC9F
P 5175 1800
F 0 "#PWR04" H 5175 1550 50  0001 C CNN
F 1 "GND" H 5180 1627 50  0000 C CNN
F 2 "" H 5175 1800 50  0001 C CNN
F 3 "" H 5175 1800 50  0001 C CNN
	1    5175 1800
	1    0    0    -1  
$EndComp
$Comp
L Device:R R4
U 1 1 5C60DDB4
P 5575 1000
F 0 "R4" H 5645 1046 50  0000 L CNN
F 1 "220" H 5645 955 50  0000 L CNN
F 2 "Resistors_SMD:R_0603_HandSoldering" V 5505 1000 50  0001 C CNN
F 3 "~" H 5575 1000 50  0001 C CNN
	1    5575 1000
	1    0    0    -1  
$EndComp
Wire Wire Line
	4675 800  5175 800 
Connection ~ 4675 800 
Wire Wire Line
	5175 800  5175 850 
Connection ~ 5175 800 
Wire Wire Line
	5175 800  5575 800 
Wire Wire Line
	5175 1150 5175 1400
Wire Wire Line
	5175 1750 5175 1800
Wire Wire Line
	5575 800  5575 850 
Connection ~ 5575 800 
Wire Wire Line
	5575 800  5825 800 
Wire Wire Line
	5575 1150 5575 1200
Wire Wire Line
	5275 1400 5175 1400
Connection ~ 5175 1400
Wire Wire Line
	5175 1400 5175 1450
Wire Wire Line
	5575 1600 5575 1650
Wire Wire Line
	5575 1650 6025 1650
Wire Wire Line
	6025 1650 6025 1100
$Comp
L Device:R R5
U 1 1 5C61293C
P 6250 2000
F 0 "R5" V 6350 1900 50  0000 C CNN
F 1 "10" V 6350 2075 50  0000 C CNN
F 2 "Resistors_SMD:R_0603_HandSoldering" V 6180 2000 50  0001 C CNN
F 3 "~" H 6250 2000 50  0001 C CNN
	1    6250 2000
	0    1    1    0   
$EndComp
$Comp
L Device:D_Zener D2
U 1 1 5C612D6E
P 5575 1850
F 0 "D2" V 5529 1929 50  0000 L CNN
F 1 "BZT52C6V8V-GS08" V 5800 1500 50  0000 L CNN
F 2 "Diodes_SMD:D_SOD-123" H 5575 1850 50  0001 C CNN
F 3 "~" H 5575 1850 50  0001 C CNN
	1    5575 1850
	0    1    1    0   
$EndComp
$Comp
L Device:CP C4
U 1 1 5C612E7C
P 6025 1850
F 0 "C4" H 5900 1750 50  0000 L CNN
F 1 "100uF/10V" H 6050 1950 50  0000 L CNN
F 2 "Capacitors_SMD:CP_Elec_8x10.5" H 6063 1700 50  0001 C CNN
F 3 "~" H 6025 1850 50  0001 C CNN
	1    6025 1850
	1    0    0    -1  
$EndComp
NoConn ~ 6675 2300
NoConn ~ 6775 2300
$Comp
L Device:D_Small D3
U 1 1 5C615A55
P 7225 2000
F 0 "D3" V 7175 1875 50  0000 L CNN
F 1 "1N4148" V 7400 1775 50  0000 L CNN
F 2 "Diodes_SMD:D_SOD-123" V 7225 2000 50  0001 C CNN
F 3 "~" V 7225 2000 50  0001 C CNN
	1    7225 2000
	0    1    1    0   
$EndComp
$Comp
L Device:D_Small D4
U 1 1 5C616599
P 7350 2000
F 0 "D4" V 7300 1975 50  0000 R CNN
F 1 "1N4148" V 7525 2175 50  0000 R CNN
F 2 "Diodes_SMD:D_SOD-123" V 7350 2000 50  0001 C CNN
F 3 "~" V 7350 2000 50  0001 C CNN
	1    7350 2000
	0    -1   -1   0   
$EndComp
Wire Wire Line
	7075 1900 7225 1900
Connection ~ 7225 1900
Wire Wire Line
	7225 1900 7350 1900
Wire Wire Line
	7075 2100 7225 2100
Connection ~ 7225 2100
Wire Wire Line
	7225 2100 7350 2100
Wire Wire Line
	6025 1650 6025 1700
Connection ~ 6025 1650
Wire Wire Line
	5575 1650 5575 1700
Connection ~ 5575 1650
Wire Wire Line
	5575 2000 6025 2000
Connection ~ 6025 2000
Wire Wire Line
	6025 2000 6100 2000
Wire Wire Line
	6400 2000 6475 2000
$Comp
L power:GND #PWR06
U 1 1 5C622637
P 6875 2375
F 0 "#PWR06" H 6875 2125 50  0001 C CNN
F 1 "GND" H 6880 2202 50  0000 C CNN
F 2 "" H 6875 2375 50  0001 C CNN
F 3 "" H 6875 2375 50  0001 C CNN
	1    6875 2375
	1    0    0    -1  
$EndComp
$Comp
L power:VCC #PWR05
U 1 1 5C622684
P 6875 1625
F 0 "#PWR05" H 6875 1475 50  0001 C CNN
F 1 "VCC" H 6892 1798 50  0000 C CNN
F 2 "" H 6875 1625 50  0001 C CNN
F 3 "" H 6875 1625 50  0001 C CNN
	1    6875 1625
	1    0    0    -1  
$EndComp
$Comp
L suf_regulator:LM329 D5
U 1 1 5C623760
P 8225 2350
F 0 "D5" V 8179 2429 50  0000 L CNN
F 1 "MMBZ5234B" V 8270 2429 50  0000 L CNN
F 2 "TO_SOT_Packages_THT:TO-92_Molded_Narrow" H 8225 2350 50  0001 C CNN
F 3 "~" H 8225 2350 50  0001 C CNN
	1    8225 2350
	0    1    1    0   
$EndComp
$Comp
L Device:R R9
U 1 1 5C62382B
P 8225 1050
F 0 "R9" H 8295 1096 50  0000 L CNN
F 1 "1,8K" H 8295 1005 50  0000 L CNN
F 2 "Resistors_SMD:R_0603_HandSoldering" V 8155 1050 50  0001 C CNN
F 3 "~" H 8225 1050 50  0001 C CNN
	1    8225 1050
	1    0    0    -1  
$EndComp
$Comp
L Device:R R7
U 1 1 5C6238E5
P 7475 2350
F 0 "R7" H 7300 2400 50  0000 L CNN
F 1 "680" H 7275 2300 50  0000 L CNN
F 2 "Resistors_SMD:R_0603_HandSoldering" V 7405 2350 50  0001 C CNN
F 3 "~" H 7475 2350 50  0001 C CNN
	1    7475 2350
	1    0    0    -1  
$EndComp
$Comp
L Device:R R8
U 1 1 5C6239D9
P 7975 1550
F 0 "R8" V 7768 1550 50  0000 C CNN
F 1 "470" V 7859 1550 50  0000 C CNN
F 2 "Resistors_SMD:R_0603_HandSoldering" V 7905 1550 50  0001 C CNN
F 3 "~" H 7975 1550 50  0001 C CNN
	1    7975 1550
	0    1    1    0   
$EndComp
$Comp
L Device:R R6
U 1 1 5C623AA4
P 7475 1050
F 0 "R6" H 7545 1096 50  0000 L CNN
F 1 "820" H 7545 1005 50  0000 L CNN
F 2 "Resistors_SMD:R_0603_HandSoldering" V 7405 1050 50  0001 C CNN
F 3 "~" H 7475 1050 50  0001 C CNN
	1    7475 1050
	1    0    0    -1  
$EndComp
$Comp
L Device:CP C5
U 1 1 5C623B5A
P 7200 1050
F 0 "C5" H 7250 1150 50  0000 L CNN
F 1 "100uF/25V" H 6725 950 50  0000 L CNN
F 2 "Capacitors_SMD:CP_Elec_8x10.5" H 7238 900 50  0001 C CNN
F 3 "~" H 7200 1050 50  0001 C CNN
	1    7200 1050
	1    0    0    -1  
$EndComp
$Comp
L Device:CP C6
U 1 1 5C623C88
P 7750 2350
F 0 "C6" H 7868 2396 50  0000 L CNN
F 1 "100uF/10V" H 7775 2225 50  0000 L CNN
F 2 "Capacitors_SMD:CP_Elec_6.3x5.3" H 7788 2200 50  0001 C CNN
F 3 "~" H 7750 2350 50  0001 C CNN
	1    7750 2350
	1    0    0    -1  
$EndComp
$Comp
L power:GND #PWR07
U 1 1 5C6247A3
P 7475 2575
F 0 "#PWR07" H 7475 2325 50  0001 C CNN
F 1 "GND" H 7480 2402 50  0000 C CNN
F 2 "" H 7475 2575 50  0001 C CNN
F 3 "" H 7475 2575 50  0001 C CNN
	1    7475 2575
	1    0    0    -1  
$EndComp
Wire Wire Line
	6875 1625 6875 1700
Wire Wire Line
	6875 2300 6875 2375
Wire Wire Line
	6225 800  7200 800 
Wire Wire Line
	7475 800  7475 900 
Wire Wire Line
	7200 800  7200 900 
Connection ~ 7200 800 
Wire Wire Line
	7200 800  7475 800 
Wire Wire Line
	7200 1200 7200 1275
Wire Wire Line
	7200 1275 7475 1275
Wire Wire Line
	7475 1275 7475 1200
Connection ~ 7475 1275
Wire Wire Line
	7475 2500 7475 2575
Wire Wire Line
	7750 2200 7750 1900
Wire Wire Line
	7475 800  8225 800 
Wire Wire Line
	8225 800  8225 900 
Connection ~ 7475 800 
$Comp
L power:VCC #PWR09
U 1 1 5C633042
P 8225 800
F 0 "#PWR09" H 8225 650 50  0001 C CNN
F 1 "VCC" H 8242 973 50  0000 C CNN
F 2 "" H 8225 800 50  0001 C CNN
F 3 "" H 8225 800 50  0001 C CNN
	1    8225 800 
	1    0    0    -1  
$EndComp
Connection ~ 8225 800 
$Comp
L power:GND #PWR08
U 1 1 5C6346D8
P 7750 2575
F 0 "#PWR08" H 7750 2325 50  0001 C CNN
F 1 "GND" H 7755 2402 50  0000 C CNN
F 2 "" H 7750 2575 50  0001 C CNN
F 3 "" H 7750 2575 50  0001 C CNN
	1    7750 2575
	1    0    0    -1  
$EndComp
$Comp
L power:GND #PWR010
U 1 1 5C634734
P 8225 2575
F 0 "#PWR010" H 8225 2325 50  0001 C CNN
F 1 "GND" H 8230 2402 50  0000 C CNN
F 2 "" H 8225 2575 50  0001 C CNN
F 3 "" H 8225 2575 50  0001 C CNN
	1    8225 2575
	1    0    0    -1  
$EndComp
$Comp
L Device:CP C7
U 1 1 5C634790
P 8625 1050
F 0 "C7" H 8743 1096 50  0000 L CNN
F 1 "100uF/25V" H 8743 1005 50  0000 L CNN
F 2 "Capacitors_SMD:CP_Elec_8x10.5" H 8663 900 50  0001 C CNN
F 3 "~" H 8625 1050 50  0001 C CNN
	1    8625 1050
	1    0    0    -1  
$EndComp
$Comp
L power:GND #PWR011
U 1 1 5C635170
P 8625 1275
F 0 "#PWR011" H 8625 1025 50  0001 C CNN
F 1 "GND" H 8630 1102 50  0000 C CNN
F 2 "" H 8625 1275 50  0001 C CNN
F 3 "" H 8625 1275 50  0001 C CNN
	1    8625 1275
	1    0    0    -1  
$EndComp
Wire Wire Line
	8225 800  8625 800 
Wire Wire Line
	8625 800  8625 900 
Wire Wire Line
	8625 1200 8625 1275
Wire Wire Line
	8225 2500 8225 2575
Wire Wire Line
	7750 2500 7750 2575
Wire Wire Line
	7475 1275 7475 2100
Wire Wire Line
	7350 2100 7475 2100
Connection ~ 7350 2100
Connection ~ 7475 2100
Wire Wire Line
	7475 2100 7475 2200
Wire Wire Line
	7350 1900 7750 1900
Connection ~ 7350 1900
Connection ~ 7750 1900
$Comp
L suf_regulator:LM329 D6
U 1 1 5CB9FFE9
P 8225 1900
F 0 "D6" V 8179 1979 50  0000 L CNN
F 1 "MMBZ5234B" V 8325 1400 50  0000 L CNN
F 2 "TO_SOT_Packages_THT:TO-92_Molded_Narrow" H 8225 1900 50  0001 C CNN
F 3 "~" H 8225 1900 50  0001 C CNN
	1    8225 1900
	0    -1   -1   0   
$EndComp
Wire Wire Line
	8125 1550 8225 1550
Connection ~ 8225 1550
Wire Wire Line
	8225 1550 8225 1200
Wire Wire Line
	7750 1900 7750 1550
Wire Wire Line
	7750 1550 7825 1550
Wire Wire Line
	8225 1550 8225 1750
Wire Wire Line
	8225 2050 8225 2200
$Comp
L Device:CP C8
U 1 1 5CBA73F6
P 3200 5125
F 0 "C8" H 3318 5171 50  0000 L CNN
F 1 "1000uF/35V" H 3318 5080 50  0000 L CNN
F 2 "suf_capacitor:CAP-SMD-SIZE-J16" H 3238 4975 50  0001 C CNN
F 3 "~" H 3200 5125 50  0001 C CNN
	1    3200 5125
	-1   0    0    -1  
$EndComp
$Comp
L Device:R R11
U 1 1 5CBA7402
P 4300 5250
F 0 "R11" H 4370 5296 50  0000 L CNN
F 1 "1K" H 4370 5205 50  0000 L CNN
F 2 "Resistors_SMD:R_0603_HandSoldering" V 4230 5250 50  0001 C CNN
F 3 "~" H 4300 5250 50  0001 C CNN
	1    4300 5250
	1    0    0    1   
$EndComp
$Comp
L Device:R R10
U 1 1 5CBA7408
P 3875 4900
F 0 "R10" H 3945 4946 50  0000 L CNN
F 1 "820" H 3945 4855 50  0000 L CNN
F 2 "Resistors_SMD:R_0603_HandSoldering" V 3805 4900 50  0001 C CNN
F 3 "~" H 3875 4900 50  0001 C CNN
	1    3875 4900
	1    0    0    1   
$EndComp
$Comp
L Device:CP C10
U 1 1 5CBA740E
P 4675 5125
F 0 "C10" H 4793 5171 50  0000 L CNN
F 1 "100uF/50V" H 4250 5025 50  0000 L CNN
F 2 "Capacitors_SMD:CP_Elec_8x10.5" H 4713 4975 50  0001 C CNN
F 3 "~" H 4675 5125 50  0001 C CNN
	1    4675 5125
	-1   0    0    -1  
$EndComp
$Comp
L power:GND #PWR012
U 1 1 5CBA7414
P 3200 4875
F 0 "#PWR012" H 3200 4625 50  0001 C CNN
F 1 "GND" H 3205 4702 50  0000 C CNN
F 2 "" H 3200 4875 50  0001 C CNN
F 3 "" H 3200 4875 50  0001 C CNN
	1    3200 4875
	1    0    0    1   
$EndComp
$Comp
L power:GND #PWR014
U 1 1 5CBA741A
P 4675 4875
F 0 "#PWR014" H 4675 4625 50  0001 C CNN
F 1 "GND" H 4680 4702 50  0000 C CNN
F 2 "" H 4675 4875 50  0001 C CNN
F 3 "" H 4675 4875 50  0001 C CNN
	1    4675 4875
	1    0    0    1   
$EndComp
$Comp
L power:VDD #PWR013
U 1 1 5CBA7420
P 3575 4725
F 0 "#PWR013" H 3575 4575 50  0001 C CNN
F 1 "VDD" H 3592 4898 50  0000 C CNN
F 2 "" H 3575 4725 50  0001 C CNN
F 3 "" H 3575 4725 50  0001 C CNN
	1    3575 4725
	1    0    0    1   
$EndComp
Wire Wire Line
	3200 5425 3200 5275
Wire Wire Line
	3200 5425 3575 5425
Wire Wire Line
	3200 4975 3200 4875
Wire Wire Line
	3875 5125 3875 5075
Wire Wire Line
	3875 4750 3875 4650
Wire Wire Line
	3875 4650 4300 4650
Wire Wire Line
	4300 4650 4300 4725
Wire Wire Line
	4175 5425 4300 5425
Wire Wire Line
	4675 5425 4675 5275
Wire Wire Line
	4675 4975 4675 4875
Wire Wire Line
	3875 5075 4300 5075
Wire Wire Line
	4300 5075 4300 5100
Connection ~ 3875 5075
Wire Wire Line
	3875 5075 3875 5050
Wire Wire Line
	4300 5400 4300 5425
Connection ~ 4300 5425
Wire Wire Line
	4300 5425 4675 5425
$Comp
L Device:C C9
U 1 1 5CBA7437
P 4300 4875
F 0 "C9" H 4415 4921 50  0000 L CNN
F 1 "10uF/10V" H 4100 4600 50  0000 L CNN
F 2 "Capacitors_SMD:C_0603_HandSoldering" H 4338 4725 50  0001 C CNN
F 3 "~" H 4300 4875 50  0001 C CNN
	1    4300 4875
	1    0    0    1   
$EndComp
Wire Wire Line
	3575 4725 3575 4650
Wire Wire Line
	3575 4650 3875 4650
Connection ~ 3875 4650
Wire Wire Line
	4300 5075 4300 5025
Connection ~ 4300 5075
$Comp
L Amplifier_Operational:LM741 U4
U 1 1 5CBA7442
P 6775 4225
F 0 "U4" H 6600 4500 50  0000 C CNN
F 1 "NE5534" H 6975 4375 50  0000 C CNN
F 2 "Housings_SOIC:SOIC-8_3.9x4.9mm_Pitch1.27mm" H 6825 4275 50  0001 C CNN
F 3 "http://www.ti.com/lit/ds/symlink/lm741.pdf" H 6925 4375 50  0001 C CNN
	1    6775 4225
	-1   0    0    -1  
$EndComp
$Comp
L Device:LED D7
U 1 1 5CBA7454
P 5175 5225
F 0 "D7" V 5275 5200 50  0000 R CNN
F 1 "2V GREEN" H 5375 5325 50  0000 R CNN
F 2 "LEDs:LED_0603_HandSoldering" H 5175 5225 50  0001 C CNN
F 3 "~" H 5175 5225 50  0001 C CNN
	1    5175 5225
	0    1    -1   0   
$EndComp
$Comp
L Device:R R12
U 1 1 5CBA745A
P 5175 4625
F 0 "R12" H 5245 4671 50  0000 L CNN
F 1 "4,7K" H 5245 4580 50  0000 L CNN
F 2 "Resistors_SMD:R_0603_HandSoldering" V 5105 4625 50  0001 C CNN
F 3 "~" H 5175 4625 50  0001 C CNN
	1    5175 4625
	1    0    0    1   
$EndComp
$Comp
L power:GND #PWR015
U 1 1 5CBA7460
P 5175 4425
F 0 "#PWR015" H 5175 4175 50  0001 C CNN
F 1 "GND" H 5180 4252 50  0000 C CNN
F 2 "" H 5175 4425 50  0001 C CNN
F 3 "" H 5175 4425 50  0001 C CNN
	1    5175 4425
	1    0    0    1   
$EndComp
$Comp
L Device:R R13
U 1 1 5CBA7466
P 5575 5225
F 0 "R13" H 5645 5271 50  0000 L CNN
F 1 "220" H 5645 5180 50  0000 L CNN
F 2 "Resistors_SMD:R_0603_HandSoldering" V 5505 5225 50  0001 C CNN
F 3 "~" H 5575 5225 50  0001 C CNN
	1    5575 5225
	1    0    0    1   
$EndComp
Wire Wire Line
	4675 5425 5175 5425
Connection ~ 4675 5425
Wire Wire Line
	5175 5425 5175 5375
Connection ~ 5175 5425
Wire Wire Line
	5175 5425 5575 5425
Wire Wire Line
	5175 5075 5175 4825
Wire Wire Line
	5175 4475 5175 4425
Wire Wire Line
	5575 5425 5575 5375
Connection ~ 5575 5425
Wire Wire Line
	5575 5425 5825 5425
Wire Wire Line
	5575 5075 5575 5025
Wire Wire Line
	5275 4825 5175 4825
Connection ~ 5175 4825
Wire Wire Line
	5175 4825 5175 4775
Wire Wire Line
	5575 4625 5575 4575
Wire Wire Line
	5575 4575 6025 4575
Wire Wire Line
	6025 4575 6025 5125
$Comp
L Device:R R14
U 1 1 5CBA747D
P 6250 4225
F 0 "R14" V 6350 4125 50  0000 C CNN
F 1 "10" V 6350 4300 50  0000 C CNN
F 2 "Resistors_SMD:R_0603_HandSoldering" V 6180 4225 50  0001 C CNN
F 3 "~" H 6250 4225 50  0001 C CNN
	1    6250 4225
	0    1    -1   0   
$EndComp
$Comp
L Device:D_Zener D8
U 1 1 5CBA7483
P 5575 4375
F 0 "D8" V 5529 4454 50  0000 L CNN
F 1 "BZT52C6V8V-GS08" V 5325 4000 50  0000 L CNN
F 2 "Diodes_SMD:D_SOD-123" H 5575 4375 50  0001 C CNN
F 3 "~" H 5575 4375 50  0001 C CNN
	1    5575 4375
	0    -1   1    0   
$EndComp
$Comp
L Device:CP C11
U 1 1 5CBA7489
P 6025 4375
F 0 "C11" H 6075 4475 50  0000 L CNN
F 1 "100uF" H 5775 4275 50  0000 L CNN
F 2 "Capacitors_SMD:CP_Elec_8x10.5" H 6063 4225 50  0001 C CNN
F 3 "~" H 6025 4375 50  0001 C CNN
	1    6025 4375
	-1   0    0    -1  
$EndComp
$Comp
L Device:D_Small D9
U 1 1 5CBA7491
P 7225 4225
F 0 "D9" V 7175 4100 50  0000 L CNN
F 1 "1N4148" V 7400 4025 50  0000 L CNN
F 2 "Diodes_SMD:D_SOD-123" V 7225 4225 50  0001 C CNN
F 3 "~" V 7225 4225 50  0001 C CNN
	1    7225 4225
	0    1    -1   0   
$EndComp
$Comp
L Device:D_Small D10
U 1 1 5CBA7497
P 7350 4225
F 0 "D10" V 7275 4175 50  0000 R CNN
F 1 "1N4148" V 7525 4450 50  0000 R CNN
F 2 "Diodes_SMD:D_SOD-123" V 7350 4225 50  0001 C CNN
F 3 "~" V 7350 4225 50  0001 C CNN
	1    7350 4225
	0    -1   1    0   
$EndComp
Wire Wire Line
	7075 4325 7225 4325
Connection ~ 7225 4325
Wire Wire Line
	7225 4325 7350 4325
Wire Wire Line
	7075 4125 7225 4125
Connection ~ 7225 4125
Wire Wire Line
	7225 4125 7350 4125
Wire Wire Line
	6025 4575 6025 4525
Connection ~ 6025 4575
Wire Wire Line
	5575 4575 5575 4525
Connection ~ 5575 4575
Wire Wire Line
	6400 4225 6475 4225
$Comp
L power:GND #PWR016
U 1 1 5CBA74AB
P 6875 3850
F 0 "#PWR016" H 6875 3600 50  0001 C CNN
F 1 "GND" H 6880 3677 50  0000 C CNN
F 2 "" H 6875 3850 50  0001 C CNN
F 3 "" H 6875 3850 50  0001 C CNN
	1    6875 3850
	1    0    0    1   
$EndComp
$Comp
L power:VDD #PWR017
U 1 1 5CBA74B1
P 6875 4600
F 0 "#PWR017" H 6875 4450 50  0001 C CNN
F 1 "VDD" H 6892 4773 50  0000 C CNN
F 2 "" H 6875 4600 50  0001 C CNN
F 3 "" H 6875 4600 50  0001 C CNN
	1    6875 4600
	1    0    0    1   
$EndComp
$Comp
L suf_regulator:LM329 D11
U 1 1 5CBA74B7
P 8225 3875
F 0 "D11" V 8179 3954 50  0000 L CNN
F 1 "MMBZ5234B" V 8270 3954 50  0000 L CNN
F 2 "TO_SOT_Packages_THT:TO-92_Molded_Narrow" H 8225 3875 50  0001 C CNN
F 3 "~" H 8225 3875 50  0001 C CNN
	1    8225 3875
	0    1    -1   0   
$EndComp
$Comp
L Device:R R18
U 1 1 5CBA74BD
P 8225 5175
F 0 "R18" H 8295 5221 50  0000 L CNN
F 1 "1,8K" H 8295 5130 50  0000 L CNN
F 2 "Resistors_SMD:R_0603_HandSoldering" V 8155 5175 50  0001 C CNN
F 3 "~" H 8225 5175 50  0001 C CNN
	1    8225 5175
	1    0    0    1   
$EndComp
$Comp
L Device:R R15
U 1 1 5CBA74C3
P 7475 3875
F 0 "R15" H 7300 3925 50  0000 L CNN
F 1 "680" H 7275 3825 50  0000 L CNN
F 2 "Resistors_SMD:R_0603_HandSoldering" V 7405 3875 50  0001 C CNN
F 3 "~" H 7475 3875 50  0001 C CNN
	1    7475 3875
	1    0    0    1   
$EndComp
$Comp
L Device:R R17
U 1 1 5CBA74C9
P 7975 4675
F 0 "R17" V 7768 4675 50  0000 C CNN
F 1 "470" V 7859 4675 50  0000 C CNN
F 2 "Resistors_SMD:R_0603_HandSoldering" V 7905 4675 50  0001 C CNN
F 3 "~" H 7975 4675 50  0001 C CNN
	1    7975 4675
	0    1    -1   0   
$EndComp
$Comp
L Device:R R16
U 1 1 5CBA74CF
P 7475 5175
F 0 "R16" H 7545 5221 50  0000 L CNN
F 1 "820" H 7545 5130 50  0000 L CNN
F 2 "Resistors_SMD:R_0603_HandSoldering" V 7405 5175 50  0001 C CNN
F 3 "~" H 7475 5175 50  0001 C CNN
	1    7475 5175
	1    0    0    1   
$EndComp
$Comp
L Device:CP C12
U 1 1 5CBA74D5
P 7200 5175
F 0 "C12" H 7250 5275 50  0000 L CNN
F 1 "100uF/25V" H 7250 5075 50  0000 L CNN
F 2 "Capacitors_SMD:CP_Elec_8x10.5" H 7238 5025 50  0001 C CNN
F 3 "~" H 7200 5175 50  0001 C CNN
	1    7200 5175
	-1   0    0    -1  
$EndComp
$Comp
L Device:CP C13
U 1 1 5CBA74DB
P 7750 3875
F 0 "C13" H 7868 3921 50  0000 L CNN
F 1 "100uF/10V" H 7325 3750 50  0000 L CNN
F 2 "Capacitors_SMD:CP_Elec_6.3x5.3" H 7788 3725 50  0001 C CNN
F 3 "~" H 7750 3875 50  0001 C CNN
	1    7750 3875
	-1   0    0    -1  
$EndComp
$Comp
L power:GND #PWR018
U 1 1 5CBA74E1
P 7475 3650
F 0 "#PWR018" H 7475 3400 50  0001 C CNN
F 1 "GND" H 7480 3477 50  0000 C CNN
F 2 "" H 7475 3650 50  0001 C CNN
F 3 "" H 7475 3650 50  0001 C CNN
	1    7475 3650
	1    0    0    1   
$EndComp
Wire Wire Line
	6875 4600 6875 4525
Wire Wire Line
	6875 3925 6875 3850
Wire Wire Line
	6225 5425 7200 5425
Wire Wire Line
	7475 5425 7475 5325
Wire Wire Line
	7200 5425 7200 5325
Connection ~ 7200 5425
Wire Wire Line
	7200 5425 7475 5425
Wire Wire Line
	7200 5025 7200 4950
Wire Wire Line
	7200 4950 7475 4950
Wire Wire Line
	7475 4950 7475 5025
Connection ~ 7475 4950
Wire Wire Line
	7475 3725 7475 3650
Wire Wire Line
	7475 5425 8225 5425
Wire Wire Line
	8225 5425 8225 5325
Connection ~ 7475 5425
$Comp
L power:VDD #PWR021
U 1 1 5CBA74F7
P 8225 5425
F 0 "#PWR021" H 8225 5275 50  0001 C CNN
F 1 "VDD" H 8242 5598 50  0000 C CNN
F 2 "" H 8225 5425 50  0001 C CNN
F 3 "" H 8225 5425 50  0001 C CNN
	1    8225 5425
	1    0    0    1   
$EndComp
Connection ~ 8225 5425
$Comp
L power:GND #PWR019
U 1 1 5CBA74FE
P 7750 3650
F 0 "#PWR019" H 7750 3400 50  0001 C CNN
F 1 "GND" H 7755 3477 50  0000 C CNN
F 2 "" H 7750 3650 50  0001 C CNN
F 3 "" H 7750 3650 50  0001 C CNN
	1    7750 3650
	1    0    0    1   
$EndComp
$Comp
L power:GND #PWR020
U 1 1 5CBA7504
P 8225 3650
F 0 "#PWR020" H 8225 3400 50  0001 C CNN
F 1 "GND" H 8230 3477 50  0000 C CNN
F 2 "" H 8225 3650 50  0001 C CNN
F 3 "" H 8225 3650 50  0001 C CNN
	1    8225 3650
	1    0    0    1   
$EndComp
$Comp
L Device:CP C14
U 1 1 5CBA750A
P 8625 5175
F 0 "C14" H 8400 5250 50  0000 L CNN
F 1 "100uF/25V" H 8150 5050 50  0000 L CNN
F 2 "Capacitors_SMD:CP_Elec_8x10.5" H 8663 5025 50  0001 C CNN
F 3 "~" H 8625 5175 50  0001 C CNN
	1    8625 5175
	-1   0    0    -1  
$EndComp
$Comp
L power:GND #PWR022
U 1 1 5CBA7510
P 8625 4950
F 0 "#PWR022" H 8625 4700 50  0001 C CNN
F 1 "GND" H 8630 4777 50  0000 C CNN
F 2 "" H 8625 4950 50  0001 C CNN
F 3 "" H 8625 4950 50  0001 C CNN
	1    8625 4950
	1    0    0    1   
$EndComp
Wire Wire Line
	8225 5425 8625 5425
Wire Wire Line
	8625 5425 8625 5325
Wire Wire Line
	8625 5025 8625 4950
Wire Wire Line
	8225 3725 8225 3650
Wire Wire Line
	7750 3725 7750 3650
$Comp
L suf_regulator:LM329 D12
U 1 1 5CBA7523
P 8225 4325
F 0 "D12" V 8179 4404 50  0000 L CNN
F 1 "MMBZ5234B" V 8325 3825 50  0000 L CNN
F 2 "TO_SOT_Packages_THT:TO-92_Molded_Narrow" H 8225 4325 50  0001 C CNN
F 3 "~" H 8225 4325 50  0001 C CNN
	1    8225 4325
	0    -1   1    0   
$EndComp
Wire Wire Line
	8125 4675 8225 4675
Connection ~ 8225 4675
Wire Wire Line
	8225 4675 8225 5025
Wire Wire Line
	7750 4675 7825 4675
Wire Wire Line
	8225 4675 8225 4475
Wire Wire Line
	8225 4175 8225 4025
$Comp
L regul:LM337_SOT223 U1
U 1 1 5CBB061A
P 3875 5425
F 0 "U1" H 3875 5275 50  0000 C CNN
F 1 "LM337" H 3875 5184 50  0000 C CNN
F 2 "TO_SOT_Packages_SMD:SOT-223" H 3875 5225 50  0001 C CIN
F 3 "http://www.ti.com/lit/ds/symlink/lm337-n.pdf" H 3875 5425 50  0001 C CNN
	1    3875 5425
	1    0    0    -1  
$EndComp
Wire Wire Line
	5575 4225 6025 4225
Connection ~ 6025 4225
Wire Wire Line
	6025 4225 6100 4225
$Comp
L Device:Q_NPN_EBC Q1
U 1 1 5CC017C9
P 5475 4825
F 0 "Q1" H 5666 4871 50  0000 L CNN
F 1 "MMBT5088" H 5666 4780 50  0000 L CNN
F 2 "TO_SOT_Packages_SMD:SOT-23" H 5675 4925 50  0001 C CNN
F 3 "~" H 5475 4825 50  0001 C CNN
	1    5475 4825
	1    0    0    -1  
$EndComp
$Comp
L Device:Q_PNP_BCE Q2
U 1 1 5CBA7448
P 6025 5325
F 0 "Q2" V 6353 5325 50  0000 C CNN
F 1 "D45H11" V 6262 5325 50  0000 C CNN
F 2 "TO_SOT_Packages_THT:TO-220-3_Vertical" H 6225 5425 50  0001 C CNN
F 3 "~" H 6025 5325 50  0001 C CNN
	1    6025 5325
	0    -1   1    0   
$EndComp
Wire Wire Line
	7750 4025 7750 4125
Wire Wire Line
	7475 4025 7475 4325
Wire Wire Line
	7350 4125 7750 4125
Connection ~ 7350 4125
Connection ~ 7750 4125
Wire Wire Line
	7750 4125 7750 4675
Wire Wire Line
	7350 4325 7475 4325
Connection ~ 7350 4325
Connection ~ 7475 4325
Wire Wire Line
	7475 4325 7475 4950
NoConn ~ 6675 4525
NoConn ~ 6775 4525
$Comp
L Device:D_Schottky D?
U 1 1 5D756D77
P 2050 2850
F 0 "D?" V 2096 2771 50  0000 R CNN
F 1 "MBRS4201" V 2005 2771 50  0000 R CNN
F 2 "Diodes_SMD:D_SMC_Handsoldering" H 2050 2850 50  0001 C CNN
F 3 "~" H 2050 2850 50  0001 C CNN
	1    2050 2850
	0    -1   -1   0   
$EndComp
$Comp
L conn:Conn_01x03 J?
U 1 1 5D757CC4
P 9850 3050
F 0 "J?" H 9930 3092 50  0000 L CNN
F 1 "Conn_01x03" H 9930 3001 50  0000 L CNN
F 2 "" H 9850 3050 50  0001 C CNN
F 3 "~" H 9850 3050 50  0001 C CNN
	1    9850 3050
	1    0    0    -1  
$EndComp
$Comp
L power:GND #PWR?
U 1 1 5D7590CE
P 9450 3050
F 0 "#PWR?" H 9450 2800 50  0001 C CNN
F 1 "GND" V 9455 2922 50  0000 R CNN
F 2 "" H 9450 3050 50  0001 C CNN
F 3 "" H 9450 3050 50  0001 C CNN
	1    9450 3050
	0    1    1    0   
$EndComp
$Comp
L power:VCC #PWR?
U 1 1 5D759AC6
P 9550 2825
F 0 "#PWR?" H 9550 2675 50  0001 C CNN
F 1 "VCC" H 9567 2998 50  0000 C CNN
F 2 "" H 9550 2825 50  0001 C CNN
F 3 "" H 9550 2825 50  0001 C CNN
	1    9550 2825
	1    0    0    -1  
$EndComp
$Comp
L power:VDD #PWR?
U 1 1 5D75AC8B
P 9550 3275
F 0 "#PWR?" H 9550 3125 50  0001 C CNN
F 1 "VDD" H 9567 3448 50  0000 C CNN
F 2 "" H 9550 3275 50  0001 C CNN
F 3 "" H 9550 3275 50  0001 C CNN
	1    9550 3275
	1    0    0    1   
$EndComp
Wire Wire Line
	9550 2825 9550 2950
Wire Wire Line
	9550 2950 9650 2950
Wire Wire Line
	9450 3050 9650 3050
Wire Wire Line
	9550 3275 9550 3150
Wire Wire Line
	9550 3150 9650 3150
$Comp
L Device:R R?
U 1 1 5D76C45D
P 1750 2925
F 0 "R?" H 1820 2971 50  0000 L CNN
F 1 "150" H 1820 2880 50  0000 L CNN
F 2 "Resistors_SMD:R_2512_HandSoldering" V 1680 2925 50  0001 C CNN
F 3 "~" H 1750 2925 50  0001 C CNN
	1    1750 2925
	1    0    0    -1  
$EndComp
$Comp
L Device:C C?
U 1 1 5D76CF09
P 1750 3375
F 0 "C?" H 1865 3421 50  0000 L CNN
F 1 "150nF" H 1865 3330 50  0000 L CNN
F 2 "Capacitors_SMD:C_2220_HandSoldering" H 1788 3225 50  0001 C CNN
F 3 "~" H 1750 3375 50  0001 C CNN
	1    1750 3375
	1    0    0    -1  
$EndComp
$Comp
L Device:C C?
U 1 1 5D76DA05
P 1475 3150
F 0 "C?" H 1590 3196 50  0000 L CNN
F 1 "10nF" H 1590 3105 50  0000 L CNN
F 2 "Capacitors_SMD:C_1206_HandSoldering" H 1513 3000 50  0001 C CNN
F 3 "~" H 1475 3150 50  0001 C CNN
	1    1475 3150
	1    0    0    -1  
$EndComp
$Comp
L conn:Conn_01x03 J?
U 1 1 5D76E476
P 875 3150
F 0 "J?" H 793 3467 50  0000 C CNN
F 1 "Conn_01x03" H 793 3376 50  0000 C CNN
F 2 "" H 875 3150 50  0001 C CNN
F 3 "~" H 875 3150 50  0001 C CNN
	1    875  3150
	-1   0    0    -1  
$EndComp
$Comp
L Device:D_Schottky D?
U 1 1 5D773604
P 2050 3475
F 0 "D?" V 2004 3554 50  0000 L CNN
F 1 "MBRS4201" V 2095 3554 50  0000 L CNN
F 2 "Diodes_SMD:D_SMC_Handsoldering" H 2050 3475 50  0001 C CNN
F 3 "~" H 2050 3475 50  0001 C CNN
	1    2050 3475
	0    1    1    0   
$EndComp
$Comp
L Device:D_Schottky D?
U 1 1 5D774B31
P 2300 2850
F 0 "D?" V 2254 2929 50  0000 L CNN
F 1 "MBRS4201" V 2345 2929 50  0000 L CNN
F 2 "Diodes_SMD:D_SMC_Handsoldering" H 2300 2850 50  0001 C CNN
F 3 "~" H 2300 2850 50  0001 C CNN
	1    2300 2850
	0    1    1    0   
$EndComp
$Comp
L Device:D_Schottky D?
U 1 1 5D774B3B
P 2300 3475
F 0 "D?" V 2346 3396 50  0000 R CNN
F 1 "MBRS4201" V 2255 3396 50  0000 R CNN
F 2 "Diodes_SMD:D_SMC_Handsoldering" H 2300 3475 50  0001 C CNN
F 3 "~" H 2300 3475 50  0001 C CNN
	1    2300 3475
	0    -1   -1   0   
$EndComp
Wire Wire Line
	2050 3000 2050 3050
Wire Wire Line
	2300 3000 2300 3275
Wire Wire Line
	1075 3250 1075 3625
Wire Wire Line
	1075 3625 1475 3625
Wire Wire Line
	2050 3625 2300 3625
Connection ~ 2050 3625
Wire Wire Line
	1075 3050 1075 2700
Wire Wire Line
	1075 2700 1475 2700
Wire Wire Line
	2050 2700 2300 2700
Connection ~ 2050 2700
Wire Wire Line
	1750 3075 1750 3225
Wire Wire Line
	1750 2775 1750 2700
Connection ~ 1750 2700
Wire Wire Line
	1750 2700 2050 2700
Wire Wire Line
	1750 3525 1750 3625
Connection ~ 1750 3625
Wire Wire Line
	1750 3625 2050 3625
Wire Wire Line
	1475 3300 1475 3625
Connection ~ 1475 3625
Wire Wire Line
	1475 3625 1750 3625
Wire Wire Line
	1475 3000 1475 2700
Connection ~ 1475 2700
Wire Wire Line
	1475 2700 1750 2700
$Comp
L power:GND #PWR?
U 1 1 5D7D253B
P 1175 3250
F 0 "#PWR?" H 1175 3000 50  0001 C CNN
F 1 "GND" H 1180 3077 50  0000 C CNN
F 2 "" H 1175 3250 50  0001 C CNN
F 3 "" H 1175 3250 50  0001 C CNN
	1    1175 3250
	1    0    0    -1  
$EndComp
Wire Wire Line
	1075 3150 1175 3150
Wire Wire Line
	1175 3150 1175 3250
Wire Wire Line
	2050 3050 2825 3050
Wire Wire Line
	2825 3050 2825 800 
Wire Wire Line
	2825 800  3200 800 
Connection ~ 2050 3050
Wire Wire Line
	2050 3050 2050 3325
Connection ~ 3200 800 
Wire Wire Line
	2300 3275 2825 3275
Wire Wire Line
	2825 3275 2825 5425
Wire Wire Line
	2825 5425 3200 5425
Connection ~ 2300 3275
Wire Wire Line
	2300 3275 2300 3325
Connection ~ 3200 5425
$EndSCHEMATC
