EESchema Schematic File Version 4
LIBS:Regulator-cache
EELAYER 26 0
EELAYER END
$Descr A4 11693 8268
encoding utf-8
Sheet 1 1
Title ""
Date ""
Rev ""
Comp ""
Comment1 ""
Comment2 ""
Comment3 ""
Comment4 ""
$EndDescr
$Comp
L LT4320MPMSE-1PBF:LT4320MPMSE-1PBF U1
U 1 1 5C600591
P 2000 1300
F 0 "U1" H 1800 1600 50  0000 C CNN
F 1 "LT4320MPMSE-1PBF" H 2000 725 50  0000 C CNN
F 2 "MSOP-12_MSE" H 2000 1300 50  0001 L BNN
F 3 "LT4320/LT4320-1 - Ideal Diode Bridge Controller" H 2000 1300 50  0001 L BNN
F 4 "Unavailable" H 2000 1300 50  0001 L BNN "Field4"
F 5 "None" H 2000 1300 50  0001 L BNN "Field5"
F 6 "Linear Technology/Analog" H 2000 1300 50  0001 L BNN "Field6"
F 7 "MSOP-12 Linear Technology" H 2000 1300 50  0001 L BNN "Field7"
F 8 "LT4320MPMSE-1#PBF" H 2000 1300 50  0001 L BNN "Field8"
	1    2000 1300
	1    0    0    -1  
$EndComp
$Comp
L Device:Q_NMOS_GDS Q3
U 1 1 5C600EB4
P 2675 1050
F 0 "Q3" H 2880 1096 50  0000 L CNN
F 1 "Q_NMOS_GDS" H 2250 1200 50  0000 L CNN
F 2 "" H 2875 1150 50  0001 C CNN
F 3 "~" H 2675 1050 50  0001 C CNN
	1    2675 1050
	1    0    0    -1  
$EndComp
$Comp
L Device:Q_NMOS_GDS Q4
U 1 1 5C600EF8
P 2675 1550
F 0 "Q4" H 2880 1596 50  0000 L CNN
F 1 "Q_NMOS_GDS" H 2250 1375 50  0000 L CNN
F 2 "" H 2875 1650 50  0001 C CNN
F 3 "~" H 2675 1550 50  0001 C CNN
	1    2675 1550
	1    0    0    -1  
$EndComp
$Comp
L Device:Q_NMOS_GDS Q1
U 1 1 5C600F2E
P 1325 1050
F 0 "Q1" H 1531 1096 50  0000 L CNN
F 1 "Q_NMOS_GDS" H 850 1200 50  0000 L CNN
F 2 "" H 1525 1150 50  0001 C CNN
F 3 "~" H 1325 1050 50  0001 C CNN
	1    1325 1050
	-1   0    0    -1  
$EndComp
$Comp
L Device:Q_NMOS_GDS Q2
U 1 1 5C600F64
P 1325 1550
F 0 "Q2" H 1531 1596 50  0000 L CNN
F 1 "Q_NMOS_GDS" H 850 1400 50  0000 L CNN
F 2 "" H 1525 1650 50  0001 C CNN
F 3 "~" H 1325 1550 50  0001 C CNN
	1    1325 1550
	-1   0    0    -1  
$EndComp
Wire Wire Line
	1225 850  1225 800 
Wire Wire Line
	1225 800  2000 800 
Wire Wire Line
	2775 800  2775 850 
Wire Wire Line
	1225 1750 1225 1800
Wire Wire Line
	1225 1800 2000 1800
Wire Wire Line
	2775 1800 2775 1750
Wire Wire Line
	2000 1750 2000 1800
Connection ~ 2000 1800
Wire Wire Line
	2000 1800 2775 1800
Wire Wire Line
	2000 850  2000 800 
Connection ~ 2000 800 
Wire Wire Line
	2000 800  2775 800 
Wire Wire Line
	1225 1250 1225 1300
Wire Wire Line
	2775 1250 2775 1300
Wire Wire Line
	2450 1300 2775 1300
Connection ~ 2775 1300
Wire Wire Line
	2775 1300 2775 1350
Wire Wire Line
	1550 1300 1225 1300
Connection ~ 1225 1300
Wire Wire Line
	1225 1300 1225 1350
Wire Wire Line
	1525 1050 1550 1050
Wire Wire Line
	1550 1050 1550 1200
Wire Wire Line
	1525 1550 1550 1550
Wire Wire Line
	1550 1550 1550 1400
Wire Wire Line
	2475 1050 2450 1050
Wire Wire Line
	2450 1050 2450 1200
Wire Wire Line
	2475 1550 2450 1550
Wire Wire Line
	2450 1550 2450 1400
$Comp
L Device:CP C1
U 1 1 5C6064BF
P 3200 1100
F 0 "C1" H 3318 1146 50  0000 L CNN
F 1 "1000uF/50V" H 3318 1055 50  0000 L CNN
F 2 "" H 3238 950 50  0001 C CNN
F 3 "~" H 3200 1100 50  0001 C CNN
	1    3200 1100
	1    0    0    -1  
$EndComp
$Comp
L regul:LM317_3PinPackage U2
U 1 1 5C6065FD
P 3875 800
F 0 "U2" H 3725 925 50  0000 C CNN
F 1 "LM317" H 4025 925 50  0000 C CNN
F 2 "" H 3875 1050 50  0001 C CIN
F 3 "http://www.ti.com/lit/ds/symlink/lm317.pdf" H 3875 800 50  0001 C CNN
	1    3875 800 
	1    0    0    -1  
$EndComp
$Comp
L Device:R R2
U 1 1 5C606919
P 4300 975
F 0 "R2" H 4370 1021 50  0000 L CNN
F 1 "1K" H 4370 930 50  0000 L CNN
F 2 "" V 4230 975 50  0001 C CNN
F 3 "~" H 4300 975 50  0001 C CNN
	1    4300 975 
	1    0    0    -1  
$EndComp
$Comp
L Device:R R1
U 1 1 5C606993
P 3875 1325
F 0 "R1" H 3945 1371 50  0000 L CNN
F 1 "825" H 3945 1280 50  0000 L CNN
F 2 "" V 3805 1325 50  0001 C CNN
F 3 "~" H 3875 1325 50  0001 C CNN
	1    3875 1325
	1    0    0    -1  
$EndComp
$Comp
L Device:CP C3
U 1 1 5C606A31
P 4675 1100
F 0 "C3" H 4793 1146 50  0000 L CNN
F 1 "100uF/50V" H 4700 1000 50  0000 L CNN
F 2 "" H 4713 950 50  0001 C CNN
F 3 "~" H 4675 1100 50  0001 C CNN
	1    4675 1100
	1    0    0    -1  
$EndComp
$Comp
L power:GND #PWR01
U 1 1 5C607114
P 3200 1350
F 0 "#PWR01" H 3200 1100 50  0001 C CNN
F 1 "GND" H 3205 1177 50  0000 C CNN
F 2 "" H 3200 1350 50  0001 C CNN
F 3 "" H 3200 1350 50  0001 C CNN
	1    3200 1350
	1    0    0    -1  
$EndComp
$Comp
L power:GND #PWR03
U 1 1 5C60714A
P 4675 1350
F 0 "#PWR03" H 4675 1100 50  0001 C CNN
F 1 "GND" H 4680 1177 50  0000 C CNN
F 2 "" H 4675 1350 50  0001 C CNN
F 3 "" H 4675 1350 50  0001 C CNN
	1    4675 1350
	1    0    0    -1  
$EndComp
$Comp
L power:VCC #PWR02
U 1 1 5C607195
P 3575 1500
F 0 "#PWR02" H 3575 1350 50  0001 C CNN
F 1 "VCC" H 3592 1673 50  0000 C CNN
F 2 "" H 3575 1500 50  0001 C CNN
F 3 "" H 3575 1500 50  0001 C CNN
	1    3575 1500
	1    0    0    -1  
$EndComp
Wire Wire Line
	2775 800  3200 800 
Connection ~ 2775 800 
Wire Wire Line
	3200 800  3200 950 
Connection ~ 3200 800 
Wire Wire Line
	3200 800  3575 800 
Wire Wire Line
	3200 1250 3200 1350
Wire Wire Line
	3875 1100 3875 1150
Wire Wire Line
	3875 1475 3875 1575
Wire Wire Line
	3875 1575 4300 1575
Wire Wire Line
	4300 1575 4300 1500
Wire Wire Line
	4175 800  4300 800 
Wire Wire Line
	4675 800  4675 950 
Wire Wire Line
	4675 1250 4675 1350
Wire Wire Line
	3875 1150 4300 1150
Wire Wire Line
	4300 1150 4300 1125
Connection ~ 3875 1150
Wire Wire Line
	3875 1150 3875 1175
Wire Wire Line
	4300 825  4300 800 
Connection ~ 4300 800 
Wire Wire Line
	4300 800  4675 800 
$Comp
L Device:C C2
U 1 1 5C6095FA
P 4300 1350
F 0 "C2" H 4415 1396 50  0000 L CNN
F 1 "10uF/10V" H 4100 1075 50  0000 L CNN
F 2 "" H 4338 1200 50  0001 C CNN
F 3 "~" H 4300 1350 50  0001 C CNN
	1    4300 1350
	1    0    0    -1  
$EndComp
Wire Wire Line
	3575 1500 3575 1575
Wire Wire Line
	3575 1575 3875 1575
Connection ~ 3875 1575
Wire Wire Line
	4300 1150 4300 1200
Connection ~ 4300 1150
$Comp
L Amplifier_Operational:LM741 U3
U 1 1 5C60C79C
P 6775 2000
F 0 "U3" H 6600 2275 50  0000 C CNN
F 1 "OPA1611" H 6975 2150 50  0000 C CNN
F 2 "" H 6825 2050 50  0001 C CNN
F 3 "http://www.ti.com/lit/ds/symlink/lm741.pdf" H 6925 2150 50  0001 C CNN
	1    6775 2000
	-1   0    0    -1  
$EndComp
$Comp
L Device:Q_NPN_BCE Q6
U 1 1 5C60C86C
P 6025 900
F 0 "Q6" V 6353 900 50  0000 C CNN
F 1 "D44H11" V 6262 900 50  0000 C CNN
F 2 "" H 6225 1000 50  0001 C CNN
F 3 "~" H 6025 900 50  0001 C CNN
	1    6025 900 
	0    -1   -1   0   
$EndComp
$Comp
L Device:Q_PNP_EBC Q5
U 1 1 5C60D9E4
P 5475 1400
F 0 "Q5" H 5666 1354 50  0000 L CNN
F 1 "2N5087" H 5666 1445 50  0000 L CNN
F 2 "" H 5675 1500 50  0001 C CNN
F 3 "~" H 5475 1400 50  0001 C CNN
	1    5475 1400
	1    0    0    1   
$EndComp
$Comp
L Device:LED D1
U 1 1 5C60DA6B
P 5175 1000
F 0 "D1" V 5213 883 50  0000 R CNN
F 1 "2V GREEN" V 5450 1175 50  0000 R CNN
F 2 "" H 5175 1000 50  0001 C CNN
F 3 "~" H 5175 1000 50  0001 C CNN
	1    5175 1000
	0    -1   -1   0   
$EndComp
$Comp
L Device:R R3
U 1 1 5C60DAC4
P 5175 1600
F 0 "R3" H 5245 1646 50  0000 L CNN
F 1 "12K" H 5245 1555 50  0000 L CNN
F 2 "" V 5105 1600 50  0001 C CNN
F 3 "~" H 5175 1600 50  0001 C CNN
	1    5175 1600
	1    0    0    -1  
$EndComp
$Comp
L power:GND #PWR04
U 1 1 5C60DC9F
P 5175 1800
F 0 "#PWR04" H 5175 1550 50  0001 C CNN
F 1 "GND" H 5180 1627 50  0000 C CNN
F 2 "" H 5175 1800 50  0001 C CNN
F 3 "" H 5175 1800 50  0001 C CNN
	1    5175 1800
	1    0    0    -1  
$EndComp
$Comp
L Device:R R4
U 1 1 5C60DDB4
P 5575 1000
F 0 "R4" H 5645 1046 50  0000 L CNN
F 1 "249" H 5645 955 50  0000 L CNN
F 2 "" V 5505 1000 50  0001 C CNN
F 3 "~" H 5575 1000 50  0001 C CNN
	1    5575 1000
	1    0    0    -1  
$EndComp
Wire Wire Line
	4675 800  5175 800 
Connection ~ 4675 800 
Wire Wire Line
	5175 800  5175 850 
Connection ~ 5175 800 
Wire Wire Line
	5175 800  5575 800 
Wire Wire Line
	5175 1150 5175 1400
Wire Wire Line
	5175 1750 5175 1800
Wire Wire Line
	5575 800  5575 850 
Connection ~ 5575 800 
Wire Wire Line
	5575 800  5825 800 
Wire Wire Line
	5575 1150 5575 1200
Wire Wire Line
	5275 1400 5175 1400
Connection ~ 5175 1400
Wire Wire Line
	5175 1400 5175 1450
Wire Wire Line
	5575 1600 5575 1650
Wire Wire Line
	5575 1650 6025 1650
Wire Wire Line
	6025 1650 6025 1100
$Comp
L Device:R R5
U 1 1 5C61293C
P 6250 2000
F 0 "R5" V 6350 1900 50  0000 C CNN
F 1 "10" V 6350 2075 50  0000 C CNN
F 2 "" V 6180 2000 50  0001 C CNN
F 3 "~" H 6250 2000 50  0001 C CNN
	1    6250 2000
	0    1    1    0   
$EndComp
$Comp
L Device:D_Zener D2
U 1 1 5C612D6E
P 5575 1850
F 0 "D2" V 5529 1929 50  0000 L CNN
F 1 "BZX55C6V8" V 5800 1700 50  0000 L CNN
F 2 "" H 5575 1850 50  0001 C CNN
F 3 "~" H 5575 1850 50  0001 C CNN
	1    5575 1850
	0    1    1    0   
$EndComp
$Comp
L Device:CP C4
U 1 1 5C612E7C
P 6025 1850
F 0 "C4" H 6075 1950 50  0000 L CNN
F 1 "100uF" H 5775 1750 50  0000 L CNN
F 2 "" H 6063 1700 50  0001 C CNN
F 3 "~" H 6025 1850 50  0001 C CNN
	1    6025 1850
	1    0    0    -1  
$EndComp
NoConn ~ 6675 2300
NoConn ~ 6775 2300
$Comp
L Device:D_Small D3
U 1 1 5C615A55
P 7225 2000
F 0 "D3" V 7175 1875 50  0000 L CNN
F 1 "1N4148" V 7400 1800 50  0000 L CNN
F 2 "" V 7225 2000 50  0001 C CNN
F 3 "~" V 7225 2000 50  0001 C CNN
	1    7225 2000
	0    1    1    0   
$EndComp
$Comp
L Device:D_Small D4
U 1 1 5C616599
P 7350 2000
F 0 "D4" V 7275 1950 50  0000 R CNN
F 1 "1N4148" V 7525 2225 50  0000 R CNN
F 2 "" V 7350 2000 50  0001 C CNN
F 3 "~" V 7350 2000 50  0001 C CNN
	1    7350 2000
	0    -1   -1   0   
$EndComp
Wire Wire Line
	7075 1900 7225 1900
Connection ~ 7225 1900
Wire Wire Line
	7225 1900 7350 1900
Wire Wire Line
	7075 2100 7225 2100
Connection ~ 7225 2100
Wire Wire Line
	7225 2100 7350 2100
Wire Wire Line
	6025 1650 6025 1700
Connection ~ 6025 1650
Wire Wire Line
	5575 1650 5575 1700
Connection ~ 5575 1650
Wire Wire Line
	5575 2000 6025 2000
Connection ~ 6025 2000
Wire Wire Line
	6025 2000 6100 2000
Wire Wire Line
	6400 2000 6475 2000
$Comp
L power:GND #PWR06
U 1 1 5C622637
P 6875 2375
F 0 "#PWR06" H 6875 2125 50  0001 C CNN
F 1 "GND" H 6880 2202 50  0000 C CNN
F 2 "" H 6875 2375 50  0001 C CNN
F 3 "" H 6875 2375 50  0001 C CNN
	1    6875 2375
	1    0    0    -1  
$EndComp
$Comp
L power:VCC #PWR05
U 1 1 5C622684
P 6875 1625
F 0 "#PWR05" H 6875 1475 50  0001 C CNN
F 1 "VCC" H 6892 1798 50  0000 C CNN
F 2 "" H 6875 1625 50  0001 C CNN
F 3 "" H 6875 1625 50  0001 C CNN
	1    6875 1625
	1    0    0    -1  
$EndComp
$Comp
L Device:D_Zener D5
U 1 1 5C623760
P 8225 2350
F 0 "D5" V 8179 2429 50  0000 L CNN
F 1 "LM329DZ" V 8270 2429 50  0000 L CNN
F 2 "" H 8225 2350 50  0001 C CNN
F 3 "~" H 8225 2350 50  0001 C CNN
	1    8225 2350
	0    1    1    0   
$EndComp
$Comp
L Device:R R9
U 1 1 5C62382B
P 8225 1050
F 0 "R9" H 8295 1096 50  0000 L CNN
F 1 "4,99K" H 8295 1005 50  0000 L CNN
F 2 "" V 8155 1050 50  0001 C CNN
F 3 "~" H 8225 1050 50  0001 C CNN
	1    8225 1050
	1    0    0    -1  
$EndComp
$Comp
L Device:R R7
U 1 1 5C6238E5
P 7475 2350
F 0 "R7" H 7300 2400 50  0000 L CNN
F 1 "681" H 7275 2300 50  0000 L CNN
F 2 "" V 7405 2350 50  0001 C CNN
F 3 "~" H 7475 2350 50  0001 C CNN
	1    7475 2350
	1    0    0    -1  
$EndComp
$Comp
L Device:R R8
U 1 1 5C6239D9
P 8000 1900
F 0 "R8" V 7793 1900 50  0000 C CNN
F 1 "499" V 7884 1900 50  0000 C CNN
F 2 "" V 7930 1900 50  0001 C CNN
F 3 "~" H 8000 1900 50  0001 C CNN
	1    8000 1900
	0    1    1    0   
$EndComp
$Comp
L Device:R R6
U 1 1 5C623AA4
P 7475 1050
F 0 "R6" H 7545 1096 50  0000 L CNN
F 1 "2,49K" H 7545 1005 50  0000 L CNN
F 2 "" V 7405 1050 50  0001 C CNN
F 3 "~" H 7475 1050 50  0001 C CNN
	1    7475 1050
	1    0    0    -1  
$EndComp
$Comp
L Device:CP C5
U 1 1 5C623B5A
P 7200 1050
F 0 "C5" H 7250 1150 50  0000 L CNN
F 1 "100uF/50V" H 6725 950 50  0000 L CNN
F 2 "" H 7238 900 50  0001 C CNN
F 3 "~" H 7200 1050 50  0001 C CNN
	1    7200 1050
	1    0    0    -1  
$EndComp
$Comp
L Device:CP C6
U 1 1 5C623C88
P 7750 2350
F 0 "C6" H 7868 2396 50  0000 L CNN
F 1 "100uF/10V" H 7775 2225 50  0000 L CNN
F 2 "" H 7788 2200 50  0001 C CNN
F 3 "~" H 7750 2350 50  0001 C CNN
	1    7750 2350
	1    0    0    -1  
$EndComp
$Comp
L power:GND #PWR07
U 1 1 5C6247A3
P 7475 2575
F 0 "#PWR07" H 7475 2325 50  0001 C CNN
F 1 "GND" H 7480 2402 50  0000 C CNN
F 2 "" H 7475 2575 50  0001 C CNN
F 3 "" H 7475 2575 50  0001 C CNN
	1    7475 2575
	1    0    0    -1  
$EndComp
Wire Wire Line
	6875 1625 6875 1700
Wire Wire Line
	6875 2300 6875 2375
Wire Wire Line
	6225 800  7200 800 
Wire Wire Line
	7475 800  7475 900 
Wire Wire Line
	7200 800  7200 900 
Connection ~ 7200 800 
Wire Wire Line
	7200 800  7475 800 
Wire Wire Line
	7200 1200 7200 1275
Wire Wire Line
	7200 1275 7475 1275
Wire Wire Line
	7475 1275 7475 1200
Connection ~ 7475 1275
Wire Wire Line
	7475 2500 7475 2575
Wire Wire Line
	7750 2200 7750 1900
Wire Wire Line
	7750 1900 7850 1900
Wire Wire Line
	8225 2200 8225 1900
Wire Wire Line
	7475 800  8225 800 
Wire Wire Line
	8225 800  8225 900 
Connection ~ 7475 800 
$Comp
L power:VCC #PWR09
U 1 1 5C633042
P 8225 800
F 0 "#PWR09" H 8225 650 50  0001 C CNN
F 1 "VCC" H 8242 973 50  0000 C CNN
F 2 "" H 8225 800 50  0001 C CNN
F 3 "" H 8225 800 50  0001 C CNN
	1    8225 800 
	1    0    0    -1  
$EndComp
Connection ~ 8225 800 
Wire Wire Line
	8150 1900 8225 1900
Connection ~ 8225 1900
Wire Wire Line
	8225 1900 8225 1200
$Comp
L power:GND #PWR08
U 1 1 5C6346D8
P 7750 2575
F 0 "#PWR08" H 7750 2325 50  0001 C CNN
F 1 "GND" H 7755 2402 50  0000 C CNN
F 2 "" H 7750 2575 50  0001 C CNN
F 3 "" H 7750 2575 50  0001 C CNN
	1    7750 2575
	1    0    0    -1  
$EndComp
$Comp
L power:GND #PWR010
U 1 1 5C634734
P 8225 2575
F 0 "#PWR010" H 8225 2325 50  0001 C CNN
F 1 "GND" H 8230 2402 50  0000 C CNN
F 2 "" H 8225 2575 50  0001 C CNN
F 3 "" H 8225 2575 50  0001 C CNN
	1    8225 2575
	1    0    0    -1  
$EndComp
$Comp
L Device:CP C7
U 1 1 5C634790
P 8625 1050
F 0 "C7" H 8743 1096 50  0000 L CNN
F 1 "100uF/50V" H 8743 1005 50  0000 L CNN
F 2 "" H 8663 900 50  0001 C CNN
F 3 "~" H 8625 1050 50  0001 C CNN
	1    8625 1050
	1    0    0    -1  
$EndComp
$Comp
L power:GND #PWR011
U 1 1 5C635170
P 8625 1275
F 0 "#PWR011" H 8625 1025 50  0001 C CNN
F 1 "GND" H 8630 1102 50  0000 C CNN
F 2 "" H 8625 1275 50  0001 C CNN
F 3 "" H 8625 1275 50  0001 C CNN
	1    8625 1275
	1    0    0    -1  
$EndComp
Wire Wire Line
	8225 800  8625 800 
Wire Wire Line
	8625 800  8625 900 
Wire Wire Line
	8625 1200 8625 1275
Wire Wire Line
	8225 2500 8225 2575
Wire Wire Line
	7750 2500 7750 2575
Wire Wire Line
	7475 1275 7475 2100
Wire Wire Line
	7350 2100 7475 2100
Connection ~ 7350 2100
Connection ~ 7475 2100
Wire Wire Line
	7475 2100 7475 2200
Wire Wire Line
	7350 1900 7750 1900
Connection ~ 7350 1900
Connection ~ 7750 1900
$Comp
L Device:Q_NPN_BCE Q7
U 1 1 5C64E6F6
P 9975 900
F 0 "Q7" V 10303 900 50  0000 C CNN
F 1 "2STN1360" V 10212 900 50  0000 C CNN
F 2 "" H 10175 1000 50  0001 C CNN
F 3 "~" H 9975 900 50  0001 C CNN
	1    9975 900 
	0    -1   -1   0   
$EndComp
$Comp
L Device:R R10
U 1 1 5C64E7FF
P 9625 1075
F 0 "R10" H 9695 1121 50  0000 L CNN
F 1 "47" H 9695 1030 50  0000 L CNN
F 2 "" V 9555 1075 50  0001 C CNN
F 3 "~" H 9625 1075 50  0001 C CNN
	1    9625 1075
	1    0    0    -1  
$EndComp
$Comp
L Device:CP C8
U 1 1 5C64E8A1
P 9975 1475
F 0 "C8" H 10093 1521 50  0000 L CNN
F 1 "100uF/50V" H 9525 1375 50  0000 L CNN
F 2 "" H 10013 1325 50  0001 C CNN
F 3 "~" H 9975 1475 50  0001 C CNN
	1    9975 1475
	1    0    0    -1  
$EndComp
Wire Wire Line
	8625 800  9225 800 
Wire Wire Line
	9625 800  9625 925 
Connection ~ 9625 800 
Wire Wire Line
	9625 800  9775 800 
Wire Wire Line
	9625 1225 9975 1225
Wire Wire Line
	9975 1225 9975 1100
Wire Wire Line
	9975 1225 9975 1325
Connection ~ 9975 1225
$Comp
L power:GND #PWR012
U 1 1 5C65593F
P 9975 1725
F 0 "#PWR012" H 9975 1475 50  0001 C CNN
F 1 "GND" H 9980 1552 50  0000 C CNN
F 2 "" H 9975 1725 50  0001 C CNN
F 3 "" H 9975 1725 50  0001 C CNN
	1    9975 1725
	1    0    0    -1  
$EndComp
Wire Wire Line
	9975 1625 9975 1725
$Comp
L Device:CP C10
U 1 1 5C65778F
P 10425 1475
F 0 "C10" H 10543 1521 50  0000 L CNN
F 1 "CP" H 10543 1430 50  0000 L CNN
F 2 "" H 10463 1325 50  0001 C CNN
F 3 "~" H 10425 1475 50  0001 C CNN
	1    10425 1475
	1    0    0    -1  
$EndComp
Wire Wire Line
	10175 800  10425 800 
Wire Wire Line
	10425 800  10425 1325
$Comp
L power:GND #PWR014
U 1 1 5C6597C1
P 10425 1725
F 0 "#PWR014" H 10425 1475 50  0001 C CNN
F 1 "GND" H 10430 1552 50  0000 C CNN
F 2 "" H 10425 1725 50  0001 C CNN
F 3 "" H 10425 1725 50  0001 C CNN
	1    10425 1725
	1    0    0    -1  
$EndComp
Wire Wire Line
	10425 1625 10425 1725
Connection ~ 8625 800 
$Comp
L Device:Q_NPN_BCE Q8
U 1 1 5C65DAB2
P 10000 2325
F 0 "Q8" V 10328 2325 50  0000 C CNN
F 1 "2STN1360" V 10237 2325 50  0000 C CNN
F 2 "" H 10200 2425 50  0001 C CNN
F 3 "~" H 10000 2325 50  0001 C CNN
	1    10000 2325
	0    -1   -1   0   
$EndComp
$Comp
L Device:R R11
U 1 1 5C65DAB8
P 9650 2500
F 0 "R11" H 9720 2546 50  0000 L CNN
F 1 "47" H 9720 2455 50  0000 L CNN
F 2 "" V 9580 2500 50  0001 C CNN
F 3 "~" H 9650 2500 50  0001 C CNN
	1    9650 2500
	1    0    0    -1  
$EndComp
$Comp
L Device:CP C9
U 1 1 5C65DABE
P 10000 2900
F 0 "C9" H 10118 2946 50  0000 L CNN
F 1 "100uF/50V" H 9550 2800 50  0000 L CNN
F 2 "" H 10038 2750 50  0001 C CNN
F 3 "~" H 10000 2900 50  0001 C CNN
	1    10000 2900
	1    0    0    -1  
$EndComp
Wire Wire Line
	9650 2225 9650 2350
Connection ~ 9650 2225
Wire Wire Line
	9650 2225 9800 2225
Wire Wire Line
	9650 2650 10000 2650
Wire Wire Line
	10000 2650 10000 2525
Wire Wire Line
	10000 2650 10000 2750
Connection ~ 10000 2650
$Comp
L power:GND #PWR013
U 1 1 5C65DACC
P 10000 3150
F 0 "#PWR013" H 10000 2900 50  0001 C CNN
F 1 "GND" H 10005 2977 50  0000 C CNN
F 2 "" H 10000 3150 50  0001 C CNN
F 3 "" H 10000 3150 50  0001 C CNN
	1    10000 3150
	1    0    0    -1  
$EndComp
Wire Wire Line
	10000 3050 10000 3150
$Comp
L Device:CP C11
U 1 1 5C65DAD3
P 10450 2900
F 0 "C11" H 10568 2946 50  0000 L CNN
F 1 "CP" H 10568 2855 50  0000 L CNN
F 2 "" H 10488 2750 50  0001 C CNN
F 3 "~" H 10450 2900 50  0001 C CNN
	1    10450 2900
	1    0    0    -1  
$EndComp
Wire Wire Line
	10200 2225 10450 2225
Wire Wire Line
	10450 2225 10450 2750
$Comp
L power:GND #PWR015
U 1 1 5C65DADB
P 10450 3150
F 0 "#PWR015" H 10450 2900 50  0001 C CNN
F 1 "GND" H 10455 2977 50  0000 C CNN
F 2 "" H 10450 3150 50  0001 C CNN
F 3 "" H 10450 3150 50  0001 C CNN
	1    10450 3150
	1    0    0    -1  
$EndComp
Wire Wire Line
	10450 3050 10450 3150
Wire Wire Line
	9225 800  9225 2225
Connection ~ 9225 800 
Wire Wire Line
	9225 800  9625 800 
Wire Wire Line
	9225 2225 9650 2225
Text GLabel 10525 800  2    50   Input ~ 0
VCCL
Text GLabel 10525 2225 2    50   Input ~ 0
VCCR
Wire Wire Line
	10525 800  10425 800 
Connection ~ 10425 800 
Wire Wire Line
	10525 2225 10450 2225
Connection ~ 10450 2225
$EndSCHEMATC
