EESchema Schematic File Version 4
LIBS:HFM-I-cache
EELAYER 29 0
EELAYER END
$Descr A4 11693 8268
encoding utf-8
Sheet 1 1
Title "HFM-I (SMD with Jung 2000 Regulator)"
Date "2019-03-29"
Rev "1"
Comp ""
Comment1 ""
Comment2 ""
Comment3 ""
Comment4 ""
$EndDescr
$Comp
L Device:R R1
U 1 1 5B84D4D9
P 875 4250
F 0 "R1" H 945 4296 50  0000 L CNN
F 1 "150K" H 945 4205 50  0000 L CNN
F 2 "Resistors_SMD:R_0603_HandSoldering" V 805 4250 50  0001 C CNN
F 3 "~" H 875 4250 50  0001 C CNN
	1    875  4250
	1    0    0    -1  
$EndComp
$Comp
L Device:R R2
U 1 1 5B84D5C3
P 1275 4250
F 0 "R2" H 1300 4400 50  0000 L CNN
F 1 "110K" H 1300 4100 50  0000 L CNN
F 2 "Resistors_SMD:R_0603_HandSoldering" V 1205 4250 50  0001 C CNN
F 3 "~" H 1275 4250 50  0001 C CNN
	1    1275 4250
	1    0    0    -1  
$EndComp
$Comp
L Device:R R3
U 1 1 5B84D66B
P 1550 3750
F 0 "R3" H 1620 3796 50  0000 L CNN
F 1 "220K" H 1620 3705 50  0000 L CNN
F 2 "Resistors_SMD:R_0603_HandSoldering" V 1480 3750 50  0001 C CNN
F 3 "~" H 1550 3750 50  0001 C CNN
	1    1550 3750
	1    0    0    -1  
$EndComp
$Comp
L Device:C C4
U 1 1 5B84D7FD
P 1550 4250
F 0 "C4" H 1665 4296 50  0000 L CNN
F 1 "33pF" H 1665 4205 50  0000 L CNN
F 2 "Capacitors_SMD:C_0603_HandSoldering" H 1588 4100 50  0001 C CNN
F 3 "~" H 1550 4250 50  0001 C CNN
	1    1550 4250
	1    0    0    -1  
$EndComp
$Comp
L Device:R R5
U 1 1 5B84DA4E
P 1950 2250
F 0 "R5" H 2020 2296 50  0000 L CNN
F 1 "15K" H 2020 2205 50  0000 L CNN
F 2 "Resistors_SMD:R_0603_HandSoldering" V 1880 2250 50  0001 C CNN
F 3 "~" H 1950 2250 50  0001 C CNN
	1    1950 2250
	1    0    0    -1  
$EndComp
$Comp
L Device:CP C5
U 1 1 5B84DB30
P 1950 1750
F 0 "C5" H 1725 1850 50  0000 L CNN
F 1 "100uF/6V" H 1675 1625 50  0000 L CNN
F 2 "Capacitors_Tantalum_SMD:CP_Tantalum_Case-B_EIA-3528-21_Hand" H 1988 1600 50  0001 C CNN
F 3 "" H 1950 1750 50  0001 C CNN
	1    1950 1750
	1    0    0    -1  
$EndComp
$Comp
L Device:R R4
U 1 1 5B84DBE3
P 1950 1250
F 0 "R4" H 2020 1296 50  0000 L CNN
F 1 "390K" H 2020 1205 50  0000 L CNN
F 2 "Resistors_SMD:R_0603_HandSoldering" V 1880 1250 50  0001 C CNN
F 3 "~" H 1950 1250 50  0001 C CNN
	1    1950 1250
	1    0    0    -1  
$EndComp
$Comp
L Device:R R6
U 1 1 5B84DC81
P 2350 1250
F 0 "R6" H 2420 1296 50  0000 L CNN
F 1 "33K" H 2420 1205 50  0000 L CNN
F 2 "Resistors_SMD:R_0603_HandSoldering" V 2280 1250 50  0001 C CNN
F 3 "~" H 2350 1250 50  0001 C CNN
	1    2350 1250
	1    0    0    -1  
$EndComp
$Comp
L Device:C C6
U 1 1 5B84DD2C
P 2350 850
F 0 "C6" H 2465 896 50  0000 L CNN
F 1 "10nF" H 2400 750 50  0000 L CNN
F 2 "Capacitors_SMD:C_1206_HandSoldering" H 2388 700 50  0001 C CNN
F 3 "https://hu.farnell.com/kemet/ldbca2100jc5n0/cap-0-01-f-50v-5-pps-1206/dp/2446084" H 2350 850 50  0001 C CNN
	1    2350 850 
	1    0    0    -1  
$EndComp
$Comp
L Device:C C7
U 1 1 5B84DDA6
P 2750 850
F 0 "C7" H 2865 896 50  0000 L CNN
F 1 "3,3nF" H 2800 750 50  0000 L CNN
F 2 "Capacitors_SMD:C_1206_HandSoldering" H 2788 700 50  0001 C CNN
F 3 "https://hu.farnell.com/panasonic-electronic-components/echu1h332gx5/cap-3300pf-50v-2-pps-1206-smd/dp/9695303" H 2750 850 50  0001 C CNN
	1    2750 850 
	1    0    0    -1  
$EndComp
$Comp
L Device:Q_NPN_BEC Q3
U 1 1 5B84DEBF
P 3050 1200
F 0 "Q3" H 3241 1246 50  0000 L CNN
F 1 "BC850C" H 3241 1155 50  0000 L CNN
F 2 "TO_SOT_Packages_SMD:SOT-23" H 3250 1300 50  0001 C CNN
F 3 "~" H 3050 1200 50  0001 C CNN
	1    3050 1200
	1    0    0    -1  
$EndComp
$Comp
L Device:R R10
U 1 1 5B84E004
P 3150 2250
F 0 "R10" H 3220 2296 50  0000 L CNN
F 1 "470" H 3220 2205 50  0000 L CNN
F 2 "Resistors_SMD:R_0603_HandSoldering" V 3080 2250 50  0001 C CNN
F 3 "~" H 3150 2250 50  0001 C CNN
	1    3150 2250
	1    0    0    -1  
$EndComp
$Comp
L Device:R R9
U 1 1 5B84E0D2
P 3150 1750
F 0 "R9" H 3220 1796 50  0000 L CNN
F 1 "470" H 3220 1705 50  0000 L CNN
F 2 "Resistors_SMD:R_0603_HandSoldering" V 3080 1750 50  0001 C CNN
F 3 "~" H 3150 1750 50  0001 C CNN
	1    3150 1750
	1    0    0    -1  
$EndComp
$Comp
L Device:R R7
U 1 1 5B84E14E
P 2350 1750
F 0 "R7" H 2420 1796 50  0000 L CNN
F 1 "51K" H 2420 1705 50  0000 L CNN
F 2 "Resistors_SMD:R_0603_HandSoldering" V 2280 1750 50  0001 C CNN
F 3 "~" H 2350 1750 50  0001 C CNN
	1    2350 1750
	1    0    0    -1  
$EndComp
$Comp
L Device:Q_PNP_BEC Q4
U 1 1 5B84E3C3
P 3050 2700
F 0 "Q4" H 3241 2654 50  0000 L CNN
F 1 "BC860C" H 3241 2745 50  0000 L CNN
F 2 "TO_SOT_Packages_SMD:SOT-23" H 3250 2800 50  0001 C CNN
F 3 "~" H 3050 2700 50  0001 C CNN
	1    3050 2700
	1    0    0    1   
$EndComp
$Comp
L Device:R R12
U 1 1 5B84E4AF
P 3350 1500
F 0 "R12" V 3250 1500 50  0000 C CNN
F 1 "2,2K" V 3450 1500 50  0000 C CNN
F 2 "Resistors_SMD:R_0603_HandSoldering" V 3280 1500 50  0001 C CNN
F 3 "~" H 3350 1500 50  0001 C CNN
	1    3350 1500
	0    1    1    0   
$EndComp
$Comp
L Device:R R14
U 1 1 5B84E5DD
P 3550 4250
F 0 "R14" H 3620 4296 50  0000 L CNN
F 1 "10K" H 3620 4205 50  0000 L CNN
F 2 "Resistors_SMD:R_0603_HandSoldering" V 3480 4250 50  0001 C CNN
F 3 "~" H 3550 4250 50  0001 C CNN
	1    3550 4250
	1    0    0    -1  
$EndComp
$Comp
L Device:R R11
U 1 1 5B84E707
P 3150 4250
F 0 "R11" H 3220 4296 50  0000 L CNN
F 1 "330" H 3220 4205 50  0000 L CNN
F 2 "Resistors_SMD:R_0603_HandSoldering" V 3080 4250 50  0001 C CNN
F 3 "~" H 3150 4250 50  0001 C CNN
	1    3150 4250
	1    0    0    -1  
$EndComp
$Comp
L Device:CP C8
U 1 1 5B84E7BA
P 3950 4250
F 0 "C8" H 4068 4296 50  0000 L CNN
F 1 "22uF/6V" H 3975 4150 50  0000 L CNN
F 2 "Capacitors_Tantalum_SMD:CP_Tantalum_Case-B_EIA-3528-21_Hand" H 3988 4100 50  0001 C CNN
F 3 "~" H 3950 4250 50  0001 C CNN
	1    3950 4250
	1    0    0    -1  
$EndComp
$Comp
L Device:CP C12
U 1 1 5B84E9B4
P 3950 2925
F 0 "C12" H 4068 2971 50  0000 L CNN
F 1 "22uF" H 4068 2880 50  0000 L CNN
F 2 "Capacitors_SMD:CP_Elec_6.3x5.3" H 3988 2775 50  0001 C CNN
F 3 "~" H 3950 2925 50  0001 C CNN
	1    3950 2925
	1    0    0    -1  
$EndComp
$Comp
L Device:R R15
U 1 1 5B84EA79
P 3800 600
F 0 "R15" V 3900 475 50  0000 C CNN
F 1 "4,7K" V 3900 700 50  0000 C CNN
F 2 "Resistors_SMD:R_1206_HandSoldering" V 3730 600 50  0001 C CNN
F 3 "~" H 3800 600 50  0001 C CNN
	1    3800 600 
	0    1    1    0   
$EndComp
$Comp
L Device:R R8
U 1 1 5B84EB5D
P 3100 600
F 0 "R8" V 3200 500 50  0000 C CNN
F 1 "22K" V 3200 725 50  0000 C CNN
F 2 "Resistors_SMD:R_1206_HandSoldering" V 3030 600 50  0001 C CNN
F 3 "~" H 3100 600 50  0001 C CNN
	1    3100 600 
	0    1    1    0   
$EndComp
$Comp
L Device:R R17
U 1 1 5B84ED6A
P 4450 1975
F 0 "R17" H 4520 2021 50  0000 L CNN
F 1 "100K" H 4520 1930 50  0000 L CNN
F 2 "Resistors_SMD:R_0603_HandSoldering" V 4380 1975 50  0001 C CNN
F 3 "~" H 4450 1975 50  0001 C CNN
	1    4450 1975
	1    0    0    -1  
$EndComp
$Comp
L Device:CP C3
U 1 1 5B84EE49
P 1550 850
F 0 "C3" H 1600 950 50  0000 L CNN
F 1 "10uF/50V" H 1575 725 50  0000 L CNN
F 2 "Capacitors_Tantalum_SMD:CP_Tantalum_Case-V_EIA-7343-20_Hand" H 1588 700 50  0001 C CNN
F 3 "https://hu.farnell.com/nichicon/uwx1h100mcl1gb/cap-10-f-50v-smd/dp/2841976" H 1550 850 50  0001 C CNN
	1    1550 850 
	1    0    0    -1  
$EndComp
$Comp
L Device:R R13
U 1 1 5B852785
P 3550 2950
F 0 "R13" H 3620 2996 50  0000 L CNN
F 1 "120K" H 3620 2905 50  0000 L CNN
F 2 "Resistors_SMD:R_0603_HandSoldering" V 3480 2950 50  0001 C CNN
F 3 "~" H 3550 2950 50  0001 C CNN
	1    3550 2950
	1    0    0    -1  
$EndComp
$Comp
L power:GNDA #PWR01
U 1 1 5B852F44
P 875 4500
F 0 "#PWR01" H 875 4250 50  0001 C CNN
F 1 "GNDA" H 880 4327 50  0000 C CNN
F 2 "" H 875 4500 50  0001 C CNN
F 3 "" H 875 4500 50  0001 C CNN
	1    875  4500
	1    0    0    -1  
$EndComp
$Comp
L power:GNDA #PWR03
U 1 1 5B852FA8
P 1275 4500
F 0 "#PWR03" H 1275 4250 50  0001 C CNN
F 1 "GNDA" H 1280 4327 50  0000 C CNN
F 2 "" H 1275 4500 50  0001 C CNN
F 3 "" H 1275 4500 50  0001 C CNN
	1    1275 4500
	1    0    0    -1  
$EndComp
$Comp
L power:GNDA #PWR07
U 1 1 5B85300C
P 1550 4500
F 0 "#PWR07" H 1550 4250 50  0001 C CNN
F 1 "GNDA" H 1555 4327 50  0000 C CNN
F 2 "" H 1550 4500 50  0001 C CNN
F 3 "" H 1550 4500 50  0001 C CNN
	1    1550 4500
	1    0    0    -1  
$EndComp
$Comp
L power:GNDA #PWR010
U 1 1 5B853070
P 3150 4500
F 0 "#PWR010" H 3150 4250 50  0001 C CNN
F 1 "GNDA" H 3155 4327 50  0000 C CNN
F 2 "" H 3150 4500 50  0001 C CNN
F 3 "" H 3150 4500 50  0001 C CNN
	1    3150 4500
	1    0    0    -1  
$EndComp
$Comp
L power:GNDA #PWR012
U 1 1 5B8530D4
P 3550 4500
F 0 "#PWR012" H 3550 4250 50  0001 C CNN
F 1 "GNDA" H 3555 4327 50  0000 C CNN
F 2 "" H 3550 4500 50  0001 C CNN
F 3 "" H 3550 4500 50  0001 C CNN
	1    3550 4500
	1    0    0    -1  
$EndComp
$Comp
L power:GNDA #PWR014
U 1 1 5B853138
P 3950 4500
F 0 "#PWR014" H 3950 4250 50  0001 C CNN
F 1 "GNDA" H 3955 4327 50  0000 C CNN
F 2 "" H 3950 4500 50  0001 C CNN
F 3 "" H 3950 4500 50  0001 C CNN
	1    3950 4500
	1    0    0    -1  
$EndComp
$Comp
L power:GNDA #PWR019
U 1 1 5B853200
P 3950 3175
F 0 "#PWR019" H 3950 2925 50  0001 C CNN
F 1 "GNDA" H 3955 3002 50  0000 C CNN
F 2 "" H 3950 3175 50  0001 C CNN
F 3 "" H 3950 3175 50  0001 C CNN
	1    3950 3175
	1    0    0    -1  
$EndComp
$Comp
L power:GNDA #PWR06
U 1 1 5B8532C8
P 1550 1100
F 0 "#PWR06" H 1550 850 50  0001 C CNN
F 1 "GNDA" H 1555 927 50  0000 C CNN
F 2 "" H 1550 1100 50  0001 C CNN
F 3 "" H 1550 1100 50  0001 C CNN
	1    1550 1100
	1    0    0    -1  
$EndComp
$Comp
L power:GNDA #PWR017
U 1 1 5B85332C
P 4450 2225
F 0 "#PWR017" H 4450 1975 50  0001 C CNN
F 1 "GNDA" H 4455 2052 50  0000 C CNN
F 2 "" H 4450 2225 50  0001 C CNN
F 3 "" H 4450 2225 50  0001 C CNN
	1    4450 2225
	1    0    0    -1  
$EndComp
Wire Wire Line
	875  4400 875  4500
Wire Wire Line
	925  4000 875  4000
Wire Wire Line
	875  4000 875  4100
Wire Wire Line
	1225 4000 1275 4000
Wire Wire Line
	1550 3900 1550 4000
Connection ~ 1550 4000
Wire Wire Line
	1550 4000 1650 4000
Wire Wire Line
	1550 4000 1550 4100
Wire Wire Line
	1550 4400 1550 4500
Wire Wire Line
	1275 4400 1275 4500
Wire Wire Line
	1275 4000 1275 4100
Connection ~ 1275 4000
Wire Wire Line
	1275 4000 1550 4000
$Comp
L power:GNDA #PWR08
U 1 1 5B85359C
P 1950 4500
F 0 "#PWR08" H 1950 4250 50  0001 C CNN
F 1 "GNDA" H 1955 4327 50  0000 C CNN
F 2 "" H 1950 4500 50  0001 C CNN
F 3 "" H 1950 4500 50  0001 C CNN
	1    1950 4500
	1    0    0    -1  
$EndComp
Wire Wire Line
	1950 4200 1950 4500
Wire Wire Line
	1950 2900 1950 3700
Wire Wire Line
	1950 3700 2850 3700
Connection ~ 1950 3700
Wire Wire Line
	1950 3700 1950 3800
Wire Wire Line
	3150 3900 3150 4100
Wire Wire Line
	3150 4400 3150 4500
Wire Wire Line
	3150 3400 3150 3500
Wire Wire Line
	3150 2900 3150 2950
Wire Wire Line
	3550 3100 3550 3200
Wire Wire Line
	3550 4400 3550 4500
Wire Wire Line
	3450 3200 3550 3200
Connection ~ 3550 3200
Wire Wire Line
	3550 3200 3550 3450
Wire Wire Line
	1550 3600 1550 3450
Wire Wire Line
	1550 3450 3550 3450
Connection ~ 3550 3450
Wire Wire Line
	3550 3450 3550 4100
Wire Wire Line
	3550 3450 3950 3450
Wire Wire Line
	3950 4400 3950 4500
Wire Wire Line
	3950 4100 3950 3450
Wire Wire Line
	1550 1000 1550 1100
Wire Wire Line
	1950 2400 1950 2500
Wire Wire Line
	1950 1900 1950 2000
Wire Wire Line
	1950 1400 1950 1500
Wire Wire Line
	2350 1000 2350 1100
Wire Wire Line
	2350 1400 2350 1500
Wire Wire Line
	2950 600  2750 600 
Wire Wire Line
	1550 700  1550 600 
Wire Wire Line
	1950 1100 1950 600 
Connection ~ 1950 600 
Wire Wire Line
	1950 600  1550 600 
Wire Wire Line
	1950 1500 2350 1500
Connection ~ 1950 1500
Wire Wire Line
	1950 1500 1950 1600
Connection ~ 2350 1500
Wire Wire Line
	2350 1500 2350 1600
Wire Wire Line
	2350 1500 2750 1500
Wire Wire Line
	2750 1500 2750 1200
Wire Wire Line
	2850 1200 2750 1200
Connection ~ 2750 1200
Wire Wire Line
	2750 1200 2750 1000
Wire Wire Line
	2350 700  2350 600 
Connection ~ 2350 600 
Wire Wire Line
	2350 600  1950 600 
Wire Wire Line
	2750 700  2750 600 
Connection ~ 2750 600 
Wire Wire Line
	2750 600  2350 600 
Wire Wire Line
	3250 600  3550 600 
Wire Wire Line
	3550 2800 3550 2700
Connection ~ 3550 600 
Wire Wire Line
	3550 600  3650 600 
Wire Wire Line
	3150 1400 3150 1500
Wire Wire Line
	3150 1900 3150 2000
Wire Wire Line
	2250 2700 2750 2700
Wire Wire Line
	2750 2700 2750 2950
Wire Wire Line
	2750 2950 3150 2950
Connection ~ 2750 2700
Wire Wire Line
	2750 2700 2850 2700
Connection ~ 3150 2950
Wire Wire Line
	3150 2950 3150 3000
Wire Wire Line
	3150 2400 3150 2500
Wire Wire Line
	3150 1000 3150 900 
Wire Wire Line
	3150 900  3900 900 
Wire Wire Line
	4050 900  4050 600 
Wire Wire Line
	4050 600  3950 600 
Wire Wire Line
	3150 1500 3200 1500
Connection ~ 3150 1500
Wire Wire Line
	3150 1500 3150 1600
Wire Wire Line
	4350 1725 4450 1725
Wire Wire Line
	4450 1725 4450 1825
Wire Wire Line
	4450 2125 4450 2225
Wire Wire Line
	1950 2000 2350 2000
Connection ~ 1950 2000
Wire Wire Line
	1950 2000 1950 2100
Connection ~ 3150 2000
Wire Wire Line
	3150 2000 3150 2100
Wire Wire Line
	2350 1900 2350 2000
Connection ~ 2350 2000
Wire Wire Line
	2350 2000 3150 2000
Wire Wire Line
	3950 3175 3950 3075
Wire Wire Line
	3950 2775 3950 2700
Wire Wire Line
	3950 2700 3550 2700
Connection ~ 3550 2700
Wire Wire Line
	3550 2700 3550 600 
$Comp
L Connector_Generic:Conn_01x04 J1
U 1 1 5B8745C4
P 10300 875
F 0 "J1" H 10220 1192 50  0000 C CNN
F 1 "IN" H 10220 1101 50  0000 C CNN
F 2 "Connectors_JST:JST_EH_B04B-EH-A_04x2.50mm_Straight" H 10300 875 50  0001 C CNN
F 3 "~" H 10300 875 50  0001 C CNN
	1    10300 875 
	-1   0    0    -1  
$EndComp
$Comp
L Connector_Generic:Conn_01x04 J2
U 1 1 5B87471F
P 10900 1700
F 0 "J2" H 10980 1742 50  0000 L CNN
F 1 "OUT" H 10980 1651 50  0000 L CNN
F 2 "Connectors_JST:JST_EH_B04B-EH-A_04x2.50mm_Straight" H 10900 1700 50  0001 C CNN
F 3 "~" H 10900 1700 50  0001 C CNN
	1    10900 1700
	1    0    0    -1  
$EndComp
Text GLabel 775  4000 0    50   Input ~ 0
INL
Text GLabel 4650 1725 2    50   Input ~ 0
OUTL
Text GLabel 10600 775  2    50   Input ~ 0
INL
Text GLabel 10600 1600 0    50   Input ~ 0
OUTL
Text GLabel 10600 1075 2    50   Input ~ 0
INR
Text GLabel 10600 1900 0    50   Input ~ 0
OUTR
$Comp
L power:GNDA #PWR05
U 1 1 5B874BB7
P 10200 1900
F 0 "#PWR05" H 10200 1650 50  0001 C CNN
F 1 "GNDA" H 10205 1727 50  0000 C CNN
F 2 "" H 10200 1900 50  0001 C CNN
F 3 "" H 10200 1900 50  0001 C CNN
	1    10200 1900
	1    0    0    -1  
$EndComp
$Comp
L power:GNDA #PWR02
U 1 1 5B874C1F
P 10900 1075
F 0 "#PWR02" H 10900 825 50  0001 C CNN
F 1 "GNDA" H 10905 902 50  0000 C CNN
F 2 "" H 10900 1075 50  0001 C CNN
F 3 "" H 10900 1075 50  0001 C CNN
	1    10900 1075
	1    0    0    -1  
$EndComp
Wire Wire Line
	10700 1700 10200 1700
Wire Wire Line
	10200 1700 10200 1800
Wire Wire Line
	10600 1600 10700 1600
Wire Wire Line
	10600 1900 10700 1900
Wire Wire Line
	10500 775  10600 775 
Wire Wire Line
	10500 875  10900 875 
Wire Wire Line
	10900 875  10900 975 
Wire Wire Line
	10500 1075 10600 1075
Wire Wire Line
	775  4000 875  4000
Connection ~ 875  4000
Wire Wire Line
	4450 1725 4650 1725
Connection ~ 4450 1725
Wire Wire Line
	3500 1500 3600 1500
Wire Wire Line
	3900 1300 3900 900 
Connection ~ 3900 900 
Wire Wire Line
	3900 900  4050 900 
$Comp
L Device:R R16
U 1 1 5C163C12
P 3900 1925
F 0 "R16" H 3700 1975 50  0000 L CNN
F 1 "4,3K" H 3650 1875 50  0000 L CNN
F 2 "Resistors_SMD:R_0603_HandSoldering" V 3830 1925 50  0001 C CNN
F 3 "~" H 3900 1925 50  0001 C CNN
	1    3900 1925
	1    0    0    -1  
$EndComp
$Comp
L power:GNDA #PWR013
U 1 1 5C163C18
P 3900 2175
F 0 "#PWR013" H 3900 1925 50  0001 C CNN
F 1 "GNDA" H 3905 2002 50  0000 C CNN
F 2 "" H 3900 2175 50  0001 C CNN
F 3 "" H 3900 2175 50  0001 C CNN
	1    3900 2175
	1    0    0    -1  
$EndComp
Wire Wire Line
	3900 2075 3900 2175
Wire Wire Line
	3900 1700 3900 1725
Wire Wire Line
	3900 1725 4050 1725
Connection ~ 3900 1725
Wire Wire Line
	3900 1725 3900 1775
Wire Wire Line
	10700 1800 10200 1800
Connection ~ 10200 1800
Wire Wire Line
	10200 1800 10200 1900
Wire Wire Line
	10500 975  10900 975 
Connection ~ 10900 975 
Wire Wire Line
	10900 975  10900 1075
$Comp
L conn:Conn_01x02 J3
U 1 1 5C5EE39E
P 8850 2875
F 0 "J3" H 8930 2917 50  0000 L CNN
F 1 "PWR" H 8930 2826 50  0000 L CNN
F 2 "Connectors_JST:JST_EH_B02B-EH-A_02x2.50mm_Straight" H 8850 2875 50  0001 C CNN
F 3 "~" H 8850 2875 50  0001 C CNN
	1    8850 2875
	-1   0    0    -1  
$EndComp
Wire Wire Line
	9050 2975 9075 2975
Wire Wire Line
	9050 2875 9075 2875
$Comp
L Device:C C2
U 1 1 5C712F4F
P 1225 850
F 0 "C2" H 1275 950 50  0000 L CNN
F 1 "68nF" H 1000 750 50  0000 L CNN
F 2 "Capacitors_SMD:C_1812_HandSoldering" H 1263 700 50  0001 C CNN
F 3 "https://hu.farnell.com/panasonic-electronic-components/echu1h683jx9/cap-0-068-f-50v-5-pps-1913/dp/1855057" H 1225 850 50  0001 C CNN
	1    1225 850 
	1    0    0    -1  
$EndComp
$Comp
L power:GNDA #PWR04
U 1 1 5C712F55
P 1225 1100
F 0 "#PWR04" H 1225 850 50  0001 C CNN
F 1 "GNDA" H 1230 927 50  0000 C CNN
F 2 "" H 1225 1100 50  0001 C CNN
F 3 "" H 1225 1100 50  0001 C CNN
	1    1225 1100
	1    0    0    -1  
$EndComp
Wire Wire Line
	1225 1000 1225 1100
Wire Wire Line
	1225 700  1225 600 
$Comp
L power:GNDA #PWR016
U 1 1 5C72ABD5
P 4400 4500
F 0 "#PWR016" H 4400 4250 50  0001 C CNN
F 1 "GNDA" H 4405 4327 50  0000 C CNN
F 2 "" H 4400 4500 50  0001 C CNN
F 3 "" H 4400 4500 50  0001 C CNN
	1    4400 4500
	1    0    0    -1  
$EndComp
Wire Wire Line
	4400 4400 4400 4500
Wire Wire Line
	1225 600  1550 600 
Connection ~ 1550 600 
Wire Wire Line
	3950 3450 4400 3450
Wire Wire Line
	4400 3450 4400 4100
Connection ~ 3950 3450
$Comp
L Device:CP C1
U 1 1 5C789C6A
P 1075 4000
F 0 "C1" H 850 4125 50  0000 L CNN
F 1 "10uF/6V" H 725 3900 50  0000 L CNN
F 2 "Capacitors_Tantalum_SMD:CP_Tantalum_Case-B_EIA-3528-21_Hand" H 1113 3850 50  0001 C CNN
F 3 "https://hu.farnell.com/nichicon/uwx1h100mcl1gb/cap-10-f-50v-smd/dp/2841976" H 1075 4000 50  0001 C CNN
	1    1075 4000
	0    1    1    0   
$EndComp
$Comp
L Device:CP C9
U 1 1 5C796DF0
P 4200 1725
F 0 "C9" H 4075 1875 50  0000 L CNN
F 1 "10uF/35V" H 3800 1600 50  0000 L CNN
F 2 "Capacitors_Tantalum_SMD:CP_Tantalum_Case-D_EIA-7343-31_Hand" H 4238 1575 50  0001 C CNN
F 3 "" H 4200 1725 50  0001 C CNN
	1    4200 1725
	0    -1   -1   0   
$EndComp
$Comp
L Device:C C11
U 1 1 5C797535
P 4400 4250
F 0 "C11" H 4450 4350 50  0000 L CNN
F 1 "68nF" H 4475 4150 50  0000 L CNN
F 2 "Capacitors_SMD:C_1812_HandSoldering" H 4438 4100 50  0001 C CNN
F 3 "https://hu.farnell.com/panasonic-electronic-components/echu1h683jx9/cap-0-068-f-50v-5-pps-1913/dp/1855057" H 4400 4250 50  0001 C CNN
	1    4400 4250
	1    0    0    -1  
$EndComp
$Comp
L Device:Q_PNP_BEC Q2
U 1 1 5C7B1C8D
P 2050 2700
F 0 "Q2" H 2241 2654 50  0000 L CNN
F 1 "BC860C" H 2241 2745 50  0000 L CNN
F 2 "TO_SOT_Packages_SMD:SOT-23" H 2250 2800 50  0001 C CNN
F 3 "~" H 2050 2700 50  0001 C CNN
	1    2050 2700
	-1   0    0    1   
$EndComp
$Comp
L Device:Q_PNP_BEC Q1
U 1 1 5C7BF091
P 1850 4000
F 0 "Q1" H 2041 3954 50  0000 L CNN
F 1 "BC860C" H 2041 4045 50  0000 L CNN
F 2 "TO_SOT_Packages_SMD:SOT-23" H 2050 4100 50  0001 C CNN
F 3 "~" H 1850 4000 50  0001 C CNN
	1    1850 4000
	1    0    0    1   
$EndComp
$Comp
L Device:Q_NPN_BEC Q6
U 1 1 5C7CC22C
P 3250 3200
F 0 "Q6" H 3441 3246 50  0000 L CNN
F 1 "BC850C" H 3441 3155 50  0000 L CNN
F 2 "TO_SOT_Packages_SMD:SOT-23" H 3450 3300 50  0001 C CNN
F 3 "~" H 3250 3200 50  0001 C CNN
	1    3250 3200
	-1   0    0    -1  
$EndComp
$Comp
L Device:Q_NPN_BEC Q5
U 1 1 5C7E634A
P 3050 3700
F 0 "Q5" H 3241 3746 50  0000 L CNN
F 1 "BC850C" H 3241 3655 50  0000 L CNN
F 2 "TO_SOT_Packages_SMD:SOT-23" H 3250 3800 50  0001 C CNN
F 3 "~" H 3050 3700 50  0001 C CNN
	1    3050 3700
	1    0    0    -1  
$EndComp
$Comp
L Device:Q_NPN_BEC Q7
U 1 1 5C7F34F5
P 3800 1500
F 0 "Q7" H 3991 1546 50  0000 L CNN
F 1 "BC850C" H 3991 1455 50  0000 L CNN
F 2 "TO_SOT_Packages_SMD:SOT-23" H 4000 1600 50  0001 C CNN
F 3 "~" H 3800 1500 50  0001 C CNN
	1    3800 1500
	1    0    0    -1  
$EndComp
$Comp
L Device:R R19
U 1 1 5C80A42F
P 5075 4250
F 0 "R19" H 5145 4296 50  0000 L CNN
F 1 "150K" H 5145 4205 50  0000 L CNN
F 2 "Resistors_SMD:R_0603_HandSoldering" V 5005 4250 50  0001 C CNN
F 3 "~" H 5075 4250 50  0001 C CNN
	1    5075 4250
	1    0    0    -1  
$EndComp
$Comp
L Device:R R20
U 1 1 5C80A435
P 5475 4250
F 0 "R20" H 5500 4400 50  0000 L CNN
F 1 "110K" H 5500 4100 50  0000 L CNN
F 2 "Resistors_SMD:R_0603_HandSoldering" V 5405 4250 50  0001 C CNN
F 3 "~" H 5475 4250 50  0001 C CNN
	1    5475 4250
	1    0    0    -1  
$EndComp
$Comp
L Device:R R21
U 1 1 5C80A43B
P 5725 3750
F 0 "R21" H 5795 3796 50  0000 L CNN
F 1 "220K" H 5795 3705 50  0000 L CNN
F 2 "Resistors_SMD:R_0603_HandSoldering" V 5655 3750 50  0001 C CNN
F 3 "~" H 5725 3750 50  0001 C CNN
	1    5725 3750
	1    0    0    -1  
$EndComp
$Comp
L Device:C C16
U 1 1 5C80A441
P 5725 4250
F 0 "C16" H 5840 4296 50  0000 L CNN
F 1 "33pF" H 5840 4205 50  0000 L CNN
F 2 "Capacitors_SMD:C_0603_HandSoldering" H 5763 4100 50  0001 C CNN
F 3 "~" H 5725 4250 50  0001 C CNN
	1    5725 4250
	1    0    0    -1  
$EndComp
$Comp
L Device:R R23
U 1 1 5C80A447
P 6125 2250
F 0 "R23" H 6195 2296 50  0000 L CNN
F 1 "15K" H 6195 2205 50  0000 L CNN
F 2 "Resistors_SMD:R_0603_HandSoldering" V 6055 2250 50  0001 C CNN
F 3 "~" H 6125 2250 50  0001 C CNN
	1    6125 2250
	1    0    0    -1  
$EndComp
$Comp
L Device:CP C17
U 1 1 5C80A44D
P 6125 1750
F 0 "C17" H 5900 1850 50  0000 L CNN
F 1 "100uF" H 5850 1625 50  0000 L CNN
F 2 "Capacitors_Tantalum_SMD:CP_Tantalum_Case-B_EIA-3528-21_Hand" H 6163 1600 50  0001 C CNN
F 3 "" H 6125 1750 50  0001 C CNN
	1    6125 1750
	1    0    0    -1  
$EndComp
$Comp
L Device:R R22
U 1 1 5C80A453
P 6125 1250
F 0 "R22" H 6195 1296 50  0000 L CNN
F 1 "390K" H 6195 1205 50  0000 L CNN
F 2 "Resistors_SMD:R_0603_HandSoldering" V 6055 1250 50  0001 C CNN
F 3 "~" H 6125 1250 50  0001 C CNN
	1    6125 1250
	1    0    0    -1  
$EndComp
$Comp
L Device:R R24
U 1 1 5C80A459
P 6525 1250
F 0 "R24" H 6595 1296 50  0000 L CNN
F 1 "33K" H 6595 1205 50  0000 L CNN
F 2 "Resistors_SMD:R_0603_HandSoldering" V 6455 1250 50  0001 C CNN
F 3 "~" H 6525 1250 50  0001 C CNN
	1    6525 1250
	1    0    0    -1  
$EndComp
$Comp
L Device:C C18
U 1 1 5C80A45F
P 6525 850
F 0 "C18" H 6640 896 50  0000 L CNN
F 1 "10nF" H 6575 750 50  0000 L CNN
F 2 "Capacitors_SMD:C_1206_HandSoldering" H 6563 700 50  0001 C CNN
F 3 "https://hu.farnell.com/kemet/ldbca2100jc5n0/cap-0-01-f-50v-5-pps-1206/dp/2446084" H 6525 850 50  0001 C CNN
	1    6525 850 
	1    0    0    -1  
$EndComp
$Comp
L Device:C C19
U 1 1 5C80A465
P 6925 850
F 0 "C19" H 7040 896 50  0000 L CNN
F 1 "3,3nF" H 6975 750 50  0000 L CNN
F 2 "Capacitors_SMD:C_1206_HandSoldering" H 6963 700 50  0001 C CNN
F 3 "https://hu.farnell.com/panasonic-electronic-components/echu1h332gx5/cap-3300pf-50v-2-pps-1206-smd/dp/9695303" H 6925 850 50  0001 C CNN
	1    6925 850 
	1    0    0    -1  
$EndComp
$Comp
L Device:Q_NPN_BEC Q11
U 1 1 5C80A46B
P 7225 1200
F 0 "Q11" H 7416 1246 50  0000 L CNN
F 1 "BC850C" H 7416 1155 50  0000 L CNN
F 2 "TO_SOT_Packages_SMD:SOT-23" H 7425 1300 50  0001 C CNN
F 3 "~" H 7225 1200 50  0001 C CNN
	1    7225 1200
	1    0    0    -1  
$EndComp
$Comp
L Device:R R28
U 1 1 5C80A471
P 7325 2250
F 0 "R28" H 7395 2296 50  0000 L CNN
F 1 "470" H 7395 2205 50  0000 L CNN
F 2 "Resistors_SMD:R_0603_HandSoldering" V 7255 2250 50  0001 C CNN
F 3 "~" H 7325 2250 50  0001 C CNN
	1    7325 2250
	1    0    0    -1  
$EndComp
$Comp
L Device:R R27
U 1 1 5C80A477
P 7325 1750
F 0 "R27" H 7395 1796 50  0000 L CNN
F 1 "470" H 7395 1705 50  0000 L CNN
F 2 "Resistors_SMD:R_0603_HandSoldering" V 7255 1750 50  0001 C CNN
F 3 "~" H 7325 1750 50  0001 C CNN
	1    7325 1750
	1    0    0    -1  
$EndComp
$Comp
L Device:R R25
U 1 1 5C80A47D
P 6525 1750
F 0 "R25" H 6595 1796 50  0000 L CNN
F 1 "51K" H 6595 1705 50  0000 L CNN
F 2 "Resistors_SMD:R_0603_HandSoldering" V 6455 1750 50  0001 C CNN
F 3 "~" H 6525 1750 50  0001 C CNN
	1    6525 1750
	1    0    0    -1  
$EndComp
$Comp
L Device:Q_PNP_BEC Q12
U 1 1 5C80A483
P 7225 2700
F 0 "Q12" H 7416 2654 50  0000 L CNN
F 1 "BC860C" H 7416 2745 50  0000 L CNN
F 2 "TO_SOT_Packages_SMD:SOT-23" H 7425 2800 50  0001 C CNN
F 3 "~" H 7225 2700 50  0001 C CNN
	1    7225 2700
	1    0    0    1   
$EndComp
$Comp
L Device:R R30
U 1 1 5C80A489
P 7525 1500
F 0 "R30" V 7425 1500 50  0000 C CNN
F 1 "2,2K" V 7625 1500 50  0000 C CNN
F 2 "Resistors_SMD:R_0603_HandSoldering" V 7455 1500 50  0001 C CNN
F 3 "~" H 7525 1500 50  0001 C CNN
	1    7525 1500
	0    1    1    0   
$EndComp
$Comp
L Device:R R32
U 1 1 5C80A48F
P 7725 4250
F 0 "R32" H 7795 4296 50  0000 L CNN
F 1 "10K" H 7795 4205 50  0000 L CNN
F 2 "Resistors_SMD:R_0603_HandSoldering" V 7655 4250 50  0001 C CNN
F 3 "~" H 7725 4250 50  0001 C CNN
	1    7725 4250
	1    0    0    -1  
$EndComp
$Comp
L Device:R R29
U 1 1 5C80A495
P 7325 4250
F 0 "R29" H 7395 4296 50  0000 L CNN
F 1 "330" H 7395 4205 50  0000 L CNN
F 2 "Resistors_SMD:R_0603_HandSoldering" V 7255 4250 50  0001 C CNN
F 3 "~" H 7325 4250 50  0001 C CNN
	1    7325 4250
	1    0    0    -1  
$EndComp
$Comp
L Device:CP C20
U 1 1 5C80A49B
P 8125 4250
F 0 "C20" H 8175 4350 50  0000 L CNN
F 1 "22uF/6V" H 8175 4150 50  0000 L CNN
F 2 "Capacitors_Tantalum_SMD:CP_Tantalum_Case-B_EIA-3528-21_Hand" H 8163 4100 50  0001 C CNN
F 3 "~" H 8125 4250 50  0001 C CNN
	1    8125 4250
	1    0    0    -1  
$EndComp
$Comp
L Device:CP C24
U 1 1 5C80A4A1
P 8125 2900
F 0 "C24" H 8243 2946 50  0000 L CNN
F 1 "22uF" H 8243 2855 50  0000 L CNN
F 2 "Capacitors_SMD:CP_Elec_6.3x5.3" H 8163 2750 50  0001 C CNN
F 3 "~" H 8125 2900 50  0001 C CNN
	1    8125 2900
	1    0    0    -1  
$EndComp
$Comp
L Device:R R33
U 1 1 5C80A4A7
P 7975 600
F 0 "R33" V 8050 425 50  0000 C CNN
F 1 "4,7K" V 8050 750 50  0000 C CNN
F 2 "Resistors_SMD:R_1206_HandSoldering" V 7905 600 50  0001 C CNN
F 3 "~" H 7975 600 50  0001 C CNN
	1    7975 600 
	0    1    1    0   
$EndComp
$Comp
L Device:R R26
U 1 1 5C80A4AD
P 7275 600
F 0 "R26" V 7350 425 50  0000 C CNN
F 1 "22K" V 7350 775 50  0000 C CNN
F 2 "Resistors_SMD:R_1206_HandSoldering" V 7205 600 50  0001 C CNN
F 3 "~" H 7275 600 50  0001 C CNN
	1    7275 600 
	0    1    1    0   
$EndComp
$Comp
L Device:R R35
U 1 1 5C80A4B3
P 8625 1975
F 0 "R35" H 8695 2021 50  0000 L CNN
F 1 "100K" H 8695 1930 50  0000 L CNN
F 2 "Resistors_SMD:R_0603_HandSoldering" V 8555 1975 50  0001 C CNN
F 3 "~" H 8625 1975 50  0001 C CNN
	1    8625 1975
	1    0    0    -1  
$EndComp
$Comp
L Device:CP C15
U 1 1 5C80A4B9
P 5725 850
F 0 "C15" H 5775 950 50  0000 L CNN
F 1 "10uF/50V" H 5750 725 50  0000 L CNN
F 2 "Capacitors_Tantalum_SMD:CP_Tantalum_Case-V_EIA-7343-20_Hand" H 5763 700 50  0001 C CNN
F 3 "" H 5725 850 50  0001 C CNN
	1    5725 850 
	1    0    0    -1  
$EndComp
$Comp
L Device:R R31
U 1 1 5C80A4BF
P 7725 2950
F 0 "R31" H 7795 2996 50  0000 L CNN
F 1 "120K" H 7795 2905 50  0000 L CNN
F 2 "Resistors_SMD:R_0603_HandSoldering" V 7655 2950 50  0001 C CNN
F 3 "~" H 7725 2950 50  0001 C CNN
	1    7725 2950
	1    0    0    -1  
$EndComp
$Comp
L power:GNDA #PWR020
U 1 1 5C80A4C5
P 5075 4500
F 0 "#PWR020" H 5075 4250 50  0001 C CNN
F 1 "GNDA" H 5080 4327 50  0000 C CNN
F 2 "" H 5075 4500 50  0001 C CNN
F 3 "" H 5075 4500 50  0001 C CNN
	1    5075 4500
	1    0    0    -1  
$EndComp
$Comp
L power:GNDA #PWR021
U 1 1 5C80A4CB
P 5475 4500
F 0 "#PWR021" H 5475 4250 50  0001 C CNN
F 1 "GNDA" H 5480 4327 50  0000 C CNN
F 2 "" H 5475 4500 50  0001 C CNN
F 3 "" H 5475 4500 50  0001 C CNN
	1    5475 4500
	1    0    0    -1  
$EndComp
$Comp
L power:GNDA #PWR024
U 1 1 5C80A4D1
P 5725 4500
F 0 "#PWR024" H 5725 4250 50  0001 C CNN
F 1 "GNDA" H 5730 4327 50  0000 C CNN
F 2 "" H 5725 4500 50  0001 C CNN
F 3 "" H 5725 4500 50  0001 C CNN
	1    5725 4500
	1    0    0    -1  
$EndComp
$Comp
L power:GNDA #PWR026
U 1 1 5C80A4D7
P 7325 4500
F 0 "#PWR026" H 7325 4250 50  0001 C CNN
F 1 "GNDA" H 7330 4327 50  0000 C CNN
F 2 "" H 7325 4500 50  0001 C CNN
F 3 "" H 7325 4500 50  0001 C CNN
	1    7325 4500
	1    0    0    -1  
$EndComp
$Comp
L power:GNDA #PWR027
U 1 1 5C80A4DD
P 7725 4500
F 0 "#PWR027" H 7725 4250 50  0001 C CNN
F 1 "GNDA" H 7730 4327 50  0000 C CNN
F 2 "" H 7725 4500 50  0001 C CNN
F 3 "" H 7725 4500 50  0001 C CNN
	1    7725 4500
	1    0    0    -1  
$EndComp
$Comp
L power:GNDA #PWR029
U 1 1 5C80A4E3
P 8125 4500
F 0 "#PWR029" H 8125 4250 50  0001 C CNN
F 1 "GNDA" H 8130 4327 50  0000 C CNN
F 2 "" H 8125 4500 50  0001 C CNN
F 3 "" H 8125 4500 50  0001 C CNN
	1    8125 4500
	1    0    0    -1  
$EndComp
$Comp
L power:GNDA #PWR034
U 1 1 5C80A4E9
P 8125 3150
F 0 "#PWR034" H 8125 2900 50  0001 C CNN
F 1 "GNDA" H 8130 2977 50  0000 C CNN
F 2 "" H 8125 3150 50  0001 C CNN
F 3 "" H 8125 3150 50  0001 C CNN
	1    8125 3150
	1    0    0    -1  
$EndComp
$Comp
L power:GNDA #PWR023
U 1 1 5C80A4EF
P 5725 1100
F 0 "#PWR023" H 5725 850 50  0001 C CNN
F 1 "GNDA" H 5730 927 50  0000 C CNN
F 2 "" H 5725 1100 50  0001 C CNN
F 3 "" H 5725 1100 50  0001 C CNN
	1    5725 1100
	1    0    0    -1  
$EndComp
$Comp
L power:GNDA #PWR032
U 1 1 5C80A4F5
P 8625 2225
F 0 "#PWR032" H 8625 1975 50  0001 C CNN
F 1 "GNDA" H 8630 2052 50  0000 C CNN
F 2 "" H 8625 2225 50  0001 C CNN
F 3 "" H 8625 2225 50  0001 C CNN
	1    8625 2225
	1    0    0    -1  
$EndComp
Wire Wire Line
	5075 4400 5075 4500
Wire Wire Line
	5125 4000 5075 4000
Wire Wire Line
	5075 4000 5075 4100
Wire Wire Line
	5425 4000 5475 4000
Wire Wire Line
	5725 3900 5725 4000
Connection ~ 5725 4000
Wire Wire Line
	5725 4000 5825 4000
Wire Wire Line
	5725 4000 5725 4100
Wire Wire Line
	5725 4400 5725 4500
Wire Wire Line
	5475 4400 5475 4500
Wire Wire Line
	5475 4000 5475 4100
Connection ~ 5475 4000
Wire Wire Line
	5475 4000 5725 4000
$Comp
L power:GNDA #PWR025
U 1 1 5C80A508
P 6125 4500
F 0 "#PWR025" H 6125 4250 50  0001 C CNN
F 1 "GNDA" H 6130 4327 50  0000 C CNN
F 2 "" H 6125 4500 50  0001 C CNN
F 3 "" H 6125 4500 50  0001 C CNN
	1    6125 4500
	1    0    0    -1  
$EndComp
Wire Wire Line
	6125 4200 6125 4500
Wire Wire Line
	6125 2900 6125 3700
Wire Wire Line
	6125 3700 7025 3700
Connection ~ 6125 3700
Wire Wire Line
	6125 3700 6125 3800
Wire Wire Line
	7325 3900 7325 4100
Wire Wire Line
	7325 4400 7325 4500
Wire Wire Line
	7325 3400 7325 3500
Wire Wire Line
	7325 2900 7325 2950
Wire Wire Line
	7725 3100 7725 3200
Wire Wire Line
	7725 4400 7725 4500
Wire Wire Line
	7625 3200 7725 3200
Connection ~ 7725 3200
Wire Wire Line
	7725 3200 7725 3450
Wire Wire Line
	5725 3600 5725 3450
Wire Wire Line
	5725 3450 7725 3450
Connection ~ 7725 3450
Wire Wire Line
	7725 3450 7725 4100
Wire Wire Line
	7725 3450 8125 3450
Wire Wire Line
	8125 4400 8125 4500
Wire Wire Line
	8125 4100 8125 3450
Wire Wire Line
	5725 1000 5725 1100
Wire Wire Line
	6125 2400 6125 2500
Wire Wire Line
	6125 1900 6125 2000
Wire Wire Line
	6125 1400 6125 1500
Wire Wire Line
	6525 1000 6525 1100
Wire Wire Line
	6525 1400 6525 1500
Wire Wire Line
	7125 600  6925 600 
Wire Wire Line
	5725 700  5725 600 
Wire Wire Line
	6125 1100 6125 600 
Connection ~ 6125 600 
Wire Wire Line
	6125 600  5725 600 
Wire Wire Line
	6125 1500 6525 1500
Connection ~ 6125 1500
Wire Wire Line
	6125 1500 6125 1600
Connection ~ 6525 1500
Wire Wire Line
	6525 1500 6525 1600
Wire Wire Line
	6525 1500 6925 1500
Wire Wire Line
	6925 1500 6925 1200
Wire Wire Line
	7025 1200 6925 1200
Connection ~ 6925 1200
Wire Wire Line
	6925 1200 6925 1000
Wire Wire Line
	6525 700  6525 600 
Connection ~ 6525 600 
Wire Wire Line
	6525 600  6125 600 
Wire Wire Line
	6925 700  6925 600 
Connection ~ 6925 600 
Wire Wire Line
	6925 600  6525 600 
Wire Wire Line
	7425 600  7725 600 
Wire Wire Line
	7725 2800 7725 2700
Connection ~ 7725 600 
Wire Wire Line
	7725 600  7825 600 
Wire Wire Line
	7325 1400 7325 1500
Wire Wire Line
	7325 1900 7325 2000
Wire Wire Line
	6425 2700 6925 2700
Wire Wire Line
	6925 2700 6925 2950
Wire Wire Line
	6925 2950 7325 2950
Connection ~ 6925 2700
Wire Wire Line
	6925 2700 7025 2700
Connection ~ 7325 2950
Wire Wire Line
	7325 2950 7325 3000
Wire Wire Line
	7325 2400 7325 2500
Wire Wire Line
	7325 1000 7325 900 
Wire Wire Line
	7325 900  8075 900 
Wire Wire Line
	8225 900  8225 600 
Wire Wire Line
	8225 600  8125 600 
Wire Wire Line
	7325 1500 7375 1500
Connection ~ 7325 1500
Wire Wire Line
	7325 1500 7325 1600
Wire Wire Line
	8525 1725 8625 1725
Wire Wire Line
	8625 1725 8625 1825
Wire Wire Line
	8625 2125 8625 2225
Wire Wire Line
	6125 2000 6525 2000
Connection ~ 6125 2000
Wire Wire Line
	6125 2000 6125 2100
Connection ~ 7325 2000
Wire Wire Line
	7325 2000 7325 2100
Wire Wire Line
	6525 1900 6525 2000
Connection ~ 6525 2000
Wire Wire Line
	6525 2000 7325 2000
Wire Wire Line
	8125 3150 8125 3050
Wire Wire Line
	8125 2750 8125 2700
Wire Wire Line
	8125 2700 7725 2700
Connection ~ 7725 2700
Wire Wire Line
	7725 2700 7725 600 
Text GLabel 4975 4000 0    50   Input ~ 0
INR
Text GLabel 8825 1725 2    50   Input ~ 0
OUTR
Wire Wire Line
	4975 4000 5075 4000
Connection ~ 5075 4000
Wire Wire Line
	8625 1725 8825 1725
Connection ~ 8625 1725
Wire Wire Line
	7675 1500 7775 1500
Wire Wire Line
	8075 1300 8075 900 
Connection ~ 8075 900 
Wire Wire Line
	8075 900  8225 900 
$Comp
L Device:R R34
U 1 1 5C80A56E
P 8075 1925
F 0 "R34" H 7875 1975 50  0000 L CNN
F 1 "4,3K" H 7825 1875 50  0000 L CNN
F 2 "Resistors_SMD:R_0603_HandSoldering" V 8005 1925 50  0001 C CNN
F 3 "~" H 8075 1925 50  0001 C CNN
	1    8075 1925
	1    0    0    -1  
$EndComp
$Comp
L power:GNDA #PWR028
U 1 1 5C80A574
P 8075 2175
F 0 "#PWR028" H 8075 1925 50  0001 C CNN
F 1 "GNDA" H 8080 2002 50  0000 C CNN
F 2 "" H 8075 2175 50  0001 C CNN
F 3 "" H 8075 2175 50  0001 C CNN
	1    8075 2175
	1    0    0    -1  
$EndComp
Wire Wire Line
	8075 2075 8075 2175
Wire Wire Line
	8075 1700 8075 1725
Wire Wire Line
	8075 1725 8225 1725
Connection ~ 8075 1725
Wire Wire Line
	8075 1725 8075 1775
$Comp
L Device:C C14
U 1 1 5C80A5B6
P 5400 850
F 0 "C14" H 5450 950 50  0000 L CNN
F 1 "68nF" H 5175 750 50  0000 L CNN
F 2 "Capacitors_SMD:C_1812_HandSoldering" H 5438 700 50  0001 C CNN
F 3 "https://hu.farnell.com/panasonic-electronic-components/echu1h683jx9/cap-0-068-f-50v-5-pps-1913/dp/1855057" H 5400 850 50  0001 C CNN
	1    5400 850 
	1    0    0    -1  
$EndComp
$Comp
L power:GNDA #PWR022
U 1 1 5C80A5BC
P 5400 1100
F 0 "#PWR022" H 5400 850 50  0001 C CNN
F 1 "GNDA" H 5405 927 50  0000 C CNN
F 2 "" H 5400 1100 50  0001 C CNN
F 3 "" H 5400 1100 50  0001 C CNN
	1    5400 1100
	1    0    0    -1  
$EndComp
Wire Wire Line
	5400 1000 5400 1100
Wire Wire Line
	5400 700  5400 600 
$Comp
L power:GNDA #PWR031
U 1 1 5C80A5C4
P 8575 4500
F 0 "#PWR031" H 8575 4250 50  0001 C CNN
F 1 "GNDA" H 8580 4327 50  0000 C CNN
F 2 "" H 8575 4500 50  0001 C CNN
F 3 "" H 8575 4500 50  0001 C CNN
	1    8575 4500
	1    0    0    -1  
$EndComp
Wire Wire Line
	8575 4400 8575 4500
Wire Wire Line
	5400 600  5725 600 
Connection ~ 5725 600 
Wire Wire Line
	8125 3450 8575 3450
Wire Wire Line
	8575 3450 8575 4100
Connection ~ 8125 3450
$Comp
L Device:CP C13
U 1 1 5C80A5D0
P 5275 4000
F 0 "C13" H 5025 4125 50  0000 L CNN
F 1 "10uF/6V" H 4925 3875 50  0000 L CNN
F 2 "Capacitors_Tantalum_SMD:CP_Tantalum_Case-B_EIA-3528-21_Hand" H 5313 3850 50  0001 C CNN
F 3 "" H 5275 4000 50  0001 C CNN
	1    5275 4000
	0    1    1    0   
$EndComp
$Comp
L Device:CP C21
U 1 1 5C80A5D6
P 8375 1725
F 0 "C21" H 8125 1850 50  0000 L CNN
F 1 "10uF/35V" H 7975 1625 50  0000 L CNN
F 2 "Capacitors_Tantalum_SMD:CP_Tantalum_Case-D_EIA-7343-31_Hand" H 8413 1575 50  0001 C CNN
F 3 "" H 8375 1725 50  0001 C CNN
	1    8375 1725
	0    -1   -1   0   
$EndComp
$Comp
L Device:C C23
U 1 1 5C80A5DC
P 8575 4250
F 0 "C23" H 8625 4350 50  0000 L CNN
F 1 "68nF" H 8650 4150 50  0000 L CNN
F 2 "Capacitors_SMD:C_1812_HandSoldering" H 8613 4100 50  0001 C CNN
F 3 "https://hu.farnell.com/panasonic-electronic-components/echu1h683jx9/cap-0-068-f-50v-5-pps-1913/dp/1855057" H 8575 4250 50  0001 C CNN
	1    8575 4250
	1    0    0    -1  
$EndComp
$Comp
L Device:Q_PNP_BEC Q10
U 1 1 5C80A5E2
P 6225 2700
F 0 "Q10" H 6416 2654 50  0000 L CNN
F 1 "BC860C" H 6416 2745 50  0000 L CNN
F 2 "TO_SOT_Packages_SMD:SOT-23" H 6425 2800 50  0001 C CNN
F 3 "~" H 6225 2700 50  0001 C CNN
	1    6225 2700
	-1   0    0    1   
$EndComp
$Comp
L Device:Q_PNP_BEC Q9
U 1 1 5C80A5E8
P 6025 4000
F 0 "Q9" H 6216 3954 50  0000 L CNN
F 1 "BC860C" H 6216 4045 50  0000 L CNN
F 2 "TO_SOT_Packages_SMD:SOT-23" H 6225 4100 50  0001 C CNN
F 3 "~" H 6025 4000 50  0001 C CNN
	1    6025 4000
	1    0    0    1   
$EndComp
$Comp
L Device:Q_NPN_BEC Q14
U 1 1 5C80A5EE
P 7425 3200
F 0 "Q14" H 7616 3246 50  0000 L CNN
F 1 "BC850C" H 7616 3155 50  0000 L CNN
F 2 "TO_SOT_Packages_SMD:SOT-23" H 7625 3300 50  0001 C CNN
F 3 "~" H 7425 3200 50  0001 C CNN
	1    7425 3200
	-1   0    0    -1  
$EndComp
$Comp
L Device:Q_NPN_BEC Q13
U 1 1 5C80A5F4
P 7225 3700
F 0 "Q13" H 7416 3746 50  0000 L CNN
F 1 "BC850C" H 7416 3655 50  0000 L CNN
F 2 "TO_SOT_Packages_SMD:SOT-23" H 7425 3800 50  0001 C CNN
F 3 "~" H 7225 3700 50  0001 C CNN
	1    7225 3700
	1    0    0    -1  
$EndComp
$Comp
L Device:Q_NPN_BEC Q15
U 1 1 5C80A5FA
P 7975 1500
F 0 "Q15" H 8166 1546 50  0000 L CNN
F 1 "BC850C" H 8166 1455 50  0000 L CNN
F 2 "TO_SOT_Packages_SMD:SOT-23" H 8175 1600 50  0001 C CNN
F 3 "~" H 7975 1500 50  0001 C CNN
	1    7975 1500
	1    0    0    -1  
$EndComp
$Comp
L power:PWR_FLAG #FLG01
U 1 1 5C72691D
P 9075 2875
F 0 "#FLG01" H 9075 2950 50  0001 C CNN
F 1 "PWR_FLAG" H 9150 3025 50  0000 C CNN
F 2 "" H 9075 2875 50  0001 C CNN
F 3 "~" H 9075 2875 50  0001 C CNN
	1    9075 2875
	-1   0    0    -1  
$EndComp
$Comp
L power:PWR_FLAG #FLG02
U 1 1 5C7269E3
P 9075 2975
F 0 "#FLG02" H 9075 3050 50  0001 C CNN
F 1 "PWR_FLAG" H 9000 3150 50  0000 C CNN
F 2 "" H 9075 2975 50  0001 C CNN
F 3 "~" H 9075 2975 50  0001 C CNN
	1    9075 2975
	1    0    0    1   
$EndComp
$Comp
L Device:CP C25
U 1 1 5C6064BF
P 825 5300
F 0 "C25" H 943 5346 50  0000 L CNN
F 1 "1000uF/50V" V 975 4775 50  0000 L CNN
F 2 "suf_capacitor:CAP-SMD-SIZE-J16" H 863 5150 50  0001 C CNN
F 3 "~" H 825 5300 50  0001 C CNN
	1    825  5300
	1    0    0    -1  
$EndComp
$Comp
L suf_regulator:LM317_SOT223 U1
U 1 1 5C6065FD
P 1200 5000
F 0 "U1" H 1050 5125 50  0000 C CNN
F 1 "LM317" H 1350 5125 50  0000 C CNN
F 2 "TO_SOT_Packages_SMD:SOT-223" H 1200 5250 50  0001 C CIN
F 3 "http://www.ti.com/lit/ds/symlink/lm317.pdf" H 1200 5000 50  0001 C CNN
	1    1200 5000
	1    0    0    -1  
$EndComp
$Comp
L Device:R R38
U 1 1 5C606919
P 1625 5175
F 0 "R38" H 1675 5275 50  0000 L CNN
F 1 "1K" H 1475 5125 50  0000 L CNN
F 2 "Resistors_SMD:R_0603_HandSoldering" V 1555 5175 50  0001 C CNN
F 3 "~" H 1625 5175 50  0001 C CNN
	1    1625 5175
	1    0    0    -1  
$EndComp
$Comp
L Device:R R37
U 1 1 5C606993
P 1200 5525
F 0 "R37" H 1270 5571 50  0000 L CNN
F 1 "825" H 1270 5480 50  0000 L CNN
F 2 "Resistors_SMD:R_0603_HandSoldering" V 1130 5525 50  0001 C CNN
F 3 "~" H 1200 5525 50  0001 C CNN
	1    1200 5525
	1    0    0    -1  
$EndComp
$Comp
L Device:CP C27
U 1 1 5C606A31
P 1825 5300
F 0 "C27" H 1850 5400 50  0000 L CNN
F 1 "100uF/50V" V 1950 4800 50  0000 L CNN
F 2 "Capacitors_SMD:CP_Elec_8x10.5" H 1863 5150 50  0001 C CNN
F 3 "~" H 1825 5300 50  0001 C CNN
	1    1825 5300
	1    0    0    -1  
$EndComp
Wire Wire Line
	825  5000 825  5150
Wire Wire Line
	825  5000 900  5000
Wire Wire Line
	825  5450 825  5550
Wire Wire Line
	1200 5300 1200 5350
Wire Wire Line
	1200 5675 1200 5775
Wire Wire Line
	1200 5775 1625 5775
Wire Wire Line
	1625 5775 1625 5700
Wire Wire Line
	1500 5000 1550 5000
Wire Wire Line
	1825 5000 1825 5150
Wire Wire Line
	1825 5450 1825 5550
Wire Wire Line
	1200 5350 1625 5350
Wire Wire Line
	1625 5350 1625 5325
Connection ~ 1200 5350
Wire Wire Line
	1200 5350 1200 5375
Wire Wire Line
	1625 5025 1625 5000
Connection ~ 1625 5000
Wire Wire Line
	1625 5000 1825 5000
$Comp
L Device:C C26
U 1 1 5C6095FA
P 1625 5550
F 0 "C26" H 1475 5650 50  0000 L CNN
F 1 "10uF/10V" H 1425 5275 50  0000 L CNN
F 2 "Capacitors_SMD:C_0603_HandSoldering" H 1663 5400 50  0001 C CNN
F 3 "~" H 1625 5550 50  0001 C CNN
	1    1625 5550
	1    0    0    -1  
$EndComp
Connection ~ 1200 5775
Wire Wire Line
	1625 5350 1625 5400
Connection ~ 1625 5350
$Comp
L Amplifier_Operational:LM741 U2
U 1 1 5C60C79C
P 3200 6350
F 0 "U2" H 3025 6625 50  0000 C CNN
F 1 "NE5534" H 3500 6125 50  0000 C CNN
F 2 "Housings_SOIC:SOIC-8_3.9x4.9mm_Pitch1.27mm" H 3250 6400 50  0001 C CNN
F 3 "http://www.ti.com/lit/ds/symlink/lm741.pdf" H 3350 6500 50  0001 C CNN
	1    3200 6350
	-1   0    0    -1  
$EndComp
$Comp
L Device:Q_NPN_BCE Q18
U 1 1 5C60C86C
P 2925 5100
F 0 "Q18" V 3253 5100 50  0000 C CNN
F 1 "D44H11" V 3162 5100 50  0000 C CNN
F 2 "TO_SOT_Packages_THT:TO-220-3_Vertical" H 3125 5200 50  0001 C CNN
F 3 "~" H 2925 5100 50  0001 C CNN
	1    2925 5100
	0    -1   -1   0   
$EndComp
$Comp
L Device:Q_PNP_BEC Q17
U 1 1 5C60D9E4
P 2375 5600
F 0 "Q17" H 2566 5554 50  0000 L CNN
F 1 "MMBT5087" H 2566 5645 50  0000 L CNN
F 2 "TO_SOT_Packages_SMD:SOT-23" H 2575 5700 50  0001 C CNN
F 3 "~" H 2375 5600 50  0001 C CNN
	1    2375 5600
	1    0    0    1   
$EndComp
$Comp
L Device:LED D3
U 1 1 5C60DA6B
P 2075 5200
F 0 "D3" V 2113 5083 50  0000 R CNN
F 1 "2V GREEN" V 2350 5200 50  0000 R CNN
F 2 "LEDs:LED_0603_HandSoldering" H 2075 5200 50  0001 C CNN
F 3 "~" H 2075 5200 50  0001 C CNN
	1    2075 5200
	0    -1   -1   0   
$EndComp
$Comp
L Device:R R39
U 1 1 5C60DAC4
P 2075 5800
F 0 "R39" H 2145 5846 50  0000 L CNN
F 1 "12K" H 2145 5755 50  0000 L CNN
F 2 "Resistors_SMD:R_0603_HandSoldering" V 2005 5800 50  0001 C CNN
F 3 "~" H 2075 5800 50  0001 C CNN
	1    2075 5800
	1    0    0    -1  
$EndComp
$Comp
L Device:R R40
U 1 1 5C60DDB4
P 2475 5200
F 0 "R40" H 2545 5246 50  0000 L CNN
F 1 "249" H 2545 5155 50  0000 L CNN
F 2 "Resistors_SMD:R_0603_HandSoldering" V 2405 5200 50  0001 C CNN
F 3 "~" H 2475 5200 50  0001 C CNN
	1    2475 5200
	1    0    0    -1  
$EndComp
Wire Wire Line
	1825 5000 2075 5000
Connection ~ 1825 5000
Wire Wire Line
	2075 5000 2075 5050
Connection ~ 2075 5000
Wire Wire Line
	2075 5000 2475 5000
Wire Wire Line
	2075 5350 2075 5600
Wire Wire Line
	2075 5950 2075 6000
Wire Wire Line
	2475 5000 2475 5050
Connection ~ 2475 5000
Wire Wire Line
	2475 5000 2725 5000
Wire Wire Line
	2475 5350 2475 5400
Wire Wire Line
	2175 5600 2075 5600
Connection ~ 2075 5600
Wire Wire Line
	2075 5600 2075 5650
Wire Wire Line
	2475 5800 2475 5850
Wire Wire Line
	2475 5850 2925 5850
Wire Wire Line
	2925 5850 2925 5300
$Comp
L Device:R R41
U 1 1 5C61293C
P 2675 6350
F 0 "R41" V 2775 6250 50  0000 C CNN
F 1 "10" V 2775 6425 50  0000 C CNN
F 2 "Resistors_SMD:R_0603_HandSoldering" V 2605 6350 50  0001 C CNN
F 3 "~" H 2675 6350 50  0001 C CNN
	1    2675 6350
	0    1    1    0   
$EndComp
$Comp
L Device:D_Zener D4
U 1 1 5C612D6E
P 2475 6050
F 0 "D4" V 2429 6129 50  0000 L CNN
F 1 "BZT52C6V8V-GS08" H 2225 5925 50  0000 L CNN
F 2 "Diodes_SMD:D_SOD-123" H 2475 6050 50  0001 C CNN
F 3 "~" H 2475 6050 50  0001 C CNN
	1    2475 6050
	0    1    1    0   
$EndComp
$Comp
L Device:CP C28
U 1 1 5C612E7C
P 2925 6050
F 0 "C28" H 2975 6150 50  0000 L CNN
F 1 "100uF" H 2675 5950 50  0000 L CNN
F 2 "Capacitors_SMD:CP_Elec_8x10.5" H 2963 5900 50  0001 C CNN
F 3 "~" H 2925 6050 50  0001 C CNN
	1    2925 6050
	1    0    0    -1  
$EndComp
NoConn ~ 3100 6650
NoConn ~ 3200 6650
$Comp
L Device:D_Small D5
U 1 1 5C615A55
P 3650 6350
F 0 "D5" V 3600 6225 50  0000 L CNN
F 1 "1N4148" V 3825 6150 50  0000 L CNN
F 2 "Diodes_SMD:D_SOD-123" V 3650 6350 50  0001 C CNN
F 3 "~" V 3650 6350 50  0001 C CNN
	1    3650 6350
	0    1    1    0   
$EndComp
$Comp
L Device:D_Small D6
U 1 1 5C616599
P 3775 6350
F 0 "D6" V 3700 6300 50  0000 R CNN
F 1 "1N4148" V 3950 6575 50  0000 R CNN
F 2 "Diodes_SMD:D_SOD-123" V 3775 6350 50  0001 C CNN
F 3 "~" V 3775 6350 50  0001 C CNN
	1    3775 6350
	0    -1   -1   0   
$EndComp
Wire Wire Line
	3500 6250 3650 6250
Connection ~ 3650 6250
Wire Wire Line
	3650 6250 3775 6250
Wire Wire Line
	3500 6450 3650 6450
Connection ~ 3650 6450
Wire Wire Line
	3650 6450 3775 6450
Wire Wire Line
	2925 5850 2925 5900
Connection ~ 2925 5850
Wire Wire Line
	2475 5850 2475 5900
Connection ~ 2475 5850
Wire Wire Line
	2475 6200 2925 6200
Wire Wire Line
	2825 6350 2900 6350
$Comp
L Device:R R45
U 1 1 5C62382B
P 4475 5250
F 0 "R45" H 4545 5296 50  0000 L CNN
F 1 "6,2K" H 4545 5205 50  0000 L CNN
F 2 "Resistors_SMD:R_0805_HandSoldering" V 4405 5250 50  0001 C CNN
F 3 "~" H 4475 5250 50  0001 C CNN
	1    4475 5250
	1    0    0    -1  
$EndComp
$Comp
L Device:R R43
U 1 1 5C6238E5
P 3900 6700
F 0 "R43" H 3725 6750 50  0000 L CNN
F 1 "681" H 3700 6650 50  0000 L CNN
F 2 "Resistors_SMD:R_1210_HandSoldering" V 3830 6700 50  0001 C CNN
F 3 "~" H 3900 6700 50  0001 C CNN
	1    3900 6700
	1    0    0    -1  
$EndComp
$Comp
L Device:R R44
U 1 1 5C6239D9
P 4275 5750
F 0 "R44" V 4375 5625 50  0000 C CNN
F 1 "499" V 4375 5825 50  0000 C CNN
F 2 "Resistors_SMD:R_0603_HandSoldering" V 4205 5750 50  0001 C CNN
F 3 "~" H 4275 5750 50  0001 C CNN
	1    4275 5750
	0    1    1    0   
$EndComp
$Comp
L Device:R R42
U 1 1 5C623AA4
P 3900 5250
F 0 "R42" V 4000 5300 50  0000 L CNN
F 1 "2,49K" V 4000 5000 50  0000 L CNN
F 2 "Resistors_SMD:R_1210_HandSoldering" V 3830 5250 50  0001 C CNN
F 3 "~" H 3900 5250 50  0001 C CNN
	1    3900 5250
	1    0    0    -1  
$EndComp
$Comp
L Device:CP C29
U 1 1 5C623B5A
P 3625 5250
F 0 "C29" H 3675 5350 50  0000 L CNN
F 1 "100uF/50V" H 3150 5150 50  0000 L CNN
F 2 "Capacitors_SMD:CP_Elec_8x10.5" H 3663 5100 50  0001 C CNN
F 3 "~" H 3625 5250 50  0001 C CNN
	1    3625 5250
	1    0    0    -1  
$EndComp
$Comp
L Device:CP C30
U 1 1 5C623C88
P 4075 6700
F 0 "C30" H 4100 6800 50  0000 L CNN
F 1 "100uF/10V" V 4225 6250 50  0000 L CNN
F 2 "Capacitors_SMD:CP_Elec_6.3x5.3" H 4113 6550 50  0001 C CNN
F 3 "~" H 4075 6700 50  0001 C CNN
	1    4075 6700
	1    0    0    -1  
$EndComp
Wire Wire Line
	3300 6650 3300 6725
Wire Wire Line
	3125 5000 3625 5000
Wire Wire Line
	3900 5000 3900 5100
Wire Wire Line
	3625 5000 3625 5100
Connection ~ 3625 5000
Wire Wire Line
	3625 5000 3900 5000
Wire Wire Line
	3625 5400 3625 5475
Wire Wire Line
	3625 5475 3900 5475
Wire Wire Line
	3900 5475 3900 5400
Connection ~ 3900 5475
Wire Wire Line
	3900 6850 3900 6925
Wire Wire Line
	4075 6550 4075 6250
Wire Wire Line
	3900 5000 4175 5000
Wire Wire Line
	4475 5000 4475 5100
Connection ~ 3900 5000
$Comp
L Device:CP C31
U 1 1 5C634790
P 4175 5250
F 0 "C31" H 4200 5350 50  0000 L CNN
F 1 "100uF/50V" V 4325 4800 50  0000 L CNN
F 2 "Capacitors_SMD:CP_Elec_8x10.5" H 4213 5100 50  0001 C CNN
F 3 "~" H 4175 5250 50  0001 C CNN
	1    4175 5250
	1    0    0    -1  
$EndComp
Wire Wire Line
	4175 5000 4175 5100
Wire Wire Line
	4175 5400 4175 5475
Wire Wire Line
	4475 6850 4475 6925
Wire Wire Line
	4075 6850 4075 6925
Wire Wire Line
	3900 5475 3900 6450
Wire Wire Line
	3775 6450 3900 6450
Connection ~ 3775 6450
Connection ~ 3900 6450
Wire Wire Line
	3900 6450 3900 6550
Wire Wire Line
	3775 6250 4075 6250
Connection ~ 3775 6250
Connection ~ 4075 6250
Wire Wire Line
	2475 6200 2475 6350
Wire Wire Line
	2475 6350 2525 6350
Connection ~ 2475 6200
Connection ~ 4175 5000
Wire Wire Line
	4175 5000 4475 5000
Text GLabel 1200 5850 3    50   Input ~ 0
VCCL
Wire Wire Line
	1200 5775 1200 5850
Text GLabel 3525 4925 0    50   Input ~ 0
VCCL
Wire Wire Line
	3525 4925 3625 4925
Wire Wire Line
	3625 4925 3625 5000
$Comp
L Device:CP C36
U 1 1 5CBEFA42
P 8800 5300
F 0 "C36" H 8918 5346 50  0000 L CNN
F 1 "1000uF/50V" V 8950 4775 50  0000 L CNN
F 2 "suf_capacitor:CAP-SMD-SIZE-J16" H 8838 5150 50  0001 C CNN
F 3 "~" H 8800 5300 50  0001 C CNN
	1    8800 5300
	-1   0    0    -1  
$EndComp
$Comp
L suf_regulator:LM317_SOT223 U4
U 1 1 5CBEFA48
P 8425 5000
F 0 "U4" H 8275 5125 50  0000 C CNN
F 1 "LM317" H 8575 5125 50  0000 C CNN
F 2 "TO_SOT_Packages_SMD:SOT-223" H 8425 5250 50  0001 C CIN
F 3 "http://www.ti.com/lit/ds/symlink/lm317.pdf" H 8425 5000 50  0001 C CNN
	1    8425 5000
	-1   0    0    -1  
$EndComp
$Comp
L Device:R R51
U 1 1 5CBEFA4E
P 8000 5175
F 0 "R51" H 8050 5300 50  0000 L CNN
F 1 "1K" H 7850 5125 50  0000 L CNN
F 2 "Resistors_SMD:R_0603_HandSoldering" V 7930 5175 50  0001 C CNN
F 3 "~" H 8000 5175 50  0001 C CNN
	1    8000 5175
	-1   0    0    -1  
$EndComp
$Comp
L Device:R R52
U 1 1 5CBEFA54
P 8425 5525
F 0 "R52" H 8495 5571 50  0000 L CNN
F 1 "825" H 8495 5480 50  0000 L CNN
F 2 "Resistors_SMD:R_0603_HandSoldering" V 8355 5525 50  0001 C CNN
F 3 "~" H 8425 5525 50  0001 C CNN
	1    8425 5525
	-1   0    0    -1  
$EndComp
$Comp
L Device:CP C34
U 1 1 5CBEFA5A
P 7800 5300
F 0 "C34" H 7825 5400 50  0000 L CNN
F 1 "100uF/50V" V 7925 4800 50  0000 L CNN
F 2 "Capacitors_SMD:CP_Elec_8x10.5" H 7838 5150 50  0001 C CNN
F 3 "~" H 7800 5300 50  0001 C CNN
	1    7800 5300
	-1   0    0    -1  
$EndComp
Wire Wire Line
	8800 5000 8800 5150
Wire Wire Line
	8800 5000 8725 5000
Wire Wire Line
	8800 5450 8800 5550
Wire Wire Line
	8425 5300 8425 5350
Wire Wire Line
	8425 5675 8425 5775
Wire Wire Line
	8425 5775 8000 5775
Wire Wire Line
	8000 5775 8000 5700
Wire Wire Line
	8125 5000 8075 5000
Wire Wire Line
	7800 5000 7800 5150
Wire Wire Line
	7800 5450 7800 5550
Wire Wire Line
	8425 5350 8000 5350
Wire Wire Line
	8000 5350 8000 5325
Connection ~ 8425 5350
Wire Wire Line
	8425 5350 8425 5375
Wire Wire Line
	8000 5025 8000 5000
Connection ~ 8000 5000
Wire Wire Line
	8000 5000 7800 5000
$Comp
L Device:C C35
U 1 1 5CBEFA7D
P 8000 5550
F 0 "C35" H 7850 5650 50  0000 L CNN
F 1 "10uF/10V" H 7800 5275 50  0000 L CNN
F 2 "Capacitors_SMD:C_0603_HandSoldering" H 8038 5400 50  0001 C CNN
F 3 "~" H 8000 5550 50  0001 C CNN
	1    8000 5550
	-1   0    0    -1  
$EndComp
Connection ~ 8425 5775
Wire Wire Line
	8000 5350 8000 5400
Connection ~ 8000 5350
$Comp
L Amplifier_Operational:LM741 U3
U 1 1 5CBEFA86
P 6425 6350
F 0 "U3" H 6250 6625 50  0000 C CNN
F 1 "NE5534" H 6725 6125 50  0000 C CNN
F 2 "Housings_SOIC:SOIC-8_3.9x4.9mm_Pitch1.27mm" H 6475 6400 50  0001 C CNN
F 3 "http://www.ti.com/lit/ds/symlink/lm741.pdf" H 6575 6500 50  0001 C CNN
	1    6425 6350
	1    0    0    -1  
$EndComp
$Comp
L Device:Q_NPN_BCE Q8
U 1 1 5CBEFA8C
P 6700 5100
F 0 "Q8" V 7028 5100 50  0000 C CNN
F 1 "D44H11" V 6937 5100 50  0000 C CNN
F 2 "TO_SOT_Packages_THT:TO-220-3_Vertical" H 6900 5200 50  0001 C CNN
F 3 "~" H 6700 5100 50  0001 C CNN
	1    6700 5100
	0    1    -1   0   
$EndComp
$Comp
L Device:Q_PNP_BEC Q16
U 1 1 5CBEFA92
P 7250 5600
F 0 "Q16" H 7441 5554 50  0000 L CNN
F 1 "MMBT5087" H 7441 5645 50  0000 L CNN
F 2 "TO_SOT_Packages_SMD:SOT-23" H 7450 5700 50  0001 C CNN
F 3 "~" H 7250 5600 50  0001 C CNN
	1    7250 5600
	-1   0    0    1   
$EndComp
$Comp
L Device:LED D10
U 1 1 5CBEFA98
P 7550 5200
F 0 "D10" V 7588 5083 50  0000 R CNN
F 1 "2V GREEN" V 7825 5200 50  0000 R CNN
F 2 "LEDs:LED_0603_HandSoldering" H 7550 5200 50  0001 C CNN
F 3 "~" H 7550 5200 50  0001 C CNN
	1    7550 5200
	0    1    -1   0   
$EndComp
$Comp
L Device:R R50
U 1 1 5CBEFA9E
P 7550 5800
F 0 "R50" H 7620 5846 50  0000 L CNN
F 1 "12K" H 7620 5755 50  0000 L CNN
F 2 "Resistors_SMD:R_0603_HandSoldering" V 7480 5800 50  0001 C CNN
F 3 "~" H 7550 5800 50  0001 C CNN
	1    7550 5800
	-1   0    0    -1  
$EndComp
$Comp
L Device:R R49
U 1 1 5CBEFAAA
P 7150 5200
F 0 "R49" H 7220 5246 50  0000 L CNN
F 1 "249" H 7220 5155 50  0000 L CNN
F 2 "Resistors_SMD:R_0603_HandSoldering" V 7080 5200 50  0001 C CNN
F 3 "~" H 7150 5200 50  0001 C CNN
	1    7150 5200
	-1   0    0    -1  
$EndComp
Wire Wire Line
	7800 5000 7550 5000
Connection ~ 7800 5000
Wire Wire Line
	7550 5000 7550 5050
Connection ~ 7550 5000
Wire Wire Line
	7550 5000 7150 5000
Wire Wire Line
	7550 5350 7550 5600
Wire Wire Line
	7550 5950 7550 6000
Wire Wire Line
	7150 5000 7150 5050
Connection ~ 7150 5000
Wire Wire Line
	7150 5000 6900 5000
Wire Wire Line
	7150 5350 7150 5400
Wire Wire Line
	7450 5600 7550 5600
Connection ~ 7550 5600
Wire Wire Line
	7550 5600 7550 5650
Wire Wire Line
	7150 5800 7150 5850
Wire Wire Line
	7150 5850 6700 5850
Wire Wire Line
	6700 5850 6700 5300
$Comp
L Device:R R48
U 1 1 5CBEFAC1
P 6950 6350
F 0 "R48" V 7050 6250 50  0000 C CNN
F 1 "10" V 7050 6425 50  0000 C CNN
F 2 "Resistors_SMD:R_0603_HandSoldering" V 6880 6350 50  0001 C CNN
F 3 "~" H 6950 6350 50  0001 C CNN
	1    6950 6350
	0    -1   1    0   
$EndComp
$Comp
L Device:D_Zener D9
U 1 1 5CBEFAC7
P 7150 6050
F 0 "D9" V 7104 6129 50  0000 L CNN
F 1 "BZT52C6V8V-GS08" H 6900 5925 50  0000 L CNN
F 2 "Diodes_SMD:D_SOD-123" H 7150 6050 50  0001 C CNN
F 3 "~" H 7150 6050 50  0001 C CNN
	1    7150 6050
	0    -1   1    0   
$EndComp
$Comp
L Device:CP C33
U 1 1 5CBEFACD
P 6700 6050
F 0 "C33" H 6750 6150 50  0000 L CNN
F 1 "100uF" H 6450 5950 50  0000 L CNN
F 2 "Capacitors_SMD:CP_Elec_8x10.5" H 6738 5900 50  0001 C CNN
F 3 "~" H 6700 6050 50  0001 C CNN
	1    6700 6050
	-1   0    0    -1  
$EndComp
NoConn ~ 6525 6650
NoConn ~ 6425 6650
$Comp
L Device:D_Small D8
U 1 1 5CBEFAD5
P 5975 6350
F 0 "D8" V 5925 6225 50  0000 L CNN
F 1 "1N4148" V 6150 6150 50  0000 L CNN
F 2 "Diodes_SMD:D_SOD-123" V 5975 6350 50  0001 C CNN
F 3 "~" V 5975 6350 50  0001 C CNN
	1    5975 6350
	0    -1   1    0   
$EndComp
$Comp
L Device:D_Small D2
U 1 1 5CBEFADB
P 5850 6350
F 0 "D2" V 5775 6300 50  0000 R CNN
F 1 "1N4148" V 6025 6575 50  0000 R CNN
F 2 "Diodes_SMD:D_SOD-123" V 5850 6350 50  0001 C CNN
F 3 "~" V 5850 6350 50  0001 C CNN
	1    5850 6350
	0    1    -1   0   
$EndComp
Wire Wire Line
	6125 6250 5975 6250
Connection ~ 5975 6250
Wire Wire Line
	5975 6250 5850 6250
Wire Wire Line
	6125 6450 5975 6450
Connection ~ 5975 6450
Wire Wire Line
	5975 6450 5850 6450
Wire Wire Line
	6700 5850 6700 5900
Connection ~ 6700 5850
Wire Wire Line
	7150 5850 7150 5900
Connection ~ 7150 5850
Wire Wire Line
	7150 6200 6700 6200
Wire Wire Line
	6800 6350 6725 6350
$Comp
L Device:R R18
U 1 1 5CBEFAFF
P 5150 5250
F 0 "R18" H 5220 5296 50  0000 L CNN
F 1 "6,2K" H 5220 5205 50  0000 L CNN
F 2 "Resistors_SMD:R_0805_HandSoldering" V 5080 5250 50  0001 C CNN
F 3 "~" H 5150 5250 50  0001 C CNN
	1    5150 5250
	-1   0    0    -1  
$EndComp
$Comp
L Device:R R47
U 1 1 5CBEFB05
P 5725 6700
F 0 "R47" H 5550 6750 50  0000 L CNN
F 1 "681" H 5525 6650 50  0000 L CNN
F 2 "Resistors_SMD:R_1210_HandSoldering" V 5655 6700 50  0001 C CNN
F 3 "~" H 5725 6700 50  0001 C CNN
	1    5725 6700
	-1   0    0    -1  
$EndComp
$Comp
L Device:R R36
U 1 1 5CBEFB0B
P 5350 5750
F 0 "R36" V 5450 5650 50  0000 C CNN
F 1 "499" V 5450 5825 50  0000 C CNN
F 2 "Resistors_SMD:R_0603_HandSoldering" V 5280 5750 50  0001 C CNN
F 3 "~" H 5350 5750 50  0001 C CNN
	1    5350 5750
	0    -1   1    0   
$EndComp
$Comp
L Device:R R46
U 1 1 5CBEFB11
P 5725 5250
F 0 "R46" V 5825 5300 50  0000 L CNN
F 1 "2,49K" V 5825 5000 50  0000 L CNN
F 2 "Resistors_SMD:R_1210_HandSoldering" V 5655 5250 50  0001 C CNN
F 3 "~" H 5725 5250 50  0001 C CNN
	1    5725 5250
	-1   0    0    -1  
$EndComp
$Comp
L Device:CP C32
U 1 1 5CBEFB17
P 6000 5250
F 0 "C32" H 6050 5350 50  0000 L CNN
F 1 "100uF/50V" H 5525 5150 50  0000 L CNN
F 2 "Capacitors_SMD:CP_Elec_8x10.5" H 6038 5100 50  0001 C CNN
F 3 "~" H 6000 5250 50  0001 C CNN
	1    6000 5250
	-1   0    0    -1  
$EndComp
$Comp
L Device:CP C22
U 1 1 5CBEFB1D
P 5550 6700
F 0 "C22" H 5575 6800 50  0000 L CNN
F 1 "100uF/10V" V 5700 6250 50  0000 L CNN
F 2 "Capacitors_SMD:CP_Elec_6.3x5.3" H 5588 6550 50  0001 C CNN
F 3 "~" H 5550 6700 50  0001 C CNN
	1    5550 6700
	-1   0    0    -1  
$EndComp
Wire Wire Line
	6325 6650 6325 6725
Wire Wire Line
	6500 5000 6000 5000
Wire Wire Line
	5725 5000 5725 5100
Wire Wire Line
	6000 5000 6000 5100
Connection ~ 6000 5000
Wire Wire Line
	6000 5000 5725 5000
Wire Wire Line
	6000 5400 6000 5475
Wire Wire Line
	6000 5475 5725 5475
Wire Wire Line
	5725 5475 5725 5400
Connection ~ 5725 5475
Wire Wire Line
	5725 6850 5725 6925
Wire Wire Line
	5550 6550 5550 6250
Wire Wire Line
	5725 5000 5450 5000
Wire Wire Line
	5150 5000 5150 5100
Connection ~ 5725 5000
$Comp
L Device:CP C10
U 1 1 5CBEFB4A
P 5450 5250
F 0 "C10" H 5475 5350 50  0000 L CNN
F 1 "100uF/50V" V 5600 4800 50  0000 L CNN
F 2 "Capacitors_SMD:CP_Elec_8x10.5" H 5488 5100 50  0001 C CNN
F 3 "~" H 5450 5250 50  0001 C CNN
	1    5450 5250
	-1   0    0    -1  
$EndComp
Wire Wire Line
	5450 5000 5450 5100
Wire Wire Line
	5450 5400 5450 5475
Wire Wire Line
	5150 6850 5150 6925
Wire Wire Line
	5550 6850 5550 6925
Wire Wire Line
	5725 5475 5725 6450
Wire Wire Line
	5850 6450 5725 6450
Connection ~ 5850 6450
Connection ~ 5725 6450
Wire Wire Line
	5725 6450 5725 6550
Wire Wire Line
	5850 6250 5550 6250
Connection ~ 5850 6250
Connection ~ 5550 6250
Wire Wire Line
	7150 6200 7150 6350
Wire Wire Line
	7150 6350 7100 6350
Connection ~ 7150 6200
Connection ~ 5450 5000
Wire Wire Line
	5450 5000 5150 5000
Text GLabel 8425 5850 3    50   Input ~ 0
VCCR
Wire Wire Line
	8425 5775 8425 5850
Text GLabel 6100 4925 2    50   Input ~ 0
VCCR
Wire Wire Line
	6100 4925 6000 4925
Wire Wire Line
	6000 4925 6000 5000
Text GLabel 6200 5900 0    50   Input ~ 0
VCCR
Text GLabel 3425 5900 2    50   Input ~ 0
VCCL
Wire Wire Line
	3425 5900 3300 5900
Wire Wire Line
	3300 5900 3300 6050
Wire Wire Line
	6200 5900 6325 5900
Wire Wire Line
	6325 5900 6325 6050
$Comp
L power:GNDA #PWR011
U 1 1 5CEA6C2C
P 825 5550
F 0 "#PWR011" H 825 5300 50  0001 C CNN
F 1 "GNDA" H 830 5377 50  0000 C CNN
F 2 "" H 825 5550 50  0001 C CNN
F 3 "" H 825 5550 50  0001 C CNN
	1    825  5550
	1    0    0    -1  
$EndComp
$Comp
L power:GNDA #PWR015
U 1 1 5CEA6D44
P 1825 5550
F 0 "#PWR015" H 1825 5300 50  0001 C CNN
F 1 "GNDA" H 1830 5377 50  0000 C CNN
F 2 "" H 1825 5550 50  0001 C CNN
F 3 "" H 1825 5550 50  0001 C CNN
	1    1825 5550
	1    0    0    -1  
$EndComp
$Comp
L power:GNDA #PWR018
U 1 1 5CEA6E5C
P 2075 6000
F 0 "#PWR018" H 2075 5750 50  0001 C CNN
F 1 "GNDA" H 2080 5827 50  0000 C CNN
F 2 "" H 2075 6000 50  0001 C CNN
F 3 "" H 2075 6000 50  0001 C CNN
	1    2075 6000
	1    0    0    -1  
$EndComp
$Comp
L power:GNDA #PWR030
U 1 1 5CEA6F74
P 3300 6725
F 0 "#PWR030" H 3300 6475 50  0001 C CNN
F 1 "GNDA" H 3305 6552 50  0000 C CNN
F 2 "" H 3300 6725 50  0001 C CNN
F 3 "" H 3300 6725 50  0001 C CNN
	1    3300 6725
	1    0    0    -1  
$EndComp
$Comp
L power:GNDA #PWR033
U 1 1 5CEA708C
P 3900 6925
F 0 "#PWR033" H 3900 6675 50  0001 C CNN
F 1 "GNDA" H 3905 6752 50  0000 C CNN
F 2 "" H 3900 6925 50  0001 C CNN
F 3 "" H 3900 6925 50  0001 C CNN
	1    3900 6925
	1    0    0    -1  
$EndComp
$Comp
L power:GNDA #PWR035
U 1 1 5CEA71A4
P 4075 6925
F 0 "#PWR035" H 4075 6675 50  0001 C CNN
F 1 "GNDA" H 4080 6752 50  0000 C CNN
F 2 "" H 4075 6925 50  0001 C CNN
F 3 "" H 4075 6925 50  0001 C CNN
	1    4075 6925
	1    0    0    -1  
$EndComp
$Comp
L power:GNDA #PWR037
U 1 1 5CEA72BC
P 4475 6925
F 0 "#PWR037" H 4475 6675 50  0001 C CNN
F 1 "GNDA" H 4480 6752 50  0000 C CNN
F 2 "" H 4475 6925 50  0001 C CNN
F 3 "" H 4475 6925 50  0001 C CNN
	1    4475 6925
	1    0    0    -1  
$EndComp
$Comp
L power:GNDA #PWR036
U 1 1 5CEC62EE
P 4175 5475
F 0 "#PWR036" H 4175 5225 50  0001 C CNN
F 1 "GNDA" H 4180 5302 50  0000 C CNN
F 2 "" H 4175 5475 50  0001 C CNN
F 3 "" H 4175 5475 50  0001 C CNN
	1    4175 5475
	1    0    0    -1  
$EndComp
$Comp
L power:GNDA #PWR039
U 1 1 5CEEB3D3
P 5450 5475
F 0 "#PWR039" H 5450 5225 50  0001 C CNN
F 1 "GNDA" H 5455 5302 50  0000 C CNN
F 2 "" H 5450 5475 50  0001 C CNN
F 3 "" H 5450 5475 50  0001 C CNN
	1    5450 5475
	1    0    0    -1  
$EndComp
$Comp
L power:GNDA #PWR038
U 1 1 5CF0A405
P 5150 6925
F 0 "#PWR038" H 5150 6675 50  0001 C CNN
F 1 "GNDA" H 5155 6752 50  0000 C CNN
F 2 "" H 5150 6925 50  0001 C CNN
F 3 "" H 5150 6925 50  0001 C CNN
	1    5150 6925
	1    0    0    -1  
$EndComp
$Comp
L power:GNDA #PWR040
U 1 1 5CF29437
P 5550 6925
F 0 "#PWR040" H 5550 6675 50  0001 C CNN
F 1 "GNDA" H 5555 6752 50  0000 C CNN
F 2 "" H 5550 6925 50  0001 C CNN
F 3 "" H 5550 6925 50  0001 C CNN
	1    5550 6925
	1    0    0    -1  
$EndComp
$Comp
L power:GNDA #PWR041
U 1 1 5CF48469
P 5725 6925
F 0 "#PWR041" H 5725 6675 50  0001 C CNN
F 1 "GNDA" H 5730 6752 50  0000 C CNN
F 2 "" H 5725 6925 50  0001 C CNN
F 3 "" H 5725 6925 50  0001 C CNN
	1    5725 6925
	1    0    0    -1  
$EndComp
$Comp
L power:GNDA #PWR042
U 1 1 5CF6749B
P 6325 6725
F 0 "#PWR042" H 6325 6475 50  0001 C CNN
F 1 "GNDA" H 6330 6552 50  0000 C CNN
F 2 "" H 6325 6725 50  0001 C CNN
F 3 "" H 6325 6725 50  0001 C CNN
	1    6325 6725
	1    0    0    -1  
$EndComp
$Comp
L power:GNDA #PWR043
U 1 1 5CF864CD
P 7550 6000
F 0 "#PWR043" H 7550 5750 50  0001 C CNN
F 1 "GNDA" H 7555 5827 50  0000 C CNN
F 2 "" H 7550 6000 50  0001 C CNN
F 3 "" H 7550 6000 50  0001 C CNN
	1    7550 6000
	1    0    0    -1  
$EndComp
$Comp
L power:GNDA #PWR044
U 1 1 5CFA54FF
P 7800 5550
F 0 "#PWR044" H 7800 5300 50  0001 C CNN
F 1 "GNDA" H 7805 5377 50  0000 C CNN
F 2 "" H 7800 5550 50  0001 C CNN
F 3 "" H 7800 5550 50  0001 C CNN
	1    7800 5550
	1    0    0    -1  
$EndComp
$Comp
L power:GNDA #PWR046
U 1 1 5CFC4531
P 8800 5550
F 0 "#PWR046" H 8800 5300 50  0001 C CNN
F 1 "GNDA" H 8805 5377 50  0000 C CNN
F 2 "" H 8800 5550 50  0001 C CNN
F 3 "" H 8800 5550 50  0001 C CNN
	1    8800 5550
	1    0    0    -1  
$EndComp
$Comp
L Device:D_Schottky D11
U 1 1 5CFCEF5A
P 10300 2700
F 0 "D11" V 10400 2850 50  0000 R CNN
F 1 "MBRS4201" V 10250 3175 50  0000 R CNN
F 2 "Diodes_SMD:D_SMC_Handsoldering" H 10300 2700 50  0001 C CNN
F 3 "~" H 10300 2700 50  0001 C CNN
	1    10300 2700
	0    -1   -1   0   
$EndComp
$Comp
L Device:D_Schottky D13
U 1 1 5CFCF417
P 10550 2700
F 0 "D13" V 10504 2779 50  0000 L CNN
F 1 "MBRS4201" V 10595 2779 50  0000 L CNN
F 2 "Diodes_SMD:D_SMC_Handsoldering" H 10550 2700 50  0001 C CNN
F 3 "~" H 10550 2700 50  0001 C CNN
	1    10550 2700
	0    1    1    0   
$EndComp
$Comp
L Device:D_Schottky D12
U 1 1 5CFCF606
P 10300 3200
F 0 "D12" V 10200 3050 50  0000 L CNN
F 1 "MBRS4201" V 10325 2725 50  0000 L CNN
F 2 "Diodes_SMD:D_SMC_Handsoldering" H 10300 3200 50  0001 C CNN
F 3 "~" H 10300 3200 50  0001 C CNN
	1    10300 3200
	0    1    1    0   
$EndComp
$Comp
L Device:D_Schottky D14
U 1 1 5CFCF60C
P 10550 3200
F 0 "D14" V 10596 3121 50  0000 R CNN
F 1 "MBRS4201" V 10505 3121 50  0000 R CNN
F 2 "Diodes_SMD:D_SMC_Handsoldering" H 10550 3200 50  0001 C CNN
F 3 "~" H 10550 3200 50  0001 C CNN
	1    10550 3200
	0    -1   -1   0   
$EndComp
$Comp
L Device:C C37
U 1 1 5D0E6C6E
P 9350 2925
F 0 "C37" H 9375 3025 50  0000 L CNN
F 1 "10nF" H 9375 2825 50  0000 L CNN
F 2 "Capacitors_SMD:C_1206_HandSoldering" H 9388 2775 50  0001 C CNN
F 3 "~" H 9350 2925 50  0001 C CNN
	1    9350 2925
	1    0    0    -1  
$EndComp
$Comp
L Device:C C38
U 1 1 5D0E6DF0
P 9650 3200
F 0 "C38" H 9675 3300 50  0000 L CNN
F 1 "150nF" H 9400 3100 50  0000 L CNN
F 2 "Capacitors_SMD:C_2220_HandSoldering" H 9688 3050 50  0001 C CNN
F 3 "https://hu.farnell.com/panasonic-electronic-components/echu1h154gx9/cap-0-15-f-50v-2-pps-2416/dp/2326071" H 9650 3200 50  0001 C CNN
	1    9650 3200
	1    0    0    -1  
$EndComp
$Comp
L Device:R R53
U 1 1 5D0E6FA5
P 9650 2700
F 0 "R53" H 9725 2775 50  0000 L CNN
F 1 "150" H 9450 2700 50  0000 L CNN
F 2 "Resistors_SMD:R_2512_HandSoldering" V 9580 2700 50  0001 C CNN
F 3 "~" H 9650 2700 50  0001 C CNN
	1    9650 2700
	1    0    0    -1  
$EndComp
Wire Wire Line
	9350 2775 9350 2475
Wire Wire Line
	9350 2475 9650 2475
Wire Wire Line
	10550 2475 10550 2550
Wire Wire Line
	10300 2550 10300 2475
Connection ~ 10300 2475
Wire Wire Line
	10300 2475 10550 2475
Wire Wire Line
	9650 2550 9650 2475
Connection ~ 9650 2475
Wire Wire Line
	9650 2475 10300 2475
Wire Wire Line
	9350 3075 9350 3425
Wire Wire Line
	9350 3425 9650 3425
Wire Wire Line
	10550 3425 10550 3350
Wire Wire Line
	9650 3350 9650 3425
Connection ~ 9650 3425
Wire Wire Line
	9650 3425 10300 3425
Wire Wire Line
	10300 3350 10300 3425
Connection ~ 10300 3425
Wire Wire Line
	10300 3425 10550 3425
Wire Wire Line
	9650 2850 9650 3050
Wire Wire Line
	10300 2850 10300 2875
Wire Wire Line
	10550 2850 10550 2975
$Comp
L power:GNDA #PWR048
U 1 1 5D22AFF7
P 11100 3225
F 0 "#PWR048" H 11100 2975 50  0001 C CNN
F 1 "GNDA" H 11105 3052 50  0000 C CNN
F 2 "" H 11100 3225 50  0001 C CNN
F 3 "" H 11100 3225 50  0001 C CNN
	1    11100 3225
	1    0    0    -1  
$EndComp
$Comp
L power:VCC #PWR047
U 1 1 5D22B132
P 11100 2650
F 0 "#PWR047" H 11100 2500 50  0001 C CNN
F 1 "VCC" H 11117 2823 50  0000 C CNN
F 2 "" H 11100 2650 50  0001 C CNN
F 3 "" H 11100 2650 50  0001 C CNN
	1    11100 2650
	1    0    0    -1  
$EndComp
Wire Wire Line
	10300 2875 11100 2875
Wire Wire Line
	11100 2875 11100 2650
Connection ~ 10300 2875
Wire Wire Line
	10300 2875 10300 3050
Wire Wire Line
	10550 2975 11100 2975
Wire Wire Line
	11100 2975 11100 3225
Connection ~ 10550 2975
Wire Wire Line
	10550 2975 10550 3050
$Comp
L power:VCC #PWR09
U 1 1 5D294DC1
P 825 4950
F 0 "#PWR09" H 825 4800 50  0001 C CNN
F 1 "VCC" H 842 5123 50  0000 C CNN
F 2 "" H 825 4950 50  0001 C CNN
F 3 "" H 825 4950 50  0001 C CNN
	1    825  4950
	1    0    0    -1  
$EndComp
$Comp
L power:VCC #PWR045
U 1 1 5D2951E6
P 8800 4925
F 0 "#PWR045" H 8800 4775 50  0001 C CNN
F 1 "VCC" H 8817 5098 50  0000 C CNN
F 2 "" H 8800 4925 50  0001 C CNN
F 3 "" H 8800 4925 50  0001 C CNN
	1    8800 4925
	1    0    0    -1  
$EndComp
Wire Wire Line
	8800 4925 8800 5000
Connection ~ 8800 5000
Wire Wire Line
	825  4950 825  5000
Connection ~ 825  5000
Wire Wire Line
	9075 2875 9200 2875
Connection ~ 9075 2875
Connection ~ 9350 2475
Wire Wire Line
	9075 2975 9200 2975
Connection ~ 9075 2975
Connection ~ 9350 3425
Text GLabel 4175 600  2    50   Input ~ 0
VCCL
Text GLabel 8325 600  2    50   Input ~ 0
VCCR
Wire Wire Line
	8325 600  8225 600 
Connection ~ 8225 600 
Wire Wire Line
	4175 600  4050 600 
Connection ~ 4050 600 
Wire Wire Line
	1500 5100 1550 5100
Wire Wire Line
	1550 5100 1550 5000
Connection ~ 1550 5000
Wire Wire Line
	1550 5000 1625 5000
Wire Wire Line
	8125 5100 8075 5100
Wire Wire Line
	8075 5100 8075 5000
Connection ~ 8075 5000
Wire Wire Line
	8075 5000 8000 5000
$Comp
L Device:D_Zener D7
U 1 1 5D6121C8
P 4475 6700
F 0 "D7" V 4429 6779 50  0000 L CNN
F 1 "MMBZ5234B" H 4500 6850 50  0000 L CNN
F 2 "Diodes_SMD:D_SOT-23_ANK" H 4475 6700 50  0001 C CNN
F 3 "~" H 4475 6700 50  0001 C CNN
	1    4475 6700
	0    1    1    0   
$EndComp
$Comp
L Device:D_Zener D1
U 1 1 5D6125CF
P 4475 6300
F 0 "D1" V 4521 6221 50  0000 R CNN
F 1 "MMBZ5234B" H 5075 6200 50  0000 R CNN
F 2 "Diodes_SMD:D_SOT-23_ANK" H 4475 6300 50  0001 C CNN
F 3 "~" H 4475 6300 50  0001 C CNN
	1    4475 6300
	0    -1   -1   0   
$EndComp
$Comp
L Device:D_Zener D16
U 1 1 5D61278D
P 5150 6700
F 0 "D16" V 5104 6779 50  0000 L CNN
F 1 "MMBZ5234B" H 5175 6550 50  0000 L CNN
F 2 "Diodes_SMD:D_SOT-23_ANK" H 5150 6700 50  0001 C CNN
F 3 "~" H 5150 6700 50  0001 C CNN
	1    5150 6700
	0    1    1    0   
$EndComp
$Comp
L Device:D_Zener D15
U 1 1 5D61293E
P 5150 6300
F 0 "D15" V 5196 6221 50  0000 R CNN
F 1 "MMBZ5234B" H 5750 6400 50  0000 R CNN
F 2 "Diodes_SMD:D_SOT-23_ANK" H 5150 6300 50  0001 C CNN
F 3 "~" H 5150 6300 50  0001 C CNN
	1    5150 6300
	0    -1   -1   0   
$EndComp
Wire Wire Line
	4125 5750 4075 5750
Wire Wire Line
	4075 5750 4075 6250
Wire Wire Line
	4425 5750 4475 5750
Wire Wire Line
	4475 5750 4475 5400
Wire Wire Line
	4475 5750 4475 6150
Connection ~ 4475 5750
Wire Wire Line
	4475 6450 4475 6550
Wire Wire Line
	5200 5750 5150 5750
Wire Wire Line
	5150 5750 5150 5400
Wire Wire Line
	5500 5750 5550 5750
Wire Wire Line
	5550 5750 5550 6250
Wire Wire Line
	5150 6150 5150 5750
Connection ~ 5150 5750
Wire Wire Line
	5150 6550 5150 6450
Wire Wire Line
	9200 2475 9200 2875
Wire Wire Line
	9200 3425 9200 2975
Wire Wire Line
	9200 3425 9350 3425
Wire Wire Line
	9200 2475 9350 2475
$EndSCHEMATC
